Name,Question_Number,Label,Code,Value,Level,Description,Note
ID,,Response ID,Text,NA,String,NA,NA
Q1_Weapon,Q1,Weapon preference,1, Bow,Nominal (categorical),NA,NA
Q1_Weapon,Q1,Weapon preference,2,Rifle,Nominal (categorical),NA,NA
Q1_Weapon,Q1,Weapon preference,3,Muzzleloader,Nominal (categorical),NA,NA
Q1_Weapon,Q1,Weapon preference,4,Shotgun,Nominal (categorical),NA,NA
Q2_Hunt,Q2,Hunted,1,Yes,Nominal (categorical),NA,NA
Q2_Hunt,Q2,Hunted,2,No,Nominal (categorical),NA,NA
Q3_Harvest,Q3,Harvested,1,Yes,Nominal (categorical),NA,NA
Q3_Harvest,Q3,Harvested,2,No,Nominal (categorical),NA,NA
Q4_Years,Q4,Years hunted in Idaho,1,1-4 years,Nominal (categorical),NA,NA
Q4_Years,Q4,Years hunted in Idaho,2,5-9 years,Nominal (categorical),NA,NA
Q4_Years,Q4,Years hunted in Idaho,3,10-14 years,Nominal (categorical),NA,NA
Q4_Years,Q4,Years hunted in Idaho,4,15-19 years,Nominal (categorical),NA,NA
Q4_Years,Q4,Years hunted in Idaho,5,20+ years,Nominal (categorical),NA,NA
Q5_Day,Q6A,Actual days in the field,Numeric,NA,String,YYYY-MM-DD,NA
Q6_Day2,Q6B,Number of days in the field estimate,Numeric,NA,Ordinal (continuous),NA,NA
Q7_LandType,Q7,Land type hunted most frequently,1,Public,Nominal (categorical),NA,NA
Q7_LandType,Q7,Land type hunted most frequently,2,Private,Nominal (categorical),NA,NA
Q7_LandType,Q7,Land type hunted most frequently,3,Access Yes,Nominal (categorical),NA,NA
Q8_Access_1_NonMotor,Q8,Access importance: Non-motorized use areas,1,Not at all important,Nominal (categorical),NA,NA
Q8_Access_1_NonMotor,Q8,Access importance: Non-motorized use areas,2,Slightly important,Nominal (categorical),NA,NA
Q8_Access_1_NonMotor,Q8,Access importance: Non-motorized use areas,3,Moderately important,Nominal (categorical),NA,NA
Q8_Access_1_NonMotor,Q8,Access importance: Non-motorized use areas,4,Very important,Nominal (categorical),NA,NA
Q8_Access_1_NonMotor,Q8,Access importance: Non-motorized use areas,5,Extremely important,Nominal (categorical),NA,NA
Q8_Access_2_Horseback,Q8,Access importance: Horseback/riding trails,1,Not at all important,Nominal (categorical),NA,NA
Q8_Access_2_Horseback,Q8,Access importance: Horseback/riding trails,2,Slightly important,Nominal (categorical),NA,NA
Q8_Access_2_Horseback,Q8,Access importance: Horseback/riding trails,3,Moderately important,Nominal (categorical),NA,NA
Q8_Access_2_Horseback,Q8,Access importance: Horseback/riding trails,4,Very important,Nominal (categorical),NA,NA
Q8_Access_2_Horseback,Q8,Access importance: Horseback/riding trails,5,Extremely important,Nominal (categorical),NA,NA
Q8_Access_3_UTV,Q8,Access importance: ATV/UTV/trail bike trails,1,Not at all important,Nominal (categorical),NA,NA
Q8_Access_3_UTV,Q8,Access importance: ATV/UTV/trail bike trails,2,Slightly important,Nominal (categorical),NA,NA
Q8_Access_3_UTV,Q8,Access importance: ATV/UTV/trail bike trails,3,Moderately important,Nominal (categorical),NA,NA
Q8_Access_3_UTV,Q8,Access importance: ATV/UTV/trail bike trails,4,Very important,Nominal (categorical),NA,NA
Q8_Access_3_UTV,Q8,Access importance: ATV/UTV/trail bike trails,5,Extremely important,Nominal (categorical),NA,NA
Q8_Access_4_MultiUse,Q8,Access importance: Multi-use trails,1,Not at all important,Nominal (categorical),NA,NA
Q8_Access_4_MultiUse,Q8,Access importance: Multi-use trails,2,Slightly important,Nominal (categorical),NA,NA
Q8_Access_4_MultiUse,Q8,Access importance: Multi-use trails,3,Moderately important,Nominal (categorical),NA,NA
Q8_Access_4_MultiUse,Q8,Access importance: Multi-use trails,4,Very important,Nominal (categorical),NA,NA
Q8_Access_4_MultiUse,Q8,Access importance: Multi-use trails,5,Extremely important,Nominal (categorical),NA,NA
Q8_Access_5_RoadsNonMotor,Q8,Access importance: Roads that are closed to all motorized use,1,Not at all important,Nominal (categorical),NA,NA
Q8_Access_5_RoadsNonMotor,Q8,Access importance: Roads that are closed to all motorized use,2,Slightly important,Nominal (categorical),NA,NA
Q8_Access_5_RoadsNonMotor,Q8,Access importance: Roads that are closed to all motorized use,3,Moderately important,Nominal (categorical),NA,NA
Q8_Access_5_RoadsNonMotor,Q8,Access importance: Roads that are closed to all motorized use,4,Very important,Nominal (categorical),NA,NA
Q8_Access_5_RoadsNonMotor,Q8,Access importance: Roads that are closed to all motorized use,5,Extremely important,Nominal (categorical),NA,NA
Q8_Access_6_RoadsVehicle,Q8,Access importance: Roads that are open to travel by full sized vehicles,1,Not at all important,Nominal (categorical),NA,NA
Q8_Access_6_RoadsVehicle,Q8,Access importance: Roads that are open to travel by full sized vehicles,2,Slightly important,Nominal (categorical),NA,NA
Q8_Access_6_RoadsVehicle,Q8,Access importance: Roads that are open to travel by full sized vehicles,3,Moderately important,Nominal (categorical),NA,NA
Q8_Access_6_RoadsVehicle,Q8,Access importance: Roads that are open to travel by full sized vehicles,4,Very important,Nominal (categorical),NA,NA
Q8_Access_6_RoadsVehicle,Q8,Access importance: Roads that are open to travel by full sized vehicles,5,Extremely important,Nominal (categorical),NA,NA
Q9_Travel_1_Walk,Q9,Primary travel mode frequency: Walked on foot,1,Never,Nominal (categorical),NA,NA
Q9_Travel_1_Walk,Q9,Primary travel mode frequency: Walked on foot,2,Rarely,Nominal (categorical),NA,NA
Q9_Travel_1_Walk,Q9,Primary travel mode frequency: Walked on foot,3,Sometimes,Nominal (categorical),NA,NA
Q9_Travel_1_Walk,Q9,Primary travel mode frequency: Walked on foot,4,Often,Nominal (categorical),NA,NA
Q9_Travel_1_Walk,Q9,Primary travel mode frequency: Walked on foot,5,Always,Nominal (categorical),NA,NA
Q9_Travel_2_Horse,Q9,Primary travel mode frequency: Rode a horse,1,Never,Nominal (categorical),NA,NA
Q9_Travel_2_Horse,Q9,Primary travel mode frequency: Rode a horse,2,Rarely,Nominal (categorical),NA,NA
Q9_Travel_2_Horse,Q9,Primary travel mode frequency: Rode a horse,3,Sometimes,Nominal (categorical),NA,NA
Q9_Travel_2_Horse,Q9,Primary travel mode frequency: Rode a horse,4,Often,Nominal (categorical),NA,NA
Q9_Travel_2_Horse,Q9,Primary travel mode frequency: Rode a horse,5,Always,Nominal (categorical),NA,NA
Q9_Travel_3_UTV,Q9,Primary travel mode frequency: Rode UTV/trail bike on trails/roads closed to full-size vehicle travel,1,Never,Nominal (categorical),NA,NA
Q9_Travel_3_UTV,Q9,Primary travel mode frequency: Rode UTV/trail bike on trails/roads closed to full-size vehicle travel,2,Rarely,Nominal (categorical),NA,NA
Q9_Travel_3_UTV,Q9,Primary travel mode frequency: Rode UTV/trail bike on trails/roads closed to full-size vehicle travel,3,Sometimes,Nominal (categorical),NA,NA
Q9_Travel_3_UTV,Q9,Primary travel mode frequency: Rode UTV/trail bike on trails/roads closed to full-size vehicle travel,4,Often,Nominal (categorical),NA,NA
Q9_Travel_3_UTV,Q9,Primary travel mode frequency: Rode UTV/trail bike on trails/roads closed to full-size vehicle travel,5,Always,Nominal (categorical),NA,NA
Q9_Travel_4_Vehicle,Q9,Primary travel mode frequency: Drove vehicle along roads open to full-size vehicle travel,1,Never,Nominal (categorical),NA,NA
Q9_Travel_4_Vehicle,Q9,Primary travel mode frequency: Drove vehicle along roads open to full-size vehicle travel,2,Rarely,Nominal (categorical),NA,NA
Q9_Travel_4_Vehicle,Q9,Primary travel mode frequency: Drove vehicle along roads open to full-size vehicle travel,3,Sometimes,Nominal (categorical),NA,NA
Q9_Travel_4_Vehicle,Q9,Primary travel mode frequency: Drove vehicle along roads open to full-size vehicle travel,4,Often,Nominal (categorical),NA,NA
Q9_Travel_4_Vehicle,Q9,Primary travel mode frequency: Drove vehicle along roads open to full-size vehicle travel,5,Always,Nominal (categorical),NA,NA
Q10_Satf_1_Overall,Q10,Satisfaction: Your overall deer hunting experience,1,Very dissatisfied,Nominal (categorical),NA,NA
Q10_Satf_1_Overall,Q10,Satisfaction: Your overall deer hunting experience,2,Dissatisfied,Nominal (categorical),NA,NA
Q10_Satf_1_Overall,Q10,Satisfaction: Your overall deer hunting experience,3,Neither,Nominal (categorical),NA,NA
Q10_Satf_1_Overall,Q10,Satisfaction: Your overall deer hunting experience,4,Satisfied,Nominal (categorical),NA,NA
Q10_Satf_1_Overall,Q10,Satisfaction: Your overall deer hunting experience,5,Very satisfied,Nominal (categorical),NA,NA
Q10_Satf_2_Legal,Q10,Satisfaction: The number of legal bucks you saw,1,Very dissatisfied,Nominal (categorical),NA,NA
Q10_Satf_2_Legal,Q10,Satisfaction: The number of legal bucks you saw,2,Dissatisfied,Nominal (categorical),NA,NA
Q10_Satf_2_Legal,Q10,Satisfaction: The number of legal bucks you saw,3,Neither,Nominal (categorical),NA,NA
Q10_Satf_2_Legal,Q10,Satisfaction: The number of legal bucks you saw,4,Satisfied,Nominal (categorical),NA,NA
Q10_Satf_2_Legal,Q10,Satisfaction: The number of legal bucks you saw,5,Very satisfied,Nominal (categorical),NA,NA
Q10_Satf_3_Trophy,Q10,Satisfaction: The number of trophy bucks you saw,1,Very dissatisfied,Nominal (categorical),NA,NA
Q10_Satf_3_Trophy,Q10,Satisfaction: The number of trophy bucks you saw,2,Dissatisfied,Nominal (categorical),NA,NA
Q10_Satf_3_Trophy,Q10,Satisfaction: The number of trophy bucks you saw,3,Neither,Nominal (categorical),NA,NA
Q10_Satf_3_Trophy,Q10,Satisfaction: The number of trophy bucks you saw,4,Satisfied,Nominal (categorical),NA,NA
Q10_Satf_3_Trophy,Q10,Satisfaction: The number of trophy bucks you saw,5,Very satisfied,Nominal (categorical),NA,NA
Q10_Satf_4_Adult,Q10,Satisfaction: The number of adult bucks you saw,1,Very dissatisfied,Nominal (categorical),NA,NA
Q10_Satf_4_Adult,Q10,Satisfaction: The number of adult bucks you saw,2,Dissatisfied,Nominal (categorical),NA,NA
Q10_Satf_4_Adult,Q10,Satisfaction: The number of adult bucks you saw,3,Neither,Nominal (categorical),NA,NA
Q10_Satf_4_Adult,Q10,Satisfaction: The number of adult bucks you saw,4,Satisfied,Nominal (categorical),NA,NA
Q10_Satf_4_Adult,Q10,Satisfaction: The number of adult bucks you saw,5,Very satisfied,Nominal (categorical),NA,NA
Q10_Satf_5_Antlerless,Q10,Satisfaction: The number of antlerless deer you saw,1,Very dissatisfied,Nominal (categorical),NA,NA
Q10_Satf_5_Antlerless,Q10,Satisfaction: The number of antlerless deer you saw,2,Dissatisfied,Nominal (categorical),NA,NA
Q10_Satf_5_Antlerless,Q10,Satisfaction: The number of antlerless deer you saw,3,Neither,Nominal (categorical),NA,NA
Q10_Satf_5_Antlerless,Q10,Satisfaction: The number of antlerless deer you saw,4,Satisfied,Nominal (categorical),NA,NA
Q10_Satf_5_Antlerless,Q10,Satisfaction: The number of antlerless deer you saw,5,Very satisfied,Nominal (categorical),NA,NA
Q10_Satf_6_OtherHunters,Q10,Satisfaction: The number of other hunters you saw,1,Very dissatisfied,Nominal (categorical),NA,NA
Q10_Satf_6_OtherHunters,Q10,Satisfaction: The number of other hunters you saw,2,Dissatisfied,Nominal (categorical),NA,NA
Q10_Satf_6_OtherHunters,Q10,Satisfaction: The number of other hunters you saw,3,Neither,Nominal (categorical),NA,NA
Q10_Satf_6_OtherHunters,Q10,Satisfaction: The number of other hunters you saw,4,Satisfied,Nominal (categorical),NA,NA
Q10_Satf_6_OtherHunters,Q10,Satisfaction: The number of other hunters you saw,5,Very satisfied,Nominal (categorical),NA,NA
Q10_Satf_7_Regs,Q10,Satisfaction: The deer hunting regulations,1,Very dissatisfied,Nominal (categorical),NA,NA
Q10_Satf_7_Regs,Q10,Satisfaction: The deer hunting regulations,2,Dissatisfied,Nominal (categorical),NA,NA
Q10_Satf_7_Regs,Q10,Satisfaction: The deer hunting regulations,3,Neither,Nominal (categorical),NA,NA
Q10_Satf_7_Regs,Q10,Satisfaction: The deer hunting regulations,4,Satisfied,Nominal (categorical),NA,NA
Q10_Satf_7_Regs,Q10,Satisfaction: The deer hunting regulations,5,Very satisfied,Nominal (categorical),NA,NA
Q11_Crowd,Q11,Perceived crowding rating,1,1 (Not at all),Ordinal (continuous),NA,NA
Q11_Crowd,Q11,Perceived crowding rating,2,2 (Not at all),Ordinal (continuous),NA,NA
Q11_Crowd,Q11,Perceived crowding rating,3,3 (Slightly),Ordinal (continuous),NA,NA
Q11_Crowd,Q11,Perceived crowding rating,4,4 (Slightly),Ordinal (continuous),NA,NA
Q11_Crowd,Q11,Perceived crowding rating,5,5 (Moderately),Ordinal (continuous),NA,NA
Q11_Crowd,Q11,Perceived crowding rating,6,6 (Moderately),Ordinal (continuous),NA,NA
Q11_Crowd,Q11,Perceived crowding rating,7,7 (Moderately),Ordinal (continuous),NA,NA
Q11_Crowd,Q11,Perceived crowding rating,8,8 (Extremely),Ordinal (continuous),NA,NA
Q11_Crowd,Q11,Perceived crowding rating,9,9 (Extremely),Ordinal (continuous),NA,NA
Q12_CrowdNumbers,Q12,Perceived hunter numbers change,1,1 (Fewer hunters),Ordinal (continuous),NA,NA
Q12_CrowdNumbers,Q12,Perceived hunter numbers change,2,2 (Fewer hunters),Ordinal (continuous),NA,NA
Q12_CrowdNumbers,Q12,Perceived hunter numbers change,3,3 (Fewer hunters),Ordinal (continuous),NA,NA
Q12_CrowdNumbers,Q12,Perceived hunter numbers change,4,4 (Fewer hunters),Ordinal (continuous),NA,NA
Q12_CrowdNumbers,Q12,Perceived hunter numbers change,5,5 (No change),Ordinal (continuous),NA,NA
Q12_CrowdNumbers,Q12,Perceived hunter numbers change,6,6 (More hunters),Ordinal (continuous),NA,NA
Q12_CrowdNumbers,Q12,Perceived hunter numbers change,7,7 (More hunters),Ordinal (continuous),NA,NA
Q12_CrowdNumbers,Q12,Perceived hunter numbers change,8,8 (More hunters),Ordinal (continuous),NA,NA
Q12_CrowdNumbers,Q12,Perceived hunter numbers change,9,9 (More hunters),Ordinal (continuous),NA,NA
Q13_CrowdReason,Q13,Contributed most to the crowding,1,Number of other hunters,Nominal (categorical),NA,NA
Q13_CrowdReason,Q13,Contributed most to the crowding,2,Access to hunting areas,Nominal (categorical),NA,NA
Q13_CrowdReason,Q13,Contributed most to the crowding,3,I don't think crowding is an issue,Nominal (categorical),NA,NA
Q13A_OtherHunters,Q13A,Who contributes the most to crowding,1,Other Idaho hunters,Nominal (categorical),NA,NA
Q13A_OtherHunters,Q13A,Who contributes the most to crowding,2,Non-hunters using the same area,Nominal (categorical),NA,NA
Q13A_OtherHunters,Q13A,Who contributes the most to crowding,3,Non-resident hunters in Idaho,Nominal (categorical),NA,NA
Q13A_OtherHunters,Q13A,Who contributes the most to crowding,4,Other,Nominal (categorical),NA,NA
Q13B_Access,Q13B,What contributes the most to access,1,Trail designations ,Nominal (categorical),NA,NA
Q13B_Access,Q13B,What contributes the most to access,2,Environmental conditions,Nominal (categorical),NA,NA
Q13B_Access,Q13B,What contributes the most to access,3,Personal issues,Nominal (categorical),NA,NA
Q13B_Access,Q13B,What contributes the most to access,4,Other,Nominal (categorical),NA,NA
Q14_Difficulty,Q14,Difficulty hunting in preferred location,1,Very difficult,Nominal (categorical),NA,NA
Q14_Difficulty,Q14,Difficulty hunting in preferred location,2,Difficult,Nominal (categorical),NA,NA
Q14_Difficulty,Q14,Difficulty hunting in preferred location,3,Neither,Nominal (categorical),NA,NA
Q14_Difficulty,Q14,Difficulty hunting in preferred location,4,Easy,Nominal (categorical),NA,NA
Q14_Difficulty,Q14,Difficulty hunting in preferred location,5,Very easy,Nominal (categorical),NA,NA
Q15_Encounter,Q15,Encounter other hunters,1,Never,Nominal (categorical),NA,NA
Q15_Encounter,Q15,Encounter other hunters,2,Seldom,Nominal (categorical),NA,NA
Q15_Encounter,Q15,Encounter other hunters,3,About half the time,Nominal (categorical),NA,NA
Q15_Encounter,Q15,Encounter other hunters,4,Most of the time,Nominal (categorical),NA,NA
Q15_Encounter,Q15,Encounter other hunters,5,Always,Nominal (categorical),NA,NA
Q16_Displacement,Q16,Displacement experienced,1,Never,Nominal (categorical),NA,NA
Q16_Displacement,Q16,Displacement experienced,2,Seldom,Nominal (categorical),NA,NA
Q16_Displacement,Q16,Displacement experienced,3,About half the time,Nominal (categorical),NA,NA
Q16_Displacement,Q16,Displacement experienced,4,Most of the time,Nominal (categorical),NA,NA
Q16_Displacement,Q16,Displacement experienced,5,Always,Nominal (categorical),NA,NA
Q17_Expect_1_Parking,Q17,Hunter numbers expected: At the parking area,1,Much worse (I encountered many more hunters than I expected),Nominal (categorical),NA,NA
Q17_Expect_1_Parking,Q17,Hunter numbers expected: At the parking area,2,Somewhat worse (I encountered more hunters than I expected),Nominal (categorical),NA,NA
Q17_Expect_1_Parking,Q17,Hunter numbers expected: At the parking area,3,About the same (I encountered the number of other hunters I expected),Nominal (categorical),NA,NA
Q17_Expect_1_Parking,Q17,Hunter numbers expected: At the parking area,4,Somewhat better (I encountered fewer hunters than I expected),Nominal (categorical),NA,NA
Q17_Expect_1_Parking,Q17,Hunter numbers expected: At the parking area,5,Much better (I encountered far fewer hunters than I expected),Nominal (categorical),NA,NA
Q17_Expect_2_Camp,Q17,Hunter numbers expected: At the hunt camp,1,Much worse (I encountered many more hunters than I expected),Nominal (categorical),NA,NA
Q17_Expect_2_Camp,Q17,Hunter numbers expected: At the hunt camp,2,Somewhat worse (I encountered more hunters than I expected),Nominal (categorical),NA,NA
Q17_Expect_2_Camp,Q17,Hunter numbers expected: At the hunt camp,3,About the same (I encountered the number of other hunters I expected),Nominal (categorical),NA,NA
Q17_Expect_2_Camp,Q17,Hunter numbers expected: At the hunt camp,4,Somewhat better (I encountered fewer hunters than I expected),Nominal (categorical),NA,NA
Q17_Expect_2_Camp,Q17,Hunter numbers expected: At the hunt camp,5,Much better (I encountered far fewer hunters than I expected),Nominal (categorical),NA,NA
Q17_Expect_3_Trail,Q17,Hunter numbers expected: On the trail,1,Much worse (I encountered many more hunters than I expected),Nominal (categorical),NA,NA
Q17_Expect_3_Trail,Q17,Hunter numbers expected: On the trail,2,Somewhat worse (I encountered more hunters than I expected),Nominal (categorical),NA,NA
Q17_Expect_3_Trail,Q17,Hunter numbers expected: On the trail,3,About the same (I encountered the number of other hunters I expected),Nominal (categorical),NA,NA
Q17_Expect_3_Trail,Q17,Hunter numbers expected: On the trail,4,Somewhat better (I encountered fewer hunters than I expected),Nominal (categorical),NA,NA
Q17_Expect_3_Trail,Q17,Hunter numbers expected: On the trail,5,Much better (I encountered far fewer hunters than I expected),Nominal (categorical),NA,NA
Q17_Expect_4_Field,Q17,Hunter numbers expected: In the field,1,Much worse (I encountered many more hunters than I expected),Nominal (categorical),NA,NA
Q17_Expect_4_Field,Q17,Hunter numbers expected: In the field,2,Somewhat worse (I encountered more hunters than I expected),Nominal (categorical),NA,NA
Q17_Expect_4_Field,Q17,Hunter numbers expected: In the field,3,About the same (I encountered the number of other hunters I expected),Nominal (categorical),NA,NA
Q17_Expect_4_Field,Q17,Hunter numbers expected: In the field,4,Somewhat better (I encountered fewer hunters than I expected),Nominal (categorical),NA,NA
Q17_Expect_4_Field,Q17,Hunter numbers expected: In the field,5,Much better (I encountered far fewer hunters than I expected),Nominal (categorical),NA,NA
Q17_Expect_5_Spot,Q17,Hunter numbers expected: At my preferred hunting spot,1,Much worse (I encountered many more hunters than I expected),Nominal (categorical),NA,NA
Q17_Expect_5_Spot,Q17,Hunter numbers expected: At my preferred hunting spot,2,Somewhat worse (I encountered more hunters than I expected),Nominal (categorical),NA,NA
Q17_Expect_5_Spot,Q17,Hunter numbers expected: At my preferred hunting spot,3,About the same (I encountered the number of other hunters I expected),Nominal (categorical),NA,NA
Q17_Expect_5_Spot,Q17,Hunter numbers expected: At my preferred hunting spot,4,Somewhat better (I encountered fewer hunters than I expected),Nominal (categorical),NA,NA
Q17_Expect_5_Spot,Q17,Hunter numbers expected: At my preferred hunting spot,5,Much better (I encountered far fewer hunters than I expected),Nominal (categorical),NA,NA
Q18_HarvestSuccess,Q18,Harvest success (Idaho),1,Much worse,Nominal (categorical),NA,NA
Q18_HarvestSuccess,Q18,Harvest success (Idaho),2,Worse,Nominal (categorical),NA,NA
Q18_HarvestSuccess,Q18,Harvest success (Idaho),3,No change,Nominal (categorical),NA,NA
Q18_HarvestSuccess,Q18,Harvest success (Idaho),4,Better,Nominal (categorical),NA,NA
Q18_HarvestSuccess,Q18,Harvest success (Idaho),5,Much better,Nominal (categorical),NA,NA
Q19_HuntSatf,Q19,Hunt satisfaction (Idaho),1,Very dissatisfied,Nominal (categorical),NA,NA
Q19_HuntSatf,Q19,Hunt satisfaction (Idaho),2,Dissatisfied,Nominal (categorical),NA,NA
Q19_HuntSatf,Q19,Hunt satisfaction (Idaho),3,Neither,Nominal (categorical),NA,NA
Q19_HuntSatf,Q19,Hunt satisfaction (Idaho),4,Satisfied,Nominal (categorical),NA,NA
Q19_HuntSatf,Q19,Hunt satisfaction (Idaho),5,Very satisfied,Nominal (categorical),NA,NA
Q20_Access_Public,Q20,Public access change (Idaho),1,Much less access,Nominal (categorical),NA,NA
Q20_Access_Public,Q20,Public access change (Idaho),2,Less access,Nominal (categorical),NA,NA
Q20_Access_Public,Q20,Public access change (Idaho),3,No change,Nominal (categorical),NA,NA
Q20_Access_Public,Q20,Public access change (Idaho),4,More access,Nominal (categorical),NA,NA
Q20_Access_Public,Q20,Public access change (Idaho),5,Much more access,Nominal (categorical),NA,NA
Q21_Access_Private,Q21,Private access change (Idaho),1,Much less access,Nominal (categorical),NA,NA
Q21_Access_Private,Q21,Private access change (Idaho),2,Less access,Nominal (categorical),NA,NA
Q21_Access_Private,Q21,Private access change (Idaho),3,No change,Nominal (categorical),NA,NA
Q21_Access_Private,Q21,Private access change (Idaho),4,More access,Nominal (categorical),NA,NA
Q21_Access_Private,Q21,Private access change (Idaho),5,Much more access,Nominal (categorical),NA,NA
Q22_Import_1_SeeLegal,Q22,Importance: Seeing legal bucks in the field,1,Not at all important,Nominal (categorical),NA,NA
Q22_Import_1_SeeLegal,Q22,Importance: Seeing legal bucks in the field,2,Slightly important,Nominal (categorical),NA,NA
Q22_Import_1_SeeLegal,Q22,Importance: Seeing legal bucks in the field,3,Moderately important,Nominal (categorical),NA,NA
Q22_Import_1_SeeLegal,Q22,Importance: Seeing legal bucks in the field,4,Very important,Nominal (categorical),NA,NA
Q22_Import_1_SeeLegal,Q22,Importance: Seeing legal bucks in the field,5,Extremely important,Nominal (categorical),NA,NA
Q22_Import_2_SeeAntlerless,Q22,Importance: Seeing antlerless deer in the field,1,Not at all important,Nominal (categorical),NA,NA
Q22_Import_2_SeeAntlerless,Q22,Importance: Seeing antlerless deer in the field,2,Slightly important,Nominal (categorical),NA,NA
Q22_Import_2_SeeAntlerless,Q22,Importance: Seeing antlerless deer in the field,3,Moderately important,Nominal (categorical),NA,NA
Q22_Import_2_SeeAntlerless,Q22,Importance: Seeing antlerless deer in the field,4,Very important,Nominal (categorical),NA,NA
Q22_Import_2_SeeAntlerless,Q22,Importance: Seeing antlerless deer in the field,5,Extremely important,Nominal (categorical),NA,NA
Q22_Import_3_SeeTrophy,Q22,Importance: Seeing trophy bucks in the field,1,Not at all important,Nominal (categorical),NA,NA
Q22_Import_3_SeeTrophy,Q22,Importance: Seeing trophy bucks in the field,2,Slightly important,Nominal (categorical),NA,NA
Q22_Import_3_SeeTrophy,Q22,Importance: Seeing trophy bucks in the field,3,Moderately important,Nominal (categorical),NA,NA
Q22_Import_3_SeeTrophy,Q22,Importance: Seeing trophy bucks in the field,4,Very important,Nominal (categorical),NA,NA
Q22_Import_3_SeeTrophy,Q22,Importance: Seeing trophy bucks in the field,5,Extremely important,Nominal (categorical),NA,NA
Q22_Import_4_ShootLegal,Q22,Importance: Shooting at a legal bucks,1,Not at all important,Nominal (categorical),NA,NA
Q22_Import_4_ShootLegal,Q22,Importance: Shooting at a legal bucks,2,Slightly important,Nominal (categorical),NA,NA
Q22_Import_4_ShootLegal,Q22,Importance: Shooting at a legal bucks,3,Moderately important,Nominal (categorical),NA,NA
Q22_Import_4_ShootLegal,Q22,Importance: Shooting at a legal bucks,4,Very important,Nominal (categorical),NA,NA
Q22_Import_4_ShootLegal,Q22,Importance: Shooting at a legal bucks,5,Extremely important,Nominal (categorical),NA,NA
Q22_Import_5_ShootAdult,Q22,Importance: Shooting at adult bucks,1,Not at all important,Nominal (categorical),NA,NA
Q22_Import_5_ShootAdult,Q22,Importance: Shooting at adult bucks,2,Slightly important,Nominal (categorical),NA,NA
Q22_Import_5_ShootAdult,Q22,Importance: Shooting at adult bucks,3,Moderately important,Nominal (categorical),NA,NA
Q22_Import_5_ShootAdult,Q22,Importance: Shooting at adult bucks,4,Very important,Nominal (categorical),NA,NA
Q22_Import_5_ShootAdult,Q22,Importance: Shooting at adult bucks,5,Extremely important,Nominal (categorical),NA,NA
Q22_Import_6_ShootTrophy,Q22,Importance: Shooting at trophy bucks,1,Not at all important,Nominal (categorical),NA,NA
Q22_Import_6_ShootTrophy,Q22,Importance: Shooting at trophy bucks,2,Slightly important,Nominal (categorical),NA,NA
Q22_Import_6_ShootTrophy,Q22,Importance: Shooting at trophy bucks,3,Moderately important,Nominal (categorical),NA,NA
Q22_Import_6_ShootTrophy,Q22,Importance: Shooting at trophy bucks,4,Very important,Nominal (categorical),NA,NA
Q22_Import_6_ShootTrophy,Q22,Importance: Shooting at trophy bucks,5,Extremely important,Nominal (categorical),NA,NA
Q22_Import_7_FillTag,Q22,Importance: Filling my tag,1,Not at all important,Nominal (categorical),NA,NA
Q22_Import_7_FillTag,Q22,Importance: Filling my tag,2,Slightly important,Nominal (categorical),NA,NA
Q22_Import_7_FillTag,Q22,Importance: Filling my tag,3,Moderately important,Nominal (categorical),NA,NA
Q22_Import_7_FillTag,Q22,Importance: Filling my tag,4,Very important,Nominal (categorical),NA,NA
Q22_Import_7_FillTag,Q22,Importance: Filling my tag,5,Extremely important,Nominal (categorical),NA,NA
Q23_Actual_1_SeeLegal,Q23,Actualization: Saw legal bucks in the field,1,Not at all,Nominal (categorical),NA,NA
Q23_Actual_1_SeeLegal,Q23,Actualization: Saw legal bucks in the field,2,Slightly,Nominal (categorical),NA,NA
Q23_Actual_1_SeeLegal,Q23,Actualization: Saw legal bucks in the field,3,Somewhat,Nominal (categorical),NA,NA
Q23_Actual_1_SeeLegal,Q23,Actualization: Saw legal bucks in the field,4,Mostly,Nominal (categorical),NA,NA
Q23_Actual_1_SeeLegal,Q23,Actualization: Saw legal bucks in the field,5,Very much,Nominal (categorical),NA,NA
Q23_Actual_2_SeeAntlerless,Q23,Actualization: Saw antlerless deer in the field,1,Not at all,Nominal (categorical),NA,NA
Q23_Actual_2_SeeAntlerless,Q23,Actualization: Saw antlerless deer in the field,2,Slightly,Nominal (categorical),NA,NA
Q23_Actual_2_SeeAntlerless,Q23,Actualization: Saw antlerless deer in the field,3,Somewhat,Nominal (categorical),NA,NA
Q23_Actual_2_SeeAntlerless,Q23,Actualization: Saw antlerless deer in the field,4,Mostly,Nominal (categorical),NA,NA
Q23_Actual_2_SeeAntlerless,Q23,Actualization: Saw antlerless deer in the field,5,Very much,Nominal (categorical),NA,NA
Q23_Actual_3_SeeTrophy,Q23,Actualization: Saw trophy bucks in the field,1,Not at all,Nominal (categorical),NA,NA
Q23_Actual_3_SeeTrophy,Q23,Actualization: Saw trophy bucks in the field,2,Slightly,Nominal (categorical),NA,NA
Q23_Actual_3_SeeTrophy,Q23,Actualization: Saw trophy bucks in the field,3,Somewhat,Nominal (categorical),NA,NA
Q23_Actual_3_SeeTrophy,Q23,Actualization: Saw trophy bucks in the field,4,Mostly,Nominal (categorical),NA,NA
Q23_Actual_3_SeeTrophy,Q23,Actualization: Saw trophy bucks in the field,5,Very much,Nominal (categorical),NA,NA
Q23_Actual_4_ShootLegal,Q23,Actualization: Shot at a legal bucks,1,Not at all,Nominal (categorical),NA,NA
Q23_Actual_4_ShootLegal,Q23,Actualization: Shot at a legal bucks,2,Slightly,Nominal (categorical),NA,NA
Q23_Actual_4_ShootLegal,Q23,Actualization: Shot at a legal bucks,3,Somewhat,Nominal (categorical),NA,NA
Q23_Actual_4_ShootLegal,Q23,Actualization: Shot at a legal bucks,4,Mostly,Nominal (categorical),NA,NA
Q23_Actual_4_ShootLegal,Q23,Actualization: Shot at a legal bucks,5,Very much,Nominal (categorical),NA,NA
Q23_Actual_5_ShootAdult,Q23,Actualization: Shot at adult bucks,1,Not at all,Nominal (categorical),NA,NA
Q23_Actual_5_ShootAdult,Q23,Actualization: Shot at adult bucks,2,Slightly,Nominal (categorical),NA,NA
Q23_Actual_5_ShootAdult,Q23,Actualization: Shot at adult bucks,3,Somewhat,Nominal (categorical),NA,NA
Q23_Actual_5_ShootAdult,Q23,Actualization: Shot at adult bucks,4,Mostly,Nominal (categorical),NA,NA
Q23_Actual_5_ShootAdult,Q23,Actualization: Shot at adult bucks,5,Very much,Nominal (categorical),NA,NA
Q23_Actual_6_ShootTrophy,Q23,Actualization: Shot at trophy bucks,1,Not at all,Nominal (categorical),NA,NA
Q23_Actual_6_ShootTrophy,Q23,Actualization: Shot at trophy bucks,2,Slightly,Nominal (categorical),NA,NA
Q23_Actual_6_ShootTrophy,Q23,Actualization: Shot at trophy bucks,3,Somewhat,Nominal (categorical),NA,NA
Q23_Actual_6_ShootTrophy,Q23,Actualization: Shot at trophy bucks,4,Mostly,Nominal (categorical),NA,NA
Q23_Actual_6_ShootTrophy,Q23,Actualization: Shot at trophy bucks,5,Very much,Nominal (categorical),NA,NA
Q23_Actual_7_FillTag,Q23,Actualization: Filled my tag,1,Not at all,Nominal (categorical),NA,NA
Q23_Actual_7_FillTag,Q23,Actualization: Filled my tag,2,Slightly,Nominal (categorical),NA,NA
Q23_Actual_7_FillTag,Q23,Actualization: Filled my tag,3,Somewhat,Nominal (categorical),NA,NA
Q23_Actual_7_FillTag,Q23,Actualization: Filled my tag,4,Mostly,Nominal (categorical),NA,NA
Q23_Actual_7_FillTag,Q23,Actualization: Filled my tag,5,Very much,Nominal (categorical),NA,NA
Q24_Procedure_1,Q25,Procedural trust: The procedures IDFG uses to make decisions are fair to Idahoans,1,Strongly disagree,Nominal (categorical),NA,NA
Q24_Procedure_1,Q25,Procedural trust: The procedures IDFG uses to make decisions are fair to Idahoans,2,Disagree,Nominal (categorical),NA,NA
Q24_Procedure_1,Q25,Procedural trust: The procedures IDFG uses to make decisions are fair to Idahoans,3,Neither,Nominal (categorical),NA,NA
Q24_Procedure_1,Q25,Procedural trust: The procedures IDFG uses to make decisions are fair to Idahoans,4,Agree,Nominal (categorical),NA,NA
Q24_Procedure_1,Q25,Procedural trust: The procedures IDFG uses to make decisions are fair to Idahoans,5,Strongly agree,Nominal (categorical),NA,NA
Q24_Procedure_2,Q25,Procedural trust: IDFG has been fair in their dealings with Idahoans,1,Strongly disagree,Nominal (categorical),NA,NA
Q24_Procedure_2,Q25,Procedural trust: IDFG has been fair in their dealings with Idahoans,2,Disagree,Nominal (categorical),NA,NA
Q24_Procedure_2,Q25,Procedural trust: IDFG has been fair in their dealings with Idahoans,3,Neither,Nominal (categorical),NA,NA
Q24_Procedure_2,Q25,Procedural trust: IDFG has been fair in their dealings with Idahoans,4,Agree,Nominal (categorical),NA,NA
Q24_Procedure_2,Q25,Procedural trust: IDFG has been fair in their dealings with Idahoans,5,Strongly agree,Nominal (categorical),NA,NA
Q24_Procedure_3,Q25,Procedural trust: I can freely express my points of view to IDFG decision makers,1,Strongly disagree,Nominal (categorical),NA,NA
Q24_Procedure_3,Q25,Procedural trust: I can freely express my points of view to IDFG decision makers,2,Disagree,Nominal (categorical),NA,NA
Q24_Procedure_3,Q25,Procedural trust: I can freely express my points of view to IDFG decision makers,3,Neither,Nominal (categorical),NA,NA
Q24_Procedure_3,Q25,Procedural trust: I can freely express my points of view to IDFG decision makers,4,Agree,Nominal (categorical),NA,NA
Q24_Procedure_3,Q25,Procedural trust: I can freely express my points of view to IDFG decision makers,5,Strongly agree,Nominal (categorical),NA,NA
Q24_Procedure_4,Q25,Procedural trust: I think my opinion influences a decision maker similar to the influence of others,1,Strongly disagree,Nominal (categorical),NA,NA
Q24_Procedure_4,Q25,Procedural trust: I think my opinion influences a decision maker similar to the influence of others,2,Disagree,Nominal (categorical),NA,NA
Q24_Procedure_4,Q25,Procedural trust: I think my opinion influences a decision maker similar to the influence of others,3,Neither,Nominal (categorical),NA,NA
Q24_Procedure_4,Q25,Procedural trust: I think my opinion influences a decision maker similar to the influence of others,4,Agree,Nominal (categorical),NA,NA
Q24_Procedure_4,Q25,Procedural trust: I think my opinion influences a decision maker similar to the influence of others,5,Strongly agree,Nominal (categorical),NA,NA
Q24_Procedure_5,Q25,Procedural trust: I think IDFG decision makers act in the interest of some groups over others,1,Strongly disagree,Nominal (categorical),NA,NA
Q24_Procedure_5,Q25,Procedural trust: I think IDFG decision makers act in the interest of some groups over others,2,Disagree,Nominal (categorical),NA,NA
Q24_Procedure_5,Q25,Procedural trust: I think IDFG decision makers act in the interest of some groups over others,3,Neither,Nominal (categorical),NA,NA
Q24_Procedure_5,Q25,Procedural trust: I think IDFG decision makers act in the interest of some groups over others,4,Agree,Nominal (categorical),NA,NA
Q24_Procedure_5,Q25,Procedural trust: I think IDFG decision makers act in the interest of some groups over others,5,Strongly agree,Nominal (categorical),NA,NA
Q24_Procedure_6,Q25,Procedural trust: I think my opinion influences IDFG decision maker similar to the influence of others,1,Strongly disagree,Nominal (categorical),NA,NA
Q24_Procedure_6,Q25,Procedural trust: I think my opinion influences IDFG decision maker similar to the influence of others,2,Disagree,Nominal (categorical),NA,NA
Q24_Procedure_6,Q25,Procedural trust: I think my opinion influences IDFG decision maker similar to the influence of others,3,Neither,Nominal (categorical),NA,NA
Q24_Procedure_6,Q25,Procedural trust: I think my opinion influences IDFG decision maker similar to the influence of others,4,Agree,Nominal (categorical),NA,NA
Q24_Procedure_6,Q25,Procedural trust: I think my opinion influences IDFG decision maker similar to the influence of others,5,Strongly agree,Nominal (categorical),NA,NA
Q24_Procedure_7,Q25,Procedural trust: I think IDFG decision makers have hunters' best interests in mind,1,Strongly disagree,Nominal (categorical),NA,NA
Q24_Procedure_7,Q25,Procedural trust: I think IDFG decision makers have hunters' best interests in mind,2,Disagree,Nominal (categorical),NA,NA
Q24_Procedure_7,Q25,Procedural trust: I think IDFG decision makers have hunters' best interests in mind,3,Neither,Nominal (categorical),NA,NA
Q24_Procedure_7,Q25,Procedural trust: I think IDFG decision makers have hunters' best interests in mind,4,Agree,Nominal (categorical),NA,NA
Q24_Procedure_7,Q25,Procedural trust: I think IDFG decision makers have hunters' best interests in mind,5,Strongly agree,Nominal (categorical),NA,NA
Q25_Trust_1,Q26,Trust: The best available information on hunter crowding issues,1,Strongly disagree,Nominal (categorical),NA,NA
Q25_Trust_1,Q26,Trust: The best available information on hunter crowding issues,2,Disagree,Nominal (categorical),NA,NA
Q25_Trust_1,Q26,Trust: The best available information on hunter crowding issues,3,Neither,Nominal (categorical),NA,NA
Q25_Trust_1,Q26,Trust: The best available information on hunter crowding issues,4,Agree,Nominal (categorical),NA,NA
Q25_Trust_1,Q26,Trust: The best available information on hunter crowding issues,5,Strongly agree,Nominal (categorical),NA,NA
Q25_Trust_2,Q26,Trust: Enough information to decide what actions I should take regarding hunter crowding,1,Strongly disagree,Nominal (categorical),NA,NA
Q25_Trust_2,Q26,Trust: Enough information to decide what actions I should take regarding hunter crowding,2,Disagree,Nominal (categorical),NA,NA
Q25_Trust_2,Q26,Trust: Enough information to decide what actions I should take regarding hunter crowding,3,Neither,Nominal (categorical),NA,NA
Q25_Trust_2,Q26,Trust: Enough information to decide what actions I should take regarding hunter crowding,4,Agree,Nominal (categorical),NA,NA
Q25_Trust_2,Q26,Trust: Enough information to decide what actions I should take regarding hunter crowding,5,Strongly agree,Nominal (categorical),NA,NA
Q25_Trust_3,Q26,Trust: Accurate information about issues related to hunter crowding,1,Strongly disagree,Nominal (categorical),NA,NA
Q25_Trust_3,Q26,Trust: Accurate information about issues related to hunter crowding,2,Disagree,Nominal (categorical),NA,NA
Q25_Trust_3,Q26,Trust: Accurate information about issues related to hunter crowding,3,Neither,Nominal (categorical),NA,NA
Q25_Trust_3,Q26,Trust: Accurate information about issues related to hunter crowding,4,Agree,Nominal (categorical),NA,NA
Q25_Trust_3,Q26,Trust: Accurate information about issues related to hunter crowding,5,Strongly agree,Nominal (categorical),NA,NA
Q25_Trust_4,Q26,Trust: Timely information regarding hunter crowding issues,1,Strongly disagree,Nominal (categorical),NA,NA
Q25_Trust_4,Q26,Trust: Timely information regarding hunter crowding issues,2,Disagree,Nominal (categorical),NA,NA
Q25_Trust_4,Q26,Trust: Timely information regarding hunter crowding issues,3,Neither,Nominal (categorical),NA,NA
Q25_Trust_4,Q26,Trust: Timely information regarding hunter crowding issues,4,Agree,Nominal (categorical),NA,NA
Q25_Trust_4,Q26,Trust: Timely information regarding hunter crowding issues,5,Strongly agree,Nominal (categorical),NA,NA
Q26_SurveyAttA_1,Q25,Survey attitude: I enjoy responding to surveys,1,Strongly disagree,Nominal (categorical),NA,NA
Q26_SurveyAttA_1,Q25,Survey attitude: I enjoy responding to surveys,2,Disagree,Nominal (categorical),NA,NA
Q26_SurveyAttA_1,Q25,Survey attitude: I enjoy responding to surveys,3,Neither,Nominal (categorical),NA,NA
Q26_SurveyAttA_1,Q25,Survey attitude: I enjoy responding to surveys,4,Agree,Nominal (categorical),NA,NA
Q26_SurveyAttA_1,Q25,Survey attitude: I enjoy responding to surveys,5,Strongly agree,Nominal (categorical),NA,NA
Q26_SurveyAttA_2,Q25,Survey attitude: I enjoy being asked to complete a survey,1,Strongly disagree,Nominal (categorical),NA,NA
Q26_SurveyAttA_2,Q25,Survey attitude: I enjoy being asked to complete a survey,2,Disagree,Nominal (categorical),NA,NA
Q26_SurveyAttA_2,Q25,Survey attitude: I enjoy being asked to complete a survey,3,Neither,Nominal (categorical),NA,NA
Q26_SurveyAttA_2,Q25,Survey attitude: I enjoy being asked to complete a survey,4,Agree,Nominal (categorical),NA,NA
Q26_SurveyAttA_2,Q25,Survey attitude: I enjoy being asked to complete a survey,5,Strongly agree,Nominal (categorical),NA,NA
Q26_SurveyAttA_3,Q25,Survey attitude: Surveys are interesting,1,Strongly disagree,Nominal (categorical),NA,NA
Q26_SurveyAttA_3,Q25,Survey attitude: Surveys are interesting,2,Disagree,Nominal (categorical),NA,NA
Q26_SurveyAttA_3,Q25,Survey attitude: Surveys are interesting,3,Neither,Nominal (categorical),NA,NA
Q26_SurveyAttA_3,Q25,Survey attitude: Surveys are interesting,4,Agree,Nominal (categorical),NA,NA
Q26_SurveyAttA_3,Q25,Survey attitude: Surveys are interesting,5,Strongly agree,Nominal (categorical),NA,NA
Q26_SurveyAttB_4,Q25,Survey attitude: Surveys are important for society,1,Strongly disagree,Nominal (categorical),NA,NA
Q26_SurveyAttB_4,Q25,Survey attitude: Surveys are important for society,2,Disagree,Nominal (categorical),NA,NA
Q26_SurveyAttB_4,Q25,Survey attitude: Surveys are important for society,3,Neither,Nominal (categorical),NA,NA
Q26_SurveyAttB_4,Q25,Survey attitude: Surveys are important for society,4,Agree,Nominal (categorical),NA,NA
Q26_SurveyAttB_4,Q25,Survey attitude: Surveys are important for society,5,Strongly agree,Nominal (categorical),NA,NA
Q26_SurveyAttB_5,Q25,Survey attitude: A lot can be learned from surveys,1,Strongly disagree,Nominal (categorical),NA,NA
Q26_SurveyAttB_5,Q25,Survey attitude: A lot can be learned from surveys,2,Disagree,Nominal (categorical),NA,NA
Q26_SurveyAttB_5,Q25,Survey attitude: A lot can be learned from surveys,3,Neither,Nominal (categorical),NA,NA
Q26_SurveyAttB_5,Q25,Survey attitude: A lot can be learned from surveys,4,Agree,Nominal (categorical),NA,NA
Q26_SurveyAttB_5,Q25,Survey attitude: A lot can be learned from surveys,5,Strongly agree,Nominal (categorical),NA,NA
Q26_SurveyAttB_6,Q25,Survey attitude: Completing surveys is a valuable use of my time,1,Strongly disagree,Nominal (categorical),NA,NA
Q26_SurveyAttB_6,Q25,Survey attitude: Completing surveys is a valuable use of my time,2,Disagree,Nominal (categorical),NA,NA
Q26_SurveyAttB_6,Q25,Survey attitude: Completing surveys is a valuable use of my time,3,Neither,Nominal (categorical),NA,NA
Q26_SurveyAttB_6,Q25,Survey attitude: Completing surveys is a valuable use of my time,4,Agree,Nominal (categorical),NA,NA
Q26_SurveyAttB_6,Q25,Survey attitude: Completing surveys is a valuable use of my time,5,Strongly agree,Nominal (categorical),NA,NA
Q26_SurveyAttC_7,Q25,Survey attitude: I get too many requests to do surveys,1,Strongly disagree,Nominal (categorical),NA,NA
Q26_SurveyAttC_7,Q25,Survey attitude: I get too many requests to do surveys,2,Disagree,Nominal (categorical),NA,NA
Q26_SurveyAttC_7,Q25,Survey attitude: I get too many requests to do surveys,3,Neither,Nominal (categorical),NA,NA
Q26_SurveyAttC_7,Q25,Survey attitude: I get too many requests to do surveys,4,Agree,Nominal (categorical),NA,NA
Q26_SurveyAttC_7,Q25,Survey attitude: I get too many requests to do surveys,5,Strongly agree,Nominal (categorical),NA,NA
Q26_SurveyAttC_8,Q25,Survey attitude: Surveys are an invasion of privacy,1,Strongly disagree,Nominal (categorical),NA,NA
Q26_SurveyAttC_8,Q25,Survey attitude: Surveys are an invasion of privacy,2,Disagree,Nominal (categorical),NA,NA
Q26_SurveyAttC_8,Q25,Survey attitude: Surveys are an invasion of privacy,3,Neither,Nominal (categorical),NA,NA
Q26_SurveyAttC_8,Q25,Survey attitude: Surveys are an invasion of privacy,4,Agree,Nominal (categorical),NA,NA
Q26_SurveyAttC_8,Q25,Survey attitude: Surveys are an invasion of privacy,5,Strongly agree,Nominal (categorical),NA,NA
Q26_SurveyAttC_9,Q25,Survey attitude: It is tiring to answer a lot of survey questions,1,Strongly disagree,Nominal (categorical),NA,NA
Q26_SurveyAttC_9,Q25,Survey attitude: It is tiring to answer a lot of survey questions,2,Disagree,Nominal (categorical),NA,NA
Q26_SurveyAttC_9,Q25,Survey attitude: It is tiring to answer a lot of survey questions,3,Neither,Nominal (categorical),NA,NA
Q26_SurveyAttC_9,Q25,Survey attitude: It is tiring to answer a lot of survey questions,4,Agree,Nominal (categorical),NA,NA
Q26_SurveyAttC_9,Q25,Survey attitude: It is tiring to answer a lot of survey questions,5,Strongly agree,Nominal (categorical),NA,NA
Q26_SurveyAttC_7_RECODE,Q25,Survey attitude: I get too many requests to do surveys,1,Strongly agree,Nominal (categorical),NA,NA
Q26_SurveyAttC_7_RECODE,Q25,Survey attitude: I get too many requests to do surveys,2,Agree,Nominal (categorical),NA,NA
Q26_SurveyAttC_7_RECODE,Q25,Survey attitude: I get too many requests to do surveys,3,Neither,Nominal (categorical),NA,NA
Q26_SurveyAttC_7_RECODE,Q25,Survey attitude: I get too many requests to do surveys,4,Disagree,Nominal (categorical),NA,NA
Q26_SurveyAttC_7_RECODE,Q25,Survey attitude: I get too many requests to do surveys,5,Strongly disagree,Nominal (categorical),NA,NA
Q26_SurveyAttC_8_RECODE,Q25,Survey attitude: Surveys are an invasion of privacy,1,Strongly agree,Nominal (categorical),NA,NA
Q26_SurveyAttC_8_RECODE,Q25,Survey attitude: Surveys are an invasion of privacy,2,Agree,Nominal (categorical),NA,NA
Q26_SurveyAttC_8_RECODE,Q25,Survey attitude: Surveys are an invasion of privacy,3,Neither,Nominal (categorical),NA,NA
Q26_SurveyAttC_8_RECODE,Q25,Survey attitude: Surveys are an invasion of privacy,4,Disagree,Nominal (categorical),NA,NA
Q26_SurveyAttC_8_RECODE,Q25,Survey attitude: Surveys are an invasion of privacy,5,Strongly disagree,Nominal (categorical),NA,NA
Q26_SurveyAttC_9_RECODE,Q25,Survey attitude: It is tiring to answer a lot of survey questions,1,Strongly agree,Nominal (categorical),NA,NA
Q26_SurveyAttC_9_RECODE,Q25,Survey attitude: It is tiring to answer a lot of survey questions,2,Agree,Nominal (categorical),NA,NA
Q26_SurveyAttC_9_RECODE,Q25,Survey attitude: It is tiring to answer a lot of survey questions,3,Neither,Nominal (categorical),NA,NA
Q26_SurveyAttC_9_RECODE,Q25,Survey attitude: It is tiring to answer a lot of survey questions,4,Disagree,Nominal (categorical),NA,NA
Q26_SurveyAttC_9_RECODE,Q25,Survey attitude: It is tiring to answer a lot of survey questions,5,Strongly disagree,Nominal (categorical),NA,NA
Tag2,S2,Second tag purchase,1,"Yes, white-tailed deer tag",Nominal (categorical),NA,NA
Tag2,S2,Second tag purchase,2,"Yes, regular deer tag",Nominal (categorical),NA,NA
Tag2,S2,Second tag purchase,3,No,Nominal (categorical),NA,NA
Age,SD1,Age (years),Numeric,NA,Ordinal (continuous),NA,NA
AgeCat,,Age group classification,1,18-24 years old,NA,NA,NA
AgeCat,,Age group classification,2,25-34 years old,NA,NA,NA
AgeCat,,Age group classification,3,35-44 years old,NA,NA,NA
AgeCat,,Age group classification,4,45-54 years old,NA,NA,NA
AgeCat,,Age group classification,5,55-64 years old,NA,NA,NA
AgeCat,,Age group classification,6,65-74 years old,NA,NA,NA
AgeCat,,Age group classification,7,75+ years old,NA,NA,NA
Wght_Age_State,,Survey weights by population age,Numeric,NA,Ordinal (continuous),NA,NA
Residency,SD2,Idaho residency length (years),Numeric,NA,Ordinal (continuous),NA,NA
Gender,SD3,Gender,1,Female,Nominal (categorical),NA,NA
Gender,SD3,Gender,2,Male,Nominal (categorical),NA,NA
Gender,SD3,Gender,3,Other,Nominal (categorical),NA,NA
Ethnicity,SD4,Ethnicity,1,Asian,Nominal (categorical),NA,NA
Ethnicity,SD4,Ethnicity,2,Black (or African American),Nominal (categorical),NA,NA
Ethnicity,SD4,Ethnicity,3,Hispanic (or Latino),Nominal (categorical),NA,NA
Ethnicity,SD4,Ethnicity,4,Indigenous (Native American or Native Alaskan),Nominal (categorical),NA,NA
Ethnicity,SD4,Ethnicity,5,Native Hawiian (or other Pacific Islander),Nominal (categorical),NA,NA
Ethnicity,SD4,Ethnicity,6,White (or Caucasian),Nominal (categorical),NA,NA
Ethnicity,SD4,Ethnicity,7,Don't know,Nominal (categorical),NA,NA
Ethnicity,SD4,Ethnicity,8,Other,Nominal (categorical),NA,NA
Education,SD5,Education,1,Less than high school,Nominal (categorical),NA,NA
Education,SD5,Education,2,High school graduate,Nominal (categorical),NA,NA
Education,SD5,Education,3,Two-year college degree,Nominal (categorical),NA,NA
Education,SD5,Education,4,Four-year college degree,Nominal (categorical),NA,NA
Education,SD5,Education,5,Vocational or trade school certification,Nominal (categorical),NA,NA
Education,SD5,Education,6,Graduate degree,Nominal (categorical),NA,NA
Income,SD6,Income,1,Less than 25k,Nominal (categorical),NA,NA
Income,SD6,Income,2,25-49k,Nominal (categorical),NA,NA
Income,SD6,Income,3,50-74k,Nominal (categorical),NA,NA
Income,SD6,Income,4,75-99k,Nominal (categorical),NA,NA
Income,SD6,Income,5,100-149k,Nominal (categorical),NA,NA
Income,SD6,Income,6,150-199k,Nominal (categorical),NA,NA
Income,SD6,Income,7,Greater than 200k,Nominal (categorical),NA,NA
Employment,SD7,Employment status,1,Full-time,Nominal (categorical),NA,NA
Employment,SD7,Employment status,2,Part-time,Nominal (categorical),NA,NA
Employment,SD7,Employment status,3,Temporary,Nominal (categorical),NA,NA
Employment,SD7,Employment status,4,Unemployed,Nominal (categorical),NA,NA
Employment,SD7,Employment status,5,Retired,Nominal (categorical),NA,NA
Employment,SD7,Employment status,6,Disabled,Nominal (categorical),NA,NA
Politics,SD8,Political views,1,Very liberal,Nominal (categorical),NA,NA
Politics,SD8,Political views,2,Liberal,Nominal (categorical),NA,NA
Politics,SD8,Political views,3,Moderate,Nominal (categorical),NA,NA
Politics,SD8,Political views,4,Conservative,Nominal (categorical),NA,NA
Politics,SD8,Political views,5,Very conservative,Nominal (categorical),NA,NA
Politics,SD8,Political views,6,Don't know,Nominal (categorical),NA,NA
Politics,SD8,Political views,7,Other,Nominal (categorical),NA,NA
SendReport,R1,Receive survey results,1,Yes,Nominal (categorical),NA,NA
SendReport,R1,Receive survey results,2,No,Nominal (categorical),NA,NA
Inclusion1,,Inclusion criteria: purchased IDFG tag in 2020,1,Yes,Nominal (categorical),NA,NA
Inclusion1,,Inclusion criteria: purchased IDFG tag in 2020,2,No,Nominal (categorical),NA,NA
Inclusion2,,Inclusion criteria: over the age of 18,1,Yes,Nominal (categorical),NA,NA
Inclusion2,,Inclusion criteria: over the age of 18,2,No,Nominal (categorical),NA,NA
Progress,,Progress,Text,NA,String,NA,NA
Duration_minutes,,Time on survey (minutes),Numeric,NA,Ordinal (continuous),NA,NA
Duration_seconds,,Time on survey (seconds),Numeric,NA,Ordinal (continuous),NA,NA
SD_Access,,Access: Straightliner check via standard deviation (0 = yes),Numeric,NA,Ordinal (continuous),NA,NA
SD_Travel,,Travel: Straightliner check via standard deviation (0 = yes),Numeric,NA,Ordinal (continuous),NA,NA
SD_Satf,,Satisfaction: Straightliner check via standard deviation (0 = yes),Numeric,NA,Ordinal (continuous),NA,NA
SD_15_17,,Hunt Quality: Straightliner check via standard deviation (0 = yes),Numeric,NA,Ordinal (continuous),NA,NA
SD_Expect,,Expectations: Straightliner check via standard deviation (0 = yes),Numeric,NA,Ordinal (continuous),NA,NA
SD_Import,,Importance: Straightliner check via standard deviation (0 = yes),Numeric,NA,Ordinal (continuous),NA,NA
SD_Actual,,Actualization: Straightliner check via standard deviation (0 = yes),Numeric,NA,Ordinal (continuous),NA,NA
SD_Procedure,,Procedural: Straightliner check via standard deviation (0 = yes),Numeric,NA,Ordinal (continuous),NA,NA
SD_Trust,,Trust: Straightliner check via standard deviation (0 = yes),Numeric,NA,Ordinal (continuous),NA,NA
SD_SurveyAtt,,Survey Attitude: Straightliner check via standard deviation (0 = yes),Numeric,NA,Ordinal (continuous),NA,NA
Region,,Region (sample strata),1,Panhandle,Nominal (categorical),Based on contact address,NA
Region,,Region (sample strata),2,Clearwater,Nominal (categorical),Based on contact address,NA
Region,,Region (sample strata),3,Southwest,Nominal (categorical),Based on contact address,NA
Region,,Region (sample strata),4,Magic Valley,Nominal (categorical),Based on contact address,NA
Region,,Region (sample strata),5,Southeast,Nominal (categorical),Based on contact address,NA
Region,,Region (sample strata),6,Upper Snake,Nominal (categorical),Based on contact address,NA
Region,,Region (sample strata),7,Salmon,Nominal (categorical),Based on contact address,NA
RegionHunted,,Region hunted most frequently,1,Panhandle,Nominal (categorical),NA,NA
RegionHunted,,Region hunted most frequently,2,Clearwater,Nominal (categorical),NA,NA
RegionHunted,,Region hunted most frequently,3,Southwest,Nominal (categorical),NA,NA
RegionHunted,,Region hunted most frequently,4,Magic Valley,Nominal (categorical),NA,NA
RegionHunted,,Region hunted most frequently,5,Southeast,Nominal (categorical),NA,NA
RegionHunted,,Region hunted most frequently,6,Upper Snake,Nominal (categorical),NA,NA
RegionHunted,,Region hunted most frequently,7,Salmon,Nominal (categorical),NA,NA
UnitHunted,,Unit hunted most frequently,2,1,Nominal (categorical),NA,NA
UnitHunted,,Unit hunted most frequently,3,2,Nominal (categorical),NA,NA
UnitHunted,,Unit hunted most frequently,4,3,Nominal (categorical),NA,NA
UnitHunted,,Unit hunted most frequently,5,4,Nominal (categorical),NA,NA
UnitHunted,,Unit hunted most frequently,6,4a,Nominal (categorical),NA,NA
UnitHunted,,Unit hunted most frequently,7,5,Nominal (categorical),NA,NA
UnitHunted,,Unit hunted most frequently,8,6,Nominal (categorical),NA,NA
UnitHunted,,Unit hunted most frequently,9,7,Nominal (categorical),NA,NA
UnitHunted,,Unit hunted most frequently,10,9,Nominal (categorical),NA,NA
UnitHunted,,Unit hunted most frequently,12,8,Nominal (categorical),NA,NA
UnitHunted,,Unit hunted most frequently,13,8a,Nominal (categorical),NA,NA
UnitHunted,,Unit hunted most frequently,14,10,Nominal (categorical),NA,NA
UnitHunted,,Unit hunted most frequently,15,10a,Nominal (categorical),NA,NA
UnitHunted,,Unit hunted most frequently,16,11,Nominal (categorical),NA,NA
UnitHunted,,Unit hunted most frequently,17,11a,Nominal (categorical),NA,NA
UnitHunted,,Unit hunted most frequently,18,12,Nominal (categorical),NA,NA
UnitHunted,,Unit hunted most frequently,19,13,Nominal (categorical),NA,NA
UnitHunted,,Unit hunted most frequently,20,14,Nominal (categorical),NA,NA
UnitHunted,,Unit hunted most frequently,21,15,Nominal (categorical),NA,NA
UnitHunted,,Unit hunted most frequently,22,16,Nominal (categorical),NA,NA
UnitHunted,,Unit hunted most frequently,23,16a,Nominal (categorical),NA,NA
UnitHunted,,Unit hunted most frequently,24,17,Nominal (categorical),NA,NA
UnitHunted,,Unit hunted most frequently,25,18,Nominal (categorical),NA,NA
UnitHunted,,Unit hunted most frequently,26,19,Nominal (categorical),NA,NA
UnitHunted,,Unit hunted most frequently,27,20,Nominal (categorical),NA,NA
UnitHunted,,Unit hunted most frequently,29,19a,Nominal (categorical),NA,NA
UnitHunted,,Unit hunted most frequently,30,20a,Nominal (categorical),NA,NA
UnitHunted,,Unit hunted most frequently,31,22,Nominal (categorical),NA,NA
UnitHunted,,Unit hunted most frequently,32,23,Nominal (categorical),NA,NA
UnitHunted,,Unit hunted most frequently,33,24,Nominal (categorical),NA,NA
UnitHunted,,Unit hunted most frequently,34,25,Nominal (categorical),NA,NA
UnitHunted,,Unit hunted most frequently,35,26,Nominal (categorical),NA,NA
UnitHunted,,Unit hunted most frequently,36,31,Nominal (categorical),NA,NA
UnitHunted,,Unit hunted most frequently,37,32,Nominal (categorical),NA,NA
UnitHunted,,Unit hunted most frequently,38,32a,Nominal (categorical),NA,NA
UnitHunted,,Unit hunted most frequently,39,33,Nominal (categorical),NA,NA
UnitHunted,,Unit hunted most frequently,40,34,Nominal (categorical),NA,NA
UnitHunted,,Unit hunted most frequently,41,35,Nominal (categorical),NA,NA
UnitHunted,,Unit hunted most frequently,42,38,Nominal (categorical),NA,NA
UnitHunted,,Unit hunted most frequently,43,39,Nominal (categorical),NA,NA
UnitHunted,,Unit hunted most frequently,44,40,Nominal (categorical),NA,NA
UnitHunted,,Unit hunted most frequently,45,41,Nominal (categorical),NA,NA
UnitHunted,,Unit hunted most frequently,46,42,Nominal (categorical),NA,NA
UnitHunted,,Unit hunted most frequently,48,43,Nominal (categorical),NA,NA
UnitHunted,,Unit hunted most frequently,49,44,Nominal (categorical),NA,NA
UnitHunted,,Unit hunted most frequently,50,45,Nominal (categorical),NA,NA
UnitHunted,,Unit hunted most frequently,51,46,Nominal (categorical),NA,NA
UnitHunted,,Unit hunted most frequently,52,47,Nominal (categorical),NA,NA
UnitHunted,,Unit hunted most frequently,53,48,Nominal (categorical),NA,NA
UnitHunted,,Unit hunted most frequently,54,49,Nominal (categorical),NA,NA
UnitHunted,,Unit hunted most frequently,55,52,Nominal (categorical),NA,NA
UnitHunted,,Unit hunted most frequently,56,52a,Nominal (categorical),NA,NA
UnitHunted,,Unit hunted most frequently,57,53,Nominal (categorical),NA,NA
UnitHunted,,Unit hunted most frequently,58,54,Nominal (categorical),NA,NA
UnitHunted,,Unit hunted most frequently,59,55,Nominal (categorical),NA,NA
UnitHunted,,Unit hunted most frequently,60,56,Nominal (categorical),NA,NA
UnitHunted,,Unit hunted most frequently,61,57,Nominal (categorical),NA,NA
UnitHunted,,Unit hunted most frequently,63,66a,Nominal (categorical),NA,NA
UnitHunted,,Unit hunted most frequently,64,68,Nominal (categorical),NA,NA
UnitHunted,,Unit hunted most frequently,65,68a,Nominal (categorical),NA,NA
UnitHunted,,Unit hunted most frequently,66,70,Nominal (categorical),NA,NA
UnitHunted,,Unit hunted most frequently,67,71,Nominal (categorical),NA,NA
UnitHunted,,Unit hunted most frequently,68,72,Nominal (categorical),NA,NA
UnitHunted,,Unit hunted most frequently,69,73,Nominal (categorical),NA,NA
UnitHunted,,Unit hunted most frequently,70,73a,Nominal (categorical),NA,NA
UnitHunted,,Unit hunted most frequently,71,74,Nominal (categorical),NA,NA
UnitHunted,,Unit hunted most frequently,72,75,Nominal (categorical),NA,NA
UnitHunted,,Unit hunted most frequently,73,76,Nominal (categorical),NA,NA
UnitHunted,,Unit hunted most frequently,74,77,Nominal (categorical),NA,NA
UnitHunted,,Unit hunted most frequently,75,78,Nominal (categorical),NA,NA
UnitHunted,,Unit hunted most frequently,77,50,Nominal (categorical),NA,NA
UnitHunted,,Unit hunted most frequently,78,51,Nominal (categorical),NA,NA
UnitHunted,,Unit hunted most frequently,79,58,Nominal (categorical),NA,NA
UnitHunted,,Unit hunted most frequently,80,59,Nominal (categorical),NA,NA
UnitHunted,,Unit hunted most frequently,81,59a,Nominal (categorical),NA,NA
UnitHunted,,Unit hunted most frequently,82,60,Nominal (categorical),NA,NA
UnitHunted,,Unit hunted most frequently,83,60a,Nominal (categorical),NA,NA
UnitHunted,,Unit hunted most frequently,84,61,Nominal (categorical),NA,NA
UnitHunted,,Unit hunted most frequently,85,62,Nominal (categorical),NA,NA
UnitHunted,,Unit hunted most frequently,86,62a,Nominal (categorical),NA,NA
UnitHunted,,Unit hunted most frequently,87,63,Nominal (categorical),NA,NA
UnitHunted,,Unit hunted most frequently,88,63a,Nominal (categorical),NA,NA
UnitHunted,,Unit hunted most frequently,89,64,Nominal (categorical),NA,NA
UnitHunted,,Unit hunted most frequently,90,65,Nominal (categorical),NA,NA
UnitHunted,,Unit hunted most frequently,91,66,Nominal (categorical),NA,NA
UnitHunted,,Unit hunted most frequently,92,67,Nominal (categorical),NA,NA
UnitHunted,,Unit hunted most frequently,93,69,Nominal (categorical),NA,NA
UnitHunted,,Unit hunted most frequently,95,21,Nominal (categorical),NA,NA
UnitHunted,,Unit hunted most frequently,96,21a,Nominal (categorical),NA,NA
UnitHunted,,Unit hunted most frequently,97,27,Nominal (categorical),NA,NA
UnitHunted,,Unit hunted most frequently,98,28,Nominal (categorical),NA,NA
UnitHunted,,Unit hunted most frequently,99,29,Nominal (categorical),NA,NA
UnitHunted,,Unit hunted most frequently,100,30,Nominal (categorical),NA,NA
UnitHunted,,Unit hunted most frequently,101,30a,Nominal (categorical),NA,NA
UnitHunted,,Unit hunted most frequently,102,36,Nominal (categorical),NA,NA
UnitHunted,,Unit hunted most frequently,103,36a,Nominal (categorical),NA,NA
UnitHunted,,Unit hunted most frequently,104,36b,Nominal (categorical),NA,NA
UnitHunted,,Unit hunted most frequently,105,37,Nominal (categorical),NA,NA
UnitHunted,,Unit hunted most frequently,106,37a,Nominal (categorical),NA,NA
