Name,Question_Number,Label,Code,Value,Level,Question,Note
ID_Qualtrics,,Participant unique identifier via Qualtrics,,,,,
ID_IDFG,,Participant unique identifier via IDFG sportsmans identification number,,,,,
Q1A_Years_Applied,Q1A,How many years have you applied to hunt pronghorn in Idaho,1, 1-4 years,Nominal (categorical),,
Q1A_Years_Applied,Q1A,How many years have you applied to hunt pronghorn in Idaho,2, 5-9 years,Nominal (categorical),,
Q1A_Years_Applied,Q1A,How many years have you applied to hunt pronghorn in Idaho,3, 10-14 years,Nominal (categorical),,
Q1A_Years_Applied,Q1A,How many years have you applied to hunt pronghorn in Idaho,4, 15-19 years,Nominal (categorical),,
Q1A_Years_Applied,Q1A,How many years have you applied to hunt pronghorn in Idaho,5, 20+ years,Nominal (categorical),,
Q1B_Years_Hunted,Q1B,How many seasons have you hunted pronghorn in Idaho,1, 1-4 seasons,Nominal (categorical),,
Q1B_Years_Hunted,Q1B,How many seasons have you hunted pronghorn in Idaho,2, 5-9 seasons,Nominal (categorical),,
Q1B_Years_Hunted,Q1B,How many seasons have you hunted pronghorn in Idaho,3, 10-14 seasons,Nominal (categorical),,
Q1B_Years_Hunted,Q1B,How many seasons have you hunted pronghorn in Idaho,4, 15-19 seasons,Nominal (categorical),,
Q1B_Years_Hunted,Q1B,How many seasons have you hunted pronghorn in Idaho,5, 20+ season,Nominal (categorical),,
Q2A_Weapon_Preference,Q2,Which weapon have you used most often,1, Bow,Nominal (categorical),,
Q2A_Weapon_Preference,Q2,Which weapon have you used most often,2, Rifle,Nominal (categorical),,
Q2A_Weapon_Preference,Q2,Which weapon have you used most often,3, Muzzleloader,Nominal (categorical),,
Q2A_Weapon_Preference,Q2,Which weapon have you used most often,4, Other,Nominal (categorical),,
Q2B_Weapon_Exclusive,Q3,Do you only hunt pronghorn with preferred weapon,1," No, I will hunt pronghorn with any weapon allowed by a tag",Nominal (categorical),,
Q2B_Weapon_Exclusive,Q3,Do you only hunt pronghorn with preferred weapon,2, Yes,Nominal (categorical),,
Q3_ATV,Q4,How often do you bring an ATV/UTV to hunt pronghorn,1, Never,Nominal (categorical),,
Q3_ATV,Q4,How often do you bring an ATV/UTV to hunt pronghorn,2, Rarely,Nominal (categorical),,
Q3_ATV,Q4,How often do you bring an ATV/UTV to hunt pronghorn,3, Sometimes,Nominal (categorical),,
Q3_ATV,Q4,How often do you bring an ATV/UTV to hunt pronghorn,4, Often,Nominal (categorical),,
Q3_ATV,Q4,How often do you bring an ATV/UTV to hunt pronghorn,5, Always,Nominal (categorical),,
Q4_Satf_1_Overall,Q5,Satisfaction: Your overall pronghorn hunting experience in Idaho,1, Very dissatisfied,Nominal (categorical),,
Q4_Satf_1_Overall,Q5,Satisfaction: Your overall pronghorn hunting experience in Idaho,2, Dissatisfied,Nominal (categorical),,
Q4_Satf_1_Overall,Q5,Satisfaction: Your overall pronghorn hunting experience in Idaho,3, Neither,Nominal (categorical),,
Q4_Satf_1_Overall,Q5,Satisfaction: Your overall pronghorn hunting experience in Idaho,4, Satisfied,Nominal (categorical),,
Q4_Satf_1_Overall,Q5,Satisfaction: Your overall pronghorn hunting experience in Idaho,5, Very satisfied,Nominal (categorical),,
Q4_Satf_2_DrawOdds,Q5,Satisfaction: Pronghorn tag drawing odds,1, Very dissatisfied,Nominal (categorical),,
Q4_Satf_2_DrawOdds,Q5,Satisfaction: Pronghorn tag drawing odds,2, Dissatisfied,Nominal (categorical),,
Q4_Satf_2_DrawOdds,Q5,Satisfaction: Pronghorn tag drawing odds,3, Neither,Nominal (categorical),,
Q4_Satf_2_DrawOdds,Q5,Satisfaction: Pronghorn tag drawing odds,4, Satisfied,Nominal (categorical),,
Q4_Satf_2_DrawOdds,Q5,Satisfaction: Pronghorn tag drawing odds,5, Very satisfied,Nominal (categorical),,
Q4_Satf_3_Harvest,Q5,Satisfaction: Pronghorn harvest success,1, Very dissatisfied,Nominal (categorical),,
Q4_Satf_3_Harvest,Q5,Satisfaction: Pronghorn harvest success,2, Dissatisfied,Nominal (categorical),,
Q4_Satf_3_Harvest,Q5,Satisfaction: Pronghorn harvest success,3, Neither,Nominal (categorical),,
Q4_Satf_3_Harvest,Q5,Satisfaction: Pronghorn harvest success,4, Satisfied,Nominal (categorical),,
Q4_Satf_3_Harvest,Q5,Satisfaction: Pronghorn harvest success,5, Very satisfied,Nominal (categorical),,
Q4_Satf_4_Numbers,Q5,Satisfaction: Number of pronghorn in Idaho,1, Very dissatisfied,Nominal (categorical),,
Q4_Satf_4_Numbers,Q5,Satisfaction: Number of pronghorn in Idaho,2, Dissatisfied,Nominal (categorical),,
Q4_Satf_4_Numbers,Q5,Satisfaction: Number of pronghorn in Idaho,3, Neither,Nominal (categorical),,
Q4_Satf_4_Numbers,Q5,Satisfaction: Number of pronghorn in Idaho,4, Satisfied,Nominal (categorical),,
Q4_Satf_4_Numbers,Q5,Satisfaction: Number of pronghorn in Idaho,5, Very satisfied,Nominal (categorical),,
Q4_Satf_5_Habitat,Q5,Satisfaction: Amount of pronghorn habitat in Idaho,1, Very dissatisfied,Nominal (categorical),,
Q4_Satf_5_Habitat,Q5,Satisfaction: Amount of pronghorn habitat in Idaho,2, Dissatisfied,Nominal (categorical),,
Q4_Satf_5_Habitat,Q5,Satisfaction: Amount of pronghorn habitat in Idaho,3, Neither,Nominal (categorical),,
Q4_Satf_5_Habitat,Q5,Satisfaction: Amount of pronghorn habitat in Idaho,4, Satisfied,Nominal (categorical),,
Q4_Satf_5_Habitat,Q5,Satisfaction: Amount of pronghorn habitat in Idaho,5, Very satisfied,Nominal (categorical),,
Q5_Numbers_Change,Q6,How has the number of pronghorn changed in your preferred hunting area,1, Greatly decreased,Nominal (categorical),,
Q5_Numbers_Change,Q6,How has the number of pronghorn changed in your preferred hunting area,2, Decreased,Nominal (categorical),,
Q5_Numbers_Change,Q6,How has the number of pronghorn changed in your preferred hunting area,3, No change,Nominal (categorical),,
Q5_Numbers_Change,Q6,How has the number of pronghorn changed in your preferred hunting area,4, Increased,Nominal (categorical),,
Q5_Numbers_Change,Q6,How has the number of pronghorn changed in your preferred hunting area,5, Greatly increased,Nominal (categorical),,
Q6A_Numbers_Decrease,Q7A,What one issue has most caused the number of pronghorn populations to decrease,1," Habitat loss (e.g., conversion to annual grasses or noxious weeds)",Nominal (categorical),,
Q6A_Numbers_Decrease,Q7A,What one issue has most caused the number of pronghorn populations to decrease,2," Connectivity (e.g., migration routes)",Nominal (categorical),,
Q6A_Numbers_Decrease,Q7A,What one issue has most caused the number of pronghorn populations to decrease,3, Presence of ATVs/UTVs,Nominal (categorical),,
Q6A_Numbers_Decrease,Q7A,What one issue has most caused the number of pronghorn populations to decrease,4, High road densities,Nominal (categorical),,
Q6A_Numbers_Decrease,Q7A,What one issue has most caused the number of pronghorn populations to decrease,5, Fencing,Nominal (categorical),,
Q6A_Numbers_Decrease,Q7A,What one issue has most caused the number of pronghorn populations to decrease,6," Competition with grazing (e.g., livestock)",Nominal (categorical),,
Q6A_Numbers_Decrease,Q7A,What one issue has most caused the number of pronghorn populations to decrease,7, Predators,Nominal (categorical),,
Q6A_Numbers_Decrease,Q7A,What one issue has most caused the number of pronghorn populations to decrease,8, Over-harvest,Nominal (categorical),,
Q6A_Numbers_Decrease,Q7A,What one issue has most caused the number of pronghorn populations to decrease,9," Water availability (e.g., drought)",Nominal (categorical),,
Q6A_Numbers_Decrease,Q7A,What one issue has most caused the number of pronghorn populations to decrease,10," Water hole locations (e.g., distribution)",Nominal (categorical),,
Q6A_Numbers_Decrease,Q7A,What one issue has most caused the number of pronghorn populations to decrease,11, Severe winters,Nominal (categorical),,
Q6B_Numbers_Increase,Q7B,What one issue has most caused the number of pronghorn populations to increase,1," Habitat loss (e.g., conversion to annual grasses or noxious weeds)",Nominal (categorical),,
Q6B_Numbers_Increase,Q7B,What one issue has most caused the number of pronghorn populations to increase,2," Connectivity (e.g., migration routes)",Nominal (categorical),,
Q6B_Numbers_Increase,Q7B,What one issue has most caused the number of pronghorn populations to increase,3, Presence of ATVs/UTVs,Nominal (categorical),,
Q6B_Numbers_Increase,Q7B,What one issue has most caused the number of pronghorn populations to increase,4, High road densities,Nominal (categorical),,
Q6B_Numbers_Increase,Q7B,What one issue has most caused the number of pronghorn populations to increase,5, Fencing,Nominal (categorical),,
Q6B_Numbers_Increase,Q7B,What one issue has most caused the number of pronghorn populations to increase,6," Competition with grazing (e.g., livestock)",Nominal (categorical),,
Q6B_Numbers_Increase,Q7B,What one issue has most caused the number of pronghorn populations to increase,7, Predators,Nominal (categorical),,
Q6B_Numbers_Increase,Q7B,What one issue has most caused the number of pronghorn populations to increase,8, Over-harvest,Nominal (categorical),,
Q6B_Numbers_Increase,Q7B,What one issue has most caused the number of pronghorn populations to increase,9," Water availability (e.g., drought)",Nominal (categorical),,
Q6B_Numbers_Increase,Q7B,What one issue has most caused the number of pronghorn populations to increase,10," Water hole locations (e.g., distribution)",Nominal (categorical),,
Q6B_Numbers_Increase,Q7B,What one issue has most caused the number of pronghorn populations to increase,11, Severe winters,Nominal (categorical),,
Q7_Harvest_Change,Q8,How has your harvest success changed,1, Much worse,Nominal (categorical),,
Q7_Harvest_Change,Q8,How has your harvest success changed,2, Worse,Nominal (categorical),,
Q7_Harvest_Change,Q8,How has your harvest success changed,3, No change,Nominal (categorical),,
Q7_Harvest_Change,Q8,How has your harvest success changed,4, Better,Nominal (categorical),,
Q7_Harvest_Change,Q8,How has your harvest success changed,5,  Much better,Nominal (categorical),,
Q8_Year_Recent,Q9,When was the last (most recent) year you hunted pronghorn in Idaho,1,2015,Nominal (categorical),,
Q8_Year_Recent,Q9,When was the last (most recent) year you hunted pronghorn in Idaho,2,2016,Nominal (categorical),,
Q8_Year_Recent,Q9,When was the last (most recent) year you hunted pronghorn in Idaho,3,2017,Nominal (categorical),,
Q8_Year_Recent,Q9,When was the last (most recent) year you hunted pronghorn in Idaho,4,2018,Nominal (categorical),,
Q8_Year_Recent,Q9,When was the last (most recent) year you hunted pronghorn in Idaho,5,2019,Nominal (categorical),,
Q8_Year_Recent,Q9,When was the last (most recent) year you hunted pronghorn in Idaho,6,2020,Nominal (categorical),,
Q8_Year_Recent,Q9,When was the last (most recent) year you hunted pronghorn in Idaho,7, prior to 2015,Nominal (categorical),,
Q9_Unit,Q10,"Among the units you could hunt, which three units did you hunt pronghorn the most (all)",1, 21A,Nominal (categorical),,
Q9_Unit,Q10,"Among the units you could hunt, which three units did you hunt pronghorn the most (all)",2,28,Nominal (categorical),,
Q9_Unit,Q10,"Among the units you could hunt, which three units did you hunt pronghorn the most (all)",3,29,Nominal (categorical),,
Q9_Unit,Q10,"Among the units you could hunt, which three units did you hunt pronghorn the most (all)",4,30,Nominal (categorical),,
Q9_Unit,Q10,"Among the units you could hunt, which three units did you hunt pronghorn the most (all)",5, 30A,Nominal (categorical),,
Q9_Unit,Q10,"Among the units you could hunt, which three units did you hunt pronghorn the most (all)",6,32,Nominal (categorical),,
Q9_Unit,Q10,"Among the units you could hunt, which three units did you hunt pronghorn the most (all)",7, 32A,Nominal (categorical),,
Q9_Unit,Q10,"Among the units you could hunt, which three units did you hunt pronghorn the most (all)",8,36,Nominal (categorical),,
Q9_Unit,Q10,"Among the units you could hunt, which three units did you hunt pronghorn the most (all)",9, 36A,Nominal (categorical),,
Q9_Unit,Q10,"Among the units you could hunt, which three units did you hunt pronghorn the most (all)",10, 36B,Nominal (categorical),,
Q9_Unit,Q10,"Among the units you could hunt, which three units did you hunt pronghorn the most (all)",11,37,Nominal (categorical),,
Q9_Unit,Q10,"Among the units you could hunt, which three units did you hunt pronghorn the most (all)",12, 37A,Nominal (categorical),,
Q9_Unit,Q10,"Among the units you could hunt, which three units did you hunt pronghorn the most (all)",13,38,Nominal (categorical),,
Q9_Unit,Q10,"Among the units you could hunt, which three units did you hunt pronghorn the most (all)",14,39,Nominal (categorical),,
Q9_Unit,Q10,"Among the units you could hunt, which three units did you hunt pronghorn the most (all)",15,40,Nominal (categorical),,
Q9_Unit,Q10,"Among the units you could hunt, which three units did you hunt pronghorn the most (all)",16,41,Nominal (categorical),,
Q9_Unit,Q10,"Among the units you could hunt, which three units did you hunt pronghorn the most (all)",17,42,Nominal (categorical),,
Q9_Unit,Q10,"Among the units you could hunt, which three units did you hunt pronghorn the most (all)",18,44,Nominal (categorical),,
Q9_Unit,Q10,"Among the units you could hunt, which three units did you hunt pronghorn the most (all)",19,45,Nominal (categorical),,
Q9_Unit,Q10,"Among the units you could hunt, which three units did you hunt pronghorn the most (all)",20,46,Nominal (categorical),,
Q9_Unit,Q10,"Among the units you could hunt, which three units did you hunt pronghorn the most (all)",21,47,Nominal (categorical),,
Q9_Unit,Q10,"Among the units you could hunt, which three units did you hunt pronghorn the most (all)",22,48,Nominal (categorical),,
Q9_Unit,Q10,"Among the units you could hunt, which three units did you hunt pronghorn the most (all)",23,49,Nominal (categorical),,
Q9_Unit,Q10,"Among the units you could hunt, which three units did you hunt pronghorn the most (all)",24,50,Nominal (categorical),,
Q9_Unit,Q10,"Among the units you could hunt, which three units did you hunt pronghorn the most (all)",25,51,Nominal (categorical),,
Q9_Unit,Q10,"Among the units you could hunt, which three units did you hunt pronghorn the most (all)",26,52,Nominal (categorical),,
Q9_Unit,Q10,"Among the units you could hunt, which three units did you hunt pronghorn the most (all)",27, 52A,Nominal (categorical),,
Q9_Unit,Q10,"Among the units you could hunt, which three units did you hunt pronghorn the most (all)",28,53,Nominal (categorical),,
Q9_Unit,Q10,"Among the units you could hunt, which three units did you hunt pronghorn the most (all)",29,54,Nominal (categorical),,
Q9_Unit,Q10,"Among the units you could hunt, which three units did you hunt pronghorn the most (all)",30,55,Nominal (categorical),,
Q9_Unit,Q10,"Among the units you could hunt, which three units did you hunt pronghorn the most (all)",31,56,Nominal (categorical),,
Q9_Unit,Q10,"Among the units you could hunt, which three units did you hunt pronghorn the most (all)",32,57,Nominal (categorical),,
Q9_Unit,Q10,"Among the units you could hunt, which three units did you hunt pronghorn the most (all)",33,58,Nominal (categorical),,
Q9_Unit,Q10,"Among the units you could hunt, which three units did you hunt pronghorn the most (all)",34,59,Nominal (categorical),,
Q9_Unit,Q10,"Among the units you could hunt, which three units did you hunt pronghorn the most (all)",35, 59A,Nominal (categorical),,
Q9_Unit,Q10,"Among the units you could hunt, which three units did you hunt pronghorn the most (all)",36,60,Nominal (categorical),,
Q9_Unit,Q10,"Among the units you could hunt, which three units did you hunt pronghorn the most (all)",37, 60A,Nominal (categorical),,
Q9_Unit,Q10,"Among the units you could hunt, which three units did you hunt pronghorn the most (all)",38,61,Nominal (categorical),,
Q9_Unit,Q10,"Among the units you could hunt, which three units did you hunt pronghorn the most (all)",39,63,Nominal (categorical),,
Q9_Unit,Q10,"Among the units you could hunt, which three units did you hunt pronghorn the most (all)",40,68,Nominal (categorical),,
Q9_Unit,Q10,"Among the units you could hunt, which three units did you hunt pronghorn the most (all)",41,76,Nominal (categorical),,
Q9_1_Unit,Q10,"Among the units you could hunt, which three units did you hunt pronghorn the most (1st)",1, 21A,Nominal (categorical),,
Q9_1_Unit,Q10,"Among the units you could hunt, which three units did you hunt pronghorn the most (1st)",2,28,Nominal (categorical),,
Q9_1_Unit,Q10,"Among the units you could hunt, which three units did you hunt pronghorn the most (1st)",3,29,Nominal (categorical),,
Q9_1_Unit,Q10,"Among the units you could hunt, which three units did you hunt pronghorn the most (1st)",4,30,Nominal (categorical),,
Q9_1_Unit,Q10,"Among the units you could hunt, which three units did you hunt pronghorn the most (1st)",5, 30A,Nominal (categorical),,
Q9_1_Unit,Q10,"Among the units you could hunt, which three units did you hunt pronghorn the most (1st)",6,32,Nominal (categorical),,
Q9_1_Unit,Q10,"Among the units you could hunt, which three units did you hunt pronghorn the most (1st)",7, 32A,Nominal (categorical),,
Q9_1_Unit,Q10,"Among the units you could hunt, which three units did you hunt pronghorn the most (1st)",8,36,Nominal (categorical),,
Q9_1_Unit,Q10,"Among the units you could hunt, which three units did you hunt pronghorn the most (1st)",9, 36A,Nominal (categorical),,
Q9_1_Unit,Q10,"Among the units you could hunt, which three units did you hunt pronghorn the most (1st)",10, 36B,Nominal (categorical),,
Q9_1_Unit,Q10,"Among the units you could hunt, which three units did you hunt pronghorn the most (1st)",11,37,Nominal (categorical),,
Q9_1_Unit,Q10,"Among the units you could hunt, which three units did you hunt pronghorn the most (1st)",12, 37A,Nominal (categorical),,
Q9_1_Unit,Q10,"Among the units you could hunt, which three units did you hunt pronghorn the most (1st)",13,38,Nominal (categorical),,
Q9_1_Unit,Q10,"Among the units you could hunt, which three units did you hunt pronghorn the most (1st)",14,39,Nominal (categorical),,
Q9_1_Unit,Q10,"Among the units you could hunt, which three units did you hunt pronghorn the most (1st)",15,40,Nominal (categorical),,
Q9_1_Unit,Q10,"Among the units you could hunt, which three units did you hunt pronghorn the most (1st)",16,41,Nominal (categorical),,
Q9_1_Unit,Q10,"Among the units you could hunt, which three units did you hunt pronghorn the most (1st)",17,42,Nominal (categorical),,
Q9_1_Unit,Q10,"Among the units you could hunt, which three units did you hunt pronghorn the most (1st)",18,44,Nominal (categorical),,
Q9_1_Unit,Q10,"Among the units you could hunt, which three units did you hunt pronghorn the most (1st)",19,45,Nominal (categorical),,
Q9_1_Unit,Q10,"Among the units you could hunt, which three units did you hunt pronghorn the most (1st)",20,46,Nominal (categorical),,
Q9_1_Unit,Q10,"Among the units you could hunt, which three units did you hunt pronghorn the most (1st)",21,47,Nominal (categorical),,
Q9_1_Unit,Q10,"Among the units you could hunt, which three units did you hunt pronghorn the most (1st)",22,48,Nominal (categorical),,
Q9_1_Unit,Q10,"Among the units you could hunt, which three units did you hunt pronghorn the most (1st)",23,49,Nominal (categorical),,
Q9_1_Unit,Q10,"Among the units you could hunt, which three units did you hunt pronghorn the most (1st)",24,50,Nominal (categorical),,
Q9_1_Unit,Q10,"Among the units you could hunt, which three units did you hunt pronghorn the most (1st)",25,51,Nominal (categorical),,
Q9_1_Unit,Q10,"Among the units you could hunt, which three units did you hunt pronghorn the most (1st)",26,52,Nominal (categorical),,
Q9_1_Unit,Q10,"Among the units you could hunt, which three units did you hunt pronghorn the most (1st)",27, 52A,Nominal (categorical),,
Q9_1_Unit,Q10,"Among the units you could hunt, which three units did you hunt pronghorn the most (1st)",28,53,Nominal (categorical),,
Q9_1_Unit,Q10,"Among the units you could hunt, which three units did you hunt pronghorn the most (1st)",29,54,Nominal (categorical),,
Q9_1_Unit,Q10,"Among the units you could hunt, which three units did you hunt pronghorn the most (1st)",30,55,Nominal (categorical),,
Q9_1_Unit,Q10,"Among the units you could hunt, which three units did you hunt pronghorn the most (1st)",31,56,Nominal (categorical),,
Q9_1_Unit,Q10,"Among the units you could hunt, which three units did you hunt pronghorn the most (1st)",32,57,Nominal (categorical),,
Q9_1_Unit,Q10,"Among the units you could hunt, which three units did you hunt pronghorn the most (1st)",33,58,Nominal (categorical),,
Q9_1_Unit,Q10,"Among the units you could hunt, which three units did you hunt pronghorn the most (1st)",34,59,Nominal (categorical),,
Q9_1_Unit,Q10,"Among the units you could hunt, which three units did you hunt pronghorn the most (1st)",35, 59A,Nominal (categorical),,
Q9_1_Unit,Q10,"Among the units you could hunt, which three units did you hunt pronghorn the most (1st)",36,60,Nominal (categorical),,
Q9_1_Unit,Q10,"Among the units you could hunt, which three units did you hunt pronghorn the most (1st)",37, 60A,Nominal (categorical),,
Q9_1_Unit,Q10,"Among the units you could hunt, which three units did you hunt pronghorn the most (1st)",38,61,Nominal (categorical),,
Q9_1_Unit,Q10,"Among the units you could hunt, which three units did you hunt pronghorn the most (1st)",39,63,Nominal (categorical),,
Q9_1_Unit,Q10,"Among the units you could hunt, which three units did you hunt pronghorn the most (1st)",40,68,Nominal (categorical),,
Q9_1_Unit,Q10,"Among the units you could hunt, which three units did you hunt pronghorn the most (1st)",41,76,Nominal (categorical),,
Q9_2_Unit,Q10,"Among the units you could hunt, which three units did you hunt pronghorn the most (2nd)",1, 21A,Nominal (categorical),,
Q9_2_Unit,Q10,"Among the units you could hunt, which three units did you hunt pronghorn the most (2nd)",2,28,Nominal (categorical),,
Q9_2_Unit,Q10,"Among the units you could hunt, which three units did you hunt pronghorn the most (2nd)",3,29,Nominal (categorical),,
Q9_2_Unit,Q10,"Among the units you could hunt, which three units did you hunt pronghorn the most (2nd)",4,30,Nominal (categorical),,
Q9_2_Unit,Q10,"Among the units you could hunt, which three units did you hunt pronghorn the most (2nd)",5, 30A,Nominal (categorical),,
Q9_2_Unit,Q10,"Among the units you could hunt, which three units did you hunt pronghorn the most (2nd)",6,32,Nominal (categorical),,
Q9_2_Unit,Q10,"Among the units you could hunt, which three units did you hunt pronghorn the most (2nd)",7, 32A,Nominal (categorical),,
Q9_2_Unit,Q10,"Among the units you could hunt, which three units did you hunt pronghorn the most (2nd)",8,36,Nominal (categorical),,
Q9_2_Unit,Q10,"Among the units you could hunt, which three units did you hunt pronghorn the most (2nd)",9, 36A,Nominal (categorical),,
Q9_2_Unit,Q10,"Among the units you could hunt, which three units did you hunt pronghorn the most (2nd)",10, 36B,Nominal (categorical),,
Q9_2_Unit,Q10,"Among the units you could hunt, which three units did you hunt pronghorn the most (2nd)",11,37,Nominal (categorical),,
Q9_2_Unit,Q10,"Among the units you could hunt, which three units did you hunt pronghorn the most (2nd)",12, 37A,Nominal (categorical),,
Q9_2_Unit,Q10,"Among the units you could hunt, which three units did you hunt pronghorn the most (2nd)",13,38,Nominal (categorical),,
Q9_2_Unit,Q10,"Among the units you could hunt, which three units did you hunt pronghorn the most (2nd)",14,39,Nominal (categorical),,
Q9_2_Unit,Q10,"Among the units you could hunt, which three units did you hunt pronghorn the most (2nd)",15,40,Nominal (categorical),,
Q9_2_Unit,Q10,"Among the units you could hunt, which three units did you hunt pronghorn the most (2nd)",16,41,Nominal (categorical),,
Q9_2_Unit,Q10,"Among the units you could hunt, which three units did you hunt pronghorn the most (2nd)",17,42,Nominal (categorical),,
Q9_2_Unit,Q10,"Among the units you could hunt, which three units did you hunt pronghorn the most (2nd)",18,44,Nominal (categorical),,
Q9_2_Unit,Q10,"Among the units you could hunt, which three units did you hunt pronghorn the most (2nd)",19,45,Nominal (categorical),,
Q9_2_Unit,Q10,"Among the units you could hunt, which three units did you hunt pronghorn the most (2nd)",20,46,Nominal (categorical),,
Q9_2_Unit,Q10,"Among the units you could hunt, which three units did you hunt pronghorn the most (2nd)",21,47,Nominal (categorical),,
Q9_2_Unit,Q10,"Among the units you could hunt, which three units did you hunt pronghorn the most (2nd)",22,48,Nominal (categorical),,
Q9_2_Unit,Q10,"Among the units you could hunt, which three units did you hunt pronghorn the most (2nd)",23,49,Nominal (categorical),,
Q9_2_Unit,Q10,"Among the units you could hunt, which three units did you hunt pronghorn the most (2nd)",24,50,Nominal (categorical),,
Q9_2_Unit,Q10,"Among the units you could hunt, which three units did you hunt pronghorn the most (2nd)",25,51,Nominal (categorical),,
Q9_2_Unit,Q10,"Among the units you could hunt, which three units did you hunt pronghorn the most (2nd)",26,52,Nominal (categorical),,
Q9_2_Unit,Q10,"Among the units you could hunt, which three units did you hunt pronghorn the most (2nd)",27, 52A,Nominal (categorical),,
Q9_2_Unit,Q10,"Among the units you could hunt, which three units did you hunt pronghorn the most (2nd)",28,53,Nominal (categorical),,
Q9_2_Unit,Q10,"Among the units you could hunt, which three units did you hunt pronghorn the most (2nd)",29,54,Nominal (categorical),,
Q9_2_Unit,Q10,"Among the units you could hunt, which three units did you hunt pronghorn the most (2nd)",30,55,Nominal (categorical),,
Q9_2_Unit,Q10,"Among the units you could hunt, which three units did you hunt pronghorn the most (2nd)",31,56,Nominal (categorical),,
Q9_2_Unit,Q10,"Among the units you could hunt, which three units did you hunt pronghorn the most (2nd)",32,57,Nominal (categorical),,
Q9_2_Unit,Q10,"Among the units you could hunt, which three units did you hunt pronghorn the most (2nd)",33,58,Nominal (categorical),,
Q9_2_Unit,Q10,"Among the units you could hunt, which three units did you hunt pronghorn the most (2nd)",34,59,Nominal (categorical),,
Q9_2_Unit,Q10,"Among the units you could hunt, which three units did you hunt pronghorn the most (2nd)",35, 59A,Nominal (categorical),,
Q9_2_Unit,Q10,"Among the units you could hunt, which three units did you hunt pronghorn the most (2nd)",36,60,Nominal (categorical),,
Q9_2_Unit,Q10,"Among the units you could hunt, which three units did you hunt pronghorn the most (2nd)",37, 60A,Nominal (categorical),,
Q9_2_Unit,Q10,"Among the units you could hunt, which three units did you hunt pronghorn the most (2nd)",38,61,Nominal (categorical),,
Q9_2_Unit,Q10,"Among the units you could hunt, which three units did you hunt pronghorn the most (2nd)",39,63,Nominal (categorical),,
Q9_2_Unit,Q10,"Among the units you could hunt, which three units did you hunt pronghorn the most (2nd)",40,68,Nominal (categorical),,
Q9_2_Unit,Q10,"Among the units you could hunt, which three units did you hunt pronghorn the most (2nd)",41,76,Nominal (categorical),,
Q9_3_Unit,Q10,"Among the units you could hunt, which three units did you hunt pronghorn the most (3rd)",1, 21A,Nominal (categorical),,
Q9_3_Unit,Q10,"Among the units you could hunt, which three units did you hunt pronghorn the most (3rd)",2,28,Nominal (categorical),,
Q9_3_Unit,Q10,"Among the units you could hunt, which three units did you hunt pronghorn the most (3rd)",3,29,Nominal (categorical),,
Q9_3_Unit,Q10,"Among the units you could hunt, which three units did you hunt pronghorn the most (3rd)",4,30,Nominal (categorical),,
Q9_3_Unit,Q10,"Among the units you could hunt, which three units did you hunt pronghorn the most (3rd)",5, 30A,Nominal (categorical),,
Q9_3_Unit,Q10,"Among the units you could hunt, which three units did you hunt pronghorn the most (3rd)",6,32,Nominal (categorical),,
Q9_3_Unit,Q10,"Among the units you could hunt, which three units did you hunt pronghorn the most (3rd)",7, 32A,Nominal (categorical),,
Q9_3_Unit,Q10,"Among the units you could hunt, which three units did you hunt pronghorn the most (3rd)",8,36,Nominal (categorical),,
Q9_3_Unit,Q10,"Among the units you could hunt, which three units did you hunt pronghorn the most (3rd)",9, 36A,Nominal (categorical),,
Q9_3_Unit,Q10,"Among the units you could hunt, which three units did you hunt pronghorn the most (3rd)",10, 36B,Nominal (categorical),,
Q9_3_Unit,Q10,"Among the units you could hunt, which three units did you hunt pronghorn the most (3rd)",11,37,Nominal (categorical),,
Q9_3_Unit,Q10,"Among the units you could hunt, which three units did you hunt pronghorn the most (3rd)",12, 37A,Nominal (categorical),,
Q9_3_Unit,Q10,"Among the units you could hunt, which three units did you hunt pronghorn the most (3rd)",13,38,Nominal (categorical),,
Q9_3_Unit,Q10,"Among the units you could hunt, which three units did you hunt pronghorn the most (3rd)",14,39,Nominal (categorical),,
Q9_3_Unit,Q10,"Among the units you could hunt, which three units did you hunt pronghorn the most (3rd)",15,40,Nominal (categorical),,
Q9_3_Unit,Q10,"Among the units you could hunt, which three units did you hunt pronghorn the most (3rd)",16,41,Nominal (categorical),,
Q9_3_Unit,Q10,"Among the units you could hunt, which three units did you hunt pronghorn the most (3rd)",17,42,Nominal (categorical),,
Q9_3_Unit,Q10,"Among the units you could hunt, which three units did you hunt pronghorn the most (3rd)",18,44,Nominal (categorical),,
Q9_3_Unit,Q10,"Among the units you could hunt, which three units did you hunt pronghorn the most (3rd)",19,45,Nominal (categorical),,
Q9_3_Unit,Q10,"Among the units you could hunt, which three units did you hunt pronghorn the most (3rd)",20,46,Nominal (categorical),,
Q9_3_Unit,Q10,"Among the units you could hunt, which three units did you hunt pronghorn the most (3rd)",21,47,Nominal (categorical),,
Q9_3_Unit,Q10,"Among the units you could hunt, which three units did you hunt pronghorn the most (3rd)",22,48,Nominal (categorical),,
Q9_3_Unit,Q10,"Among the units you could hunt, which three units did you hunt pronghorn the most (3rd)",23,49,Nominal (categorical),,
Q9_3_Unit,Q10,"Among the units you could hunt, which three units did you hunt pronghorn the most (3rd)",24,50,Nominal (categorical),,
Q9_3_Unit,Q10,"Among the units you could hunt, which three units did you hunt pronghorn the most (3rd)",25,51,Nominal (categorical),,
Q9_3_Unit,Q10,"Among the units you could hunt, which three units did you hunt pronghorn the most (3rd)",26,52,Nominal (categorical),,
Q9_3_Unit,Q10,"Among the units you could hunt, which three units did you hunt pronghorn the most (3rd)",27, 52A,Nominal (categorical),,
Q9_3_Unit,Q10,"Among the units you could hunt, which three units did you hunt pronghorn the most (3rd)",28,53,Nominal (categorical),,
Q9_3_Unit,Q10,"Among the units you could hunt, which three units did you hunt pronghorn the most (3rd)",29,54,Nominal (categorical),,
Q9_3_Unit,Q10,"Among the units you could hunt, which three units did you hunt pronghorn the most (3rd)",30,55,Nominal (categorical),,
Q9_3_Unit,Q10,"Among the units you could hunt, which three units did you hunt pronghorn the most (3rd)",31,56,Nominal (categorical),,
Q9_3_Unit,Q10,"Among the units you could hunt, which three units did you hunt pronghorn the most (3rd)",32,57,Nominal (categorical),,
Q9_3_Unit,Q10,"Among the units you could hunt, which three units did you hunt pronghorn the most (3rd)",33,58,Nominal (categorical),,
Q9_3_Unit,Q10,"Among the units you could hunt, which three units did you hunt pronghorn the most (3rd)",34,59,Nominal (categorical),,
Q9_3_Unit,Q10,"Among the units you could hunt, which three units did you hunt pronghorn the most (3rd)",35, 59A,Nominal (categorical),,
Q9_3_Unit,Q10,"Among the units you could hunt, which three units did you hunt pronghorn the most (3rd)",36,60,Nominal (categorical),,
Q9_3_Unit,Q10,"Among the units you could hunt, which three units did you hunt pronghorn the most (3rd)",37, 60A,Nominal (categorical),,
Q9_3_Unit,Q10,"Among the units you could hunt, which three units did you hunt pronghorn the most (3rd)",38,61,Nominal (categorical),,
Q9_3_Unit,Q10,"Among the units you could hunt, which three units did you hunt pronghorn the most (3rd)",39,63,Nominal (categorical),,
Q9_3_Unit,Q10,"Among the units you could hunt, which three units did you hunt pronghorn the most (3rd)",40,68,Nominal (categorical),,
Q9_3_Unit,Q10,"Among the units you could hunt, which three units did you hunt pronghorn the most (3rd)",41,76,Nominal (categorical),,
Q10_Land_Type,Q11,Which land type did you hunt on most often for pronghorn,1, Public land,Nominal (categorical),,
Q10_Land_Type,Q11,Which land type did you hunt on most often for pronghorn,2, Private land,Nominal (categorical),,
Q10_Land_Type,Q11,Which land type did you hunt on most often for pronghorn,3, A mix of public and private land,Nominal (categorical),,
Q11A_1_Land_Public,Q11,What percentage of your time did you hunt on public land,,,Nominal (categorical),,
Q11B_2_Land_Private,Q11,What percentage of your time did you hunt on private land,,,Nominal (categorical),,
Q12_Weapon,Q12,Which weapon did you use to hunt pronghorn,1, Bow,Nominal (categorical),,
Q12_Weapon,Q12,Which weapon did you use to hunt pronghorn,2, Rifle,Nominal (categorical),,
Q12_Weapon,Q12,Which weapon did you use to hunt pronghorn,3, Muzzleloader,Nominal (categorical),,
Q12_Weapon,Q12,Which weapon did you use to hunt pronghorn,4, Other,Nominal (categorical),,
Q13_Harvest,Q13,Did you harvest a pronghorn,1, No,Nominal (categorical),,
Q13_Harvest,Q13,Did you harvest a pronghorn,2, Yes,Nominal (categorical),,
Q14_Crowd,Q14,Perceived crowding rating,,,Ordinal (continuous),,
Q15_Crowd_Numbers,Q15,Perceived change in hunter numbers,,,Ordinal (continuous),,
Q16_Crowd_Reason,Q16,Crowding contribution reason,1, Other people,Nominal (categorical),,
Q16_Crowd_Reason,Q16,Crowding contribution reason,2, Access to land,Nominal (categorical),,
Q16_Crowd_Reason,Q16,Crowding contribution reason,3, Crowding is not an issue,Nominal (categorical),,
Q16A_People,Q16A,Who contributes most to the crowding issues you experience,1, Other pronghorn hunters,Nominal (categorical),,
Q16A_People,Q16A,Who contributes most to the crowding issues you experience,2, Sage-grouse hunters,Nominal (categorical),,
Q16A_People,Q16A,Who contributes most to the crowding issues you experience,3, Non-resident pronghorn hunters,Nominal (categorical),,
Q16A_People,Q16A,Who contributes most to the crowding issues you experience,4, Non-hunters that use the same areas,Nominal (categorical),,
Q16B_Access,Q16B,What contributes the most to access issues you experience,1," Personal issues (e.g., physical or medical issues)",Nominal (categorical),,
Q16B_Access,Q16B,What contributes the most to access issues you experience,2, Limited road or trail access,Nominal (categorical),,
Q16B_Access,Q16B,What contributes the most to access issues you experience,3, Water holes are too close to roads,Nominal (categorical),,
Q16B_Access,Q16B,What contributes the most to access issues you experience,4," Competition for specific hunting locations (e.g., water holes)",Nominal (categorical),,
Q16B_Access,Q16B,What contributes the most to access issues you experience,5, Limited access to private property,Nominal (categorical),,
Q17_Difficult,Q17,How difficult or easy was it for you to hunt pronghorn in your preferred units,1, Very difficult,Nominal (categorical),,
Q17_Difficult,Q17,How difficult or easy was it for you to hunt pronghorn in your preferred units,2, Difficult,Nominal (categorical),,
Q17_Difficult,Q17,How difficult or easy was it for you to hunt pronghorn in your preferred units,3, Easy,Nominal (categorical),,
Q17_Difficult,Q17,How difficult or easy was it for you to hunt pronghorn in your preferred units,4, Very easy,Nominal (categorical),,
Q18_Encounter,Q18,How often did you encounter other pronghorn hunters,1, Never,Nominal (categorical),,
Q18_Encounter,Q18,How often did you encounter other pronghorn hunters,2, Rarely,Nominal (categorical),,
Q18_Encounter,Q18,How often did you encounter other pronghorn hunters,3, Sometimes,Nominal (categorical),,
Q18_Encounter,Q18,How often did you encounter other pronghorn hunters,4, Often,Nominal (categorical),,
Q18_Encounter,Q18,How often did you encounter other pronghorn hunters,5, Always,Nominal (categorical),,
Q19_Displacement,Q19,How often did you move to another location because of other pronghorn hunters,1, Never,Nominal (categorical),,
Q19_Displacement,Q19,How often did you move to another location because of other pronghorn hunters,2, Rarely,Nominal (categorical),,
Q19_Displacement,Q19,How often did you move to another location because of other pronghorn hunters,3, Sometimes,Nominal (categorical),,
Q19_Displacement,Q19,How often did you move to another location because of other pronghorn hunters,4, Often,Nominal (categorical),,
Q19_Displacement,Q19,How often did you move to another location because of other pronghorn hunters,5, Always,Nominal (categorical),,
Q20_Encounter_SageGrouse,Q20,How often did you encounter sage-grouse hunters when hunting for pronghorn,1, Never,Nominal (categorical),,
Q20_Encounter_SageGrouse,Q20,How often did you encounter sage-grouse hunters when hunting for pronghorn,2, Rarely,Nominal (categorical),,
Q20_Encounter_SageGrouse,Q20,How often did you encounter sage-grouse hunters when hunting for pronghorn,3, Sometimes,Nominal (categorical),,
Q20_Encounter_SageGrouse,Q20,How often did you encounter sage-grouse hunters when hunting for pronghorn,4, Often,Nominal (categorical),,
Q20_Encounter_SageGrouse,Q20,How often did you encounter sage-grouse hunters when hunting for pronghorn,5, Always,Nominal (categorical),,
Q21_Displacement_SageGrouse,Q21,How often did you move to another location because of sage-grouse hunters,1, Never,Nominal (categorical),,
Q21_Displacement_SageGrouse,Q21,How often did you move to another location because of sage-grouse hunters,2, Rarely,Nominal (categorical),,
Q21_Displacement_SageGrouse,Q21,How often did you move to another location because of sage-grouse hunters,3, Sometimes,Nominal (categorical),,
Q21_Displacement_SageGrouse,Q21,How often did you move to another location because of sage-grouse hunters,4, Often,Nominal (categorical),,
Q21_Displacement_SageGrouse,Q21,How often did you move to another location because of sage-grouse hunters,5, Always,Nominal (categorical),,
Q22_Fights,Q22,How many verbal or physical altercations did you personally see or experience,1, None,Nominal (categorical),,
Q22_Fights,Q22,How many verbal or physical altercations did you personally see or experience,2, A few (maybe 1 or 2),Nominal (categorical),,
Q22_Fights,Q22,How many verbal or physical altercations did you personally see or experience,3, Several (more than 2),Nominal (categorical),,
Q23_Vandalism,Q23,How often did you personally see or experience vandalism or theft,1, Never,Nominal (categorical),,
Q23_Vandalism,Q23,How often did you personally see or experience vandalism or theft,2, Once or twice,Nominal (categorical),,
Q23_Vandalism,Q23,How often did you personally see or experience vandalism or theft,3, More than twice,Nominal (categorical),,
Q24_1_Satf_SeeBuck,Q24,Satisfaction: Seeing any bucks,1, Very dissatisfied,Nominal (categorical),,
Q24_1_Satf_SeeBuck,Q24,Satisfaction: Seeing any bucks,2, Dissatisfied,Nominal (categorical),,
Q24_1_Satf_SeeBuck,Q24,Satisfaction: Seeing any bucks,3, Neither,Nominal (categorical),,
Q24_1_Satf_SeeBuck,Q24,Satisfaction: Seeing any bucks,4, Satisfied,Nominal (categorical),,
Q24_1_Satf_SeeBuck,Q24,Satisfaction: Seeing any bucks,5, Very satisfied,Nominal (categorical),,
Q24_2_Satf_SeeMature,Q24,Satisfaction: Seeing mature bucks,1, Very dissatisfied,Nominal (categorical),,
Q24_2_Satf_SeeMature,Q24,Satisfaction: Seeing mature bucks,2, Dissatisfied,Nominal (categorical),,
Q24_2_Satf_SeeMature,Q24,Satisfaction: Seeing mature bucks,3, Neither,Nominal (categorical),,
Q24_2_Satf_SeeMature,Q24,Satisfaction: Seeing mature bucks,4, Satisfied,Nominal (categorical),,
Q24_2_Satf_SeeMature,Q24,Satisfaction: Seeing mature bucks,5, Very satisfied,Nominal (categorical),,
Q24_3_Satf_ShootBuck,Q24,Satisfaction: Shooting at any bucks,1, Very dissatisfied,Nominal (categorical),,
Q24_3_Satf_ShootBuck,Q24,Satisfaction: Shooting at any bucks,2, Dissatisfied,Nominal (categorical),,
Q24_3_Satf_ShootBuck,Q24,Satisfaction: Shooting at any bucks,3, Neither,Nominal (categorical),,
Q24_3_Satf_ShootBuck,Q24,Satisfaction: Shooting at any bucks,4, Satisfied,Nominal (categorical),,
Q24_3_Satf_ShootBuck,Q24,Satisfaction: Shooting at any bucks,5, Very satisfied,Nominal (categorical),,
Q24_4_Satf_ShootMature,Q24,Satisfaction: Shooting at mature bucks,1, Very dissatisfied,Nominal (categorical),,
Q24_4_Satf_ShootMature,Q24,Satisfaction: Shooting at mature bucks,2, Dissatisfied,Nominal (categorical),,
Q24_4_Satf_ShootMature,Q24,Satisfaction: Shooting at mature bucks,3, Neither,Nominal (categorical),,
Q24_4_Satf_ShootMature,Q24,Satisfaction: Shooting at mature bucks,4, Satisfied,Nominal (categorical),,
Q24_4_Satf_ShootMature,Q24,Satisfaction: Shooting at mature bucks,5, Very satisfied,Nominal (categorical),,
Q24_5_Satf_FillTag,Q24,Satisfaction: Filling my tag,1, Very dissatisfied,Nominal (categorical),,
Q24_5_Satf_FillTag,Q24,Satisfaction: Filling my tag,2, Dissatisfied,Nominal (categorical),,
Q24_5_Satf_FillTag,Q24,Satisfaction: Filling my tag,3, Neither,Nominal (categorical),,
Q24_5_Satf_FillTag,Q24,Satisfaction: Filling my tag,4, Satisfied,Nominal (categorical),,
Q24_5_Satf_FillTag,Q24,Satisfaction: Filling my tag,5, Very satisfied,Nominal (categorical),,
Q24_6_Satf_SeeLots,Q24,Satisfaction: Seeing lots of pronghorn,1, Very dissatisfied,Nominal (categorical),,
Q24_6_Satf_SeeLots,Q24,Satisfaction: Seeing lots of pronghorn,2, Dissatisfied,Nominal (categorical),,
Q24_6_Satf_SeeLots,Q24,Satisfaction: Seeing lots of pronghorn,3, Neither,Nominal (categorical),,
Q24_6_Satf_SeeLots,Q24,Satisfaction: Seeing lots of pronghorn,4, Satisfied,Nominal (categorical),,
Q24_6_Satf_SeeLots,Q24,Satisfaction: Seeing lots of pronghorn,5, Very satisfied,Nominal (categorical),,
Q24_7_Satf_LongSeason,Q24,Satisfaction: Having a long season,1, Very dissatisfied,Nominal (categorical),,
Q24_7_Satf_LongSeason,Q24,Satisfaction: Having a long season,2, Dissatisfied,Nominal (categorical),,
Q24_7_Satf_LongSeason,Q24,Satisfaction: Having a long season,3, Neither,Nominal (categorical),,
Q24_7_Satf_LongSeason,Q24,Satisfaction: Having a long season,4, Satisfied,Nominal (categorical),,
Q24_7_Satf_LongSeason,Q24,Satisfaction: Having a long season,5, Very satisfied,Nominal (categorical),,
Q25_1_Import_SeeBuck,Q25,Importance: Seeing any bucks,1, Not at all important,Nominal (categorical),,
Q25_1_Import_SeeBuck,Q25,Importance: Seeing any bucks,2, Slightly important,Nominal (categorical),,
Q25_1_Import_SeeBuck,Q25,Importance: Seeing any bucks,3, Moderately important,Nominal (categorical),,
Q25_1_Import_SeeBuck,Q25,Importance: Seeing any bucks,4, Very important,Nominal (categorical),,
Q25_1_Import_SeeBuck,Q25,Importance: Seeing any bucks,5, Extremely important,Nominal (categorical),,
Q25_2_Import_SeeMature,Q25,Importance: Seeing mature bucks,1, Not at all important,Nominal (categorical),,
Q25_2_Import_SeeMature,Q25,Importance: Seeing mature bucks,2, Slightly important,Nominal (categorical),,
Q25_2_Import_SeeMature,Q25,Importance: Seeing mature bucks,3, Moderately important,Nominal (categorical),,
Q25_2_Import_SeeMature,Q25,Importance: Seeing mature bucks,4, Very important,Nominal (categorical),,
Q25_2_Import_SeeMature,Q25,Importance: Seeing mature bucks,5, Extremely important,Nominal (categorical),,
Q25_3_Import_ShootBuck,Q25,Importance: Shooting at any bucks,1, Not at all important,Nominal (categorical),,
Q25_3_Import_ShootBuck,Q25,Importance: Shooting at any bucks,2, Slightly important,Nominal (categorical),,
Q25_3_Import_ShootBuck,Q25,Importance: Shooting at any bucks,3, Moderately important,Nominal (categorical),,
Q25_3_Import_ShootBuck,Q25,Importance: Shooting at any bucks,4, Very important,Nominal (categorical),,
Q25_3_Import_ShootBuck,Q25,Importance: Shooting at any bucks,5, Extremely important,Nominal (categorical),,
Q25_4_Import_ShootMature,Q25,Importance: Shooting at mature bucks,1, Not at all important,Nominal (categorical),,
Q25_4_Import_ShootMature,Q25,Importance: Shooting at mature bucks,2, Slightly important,Nominal (categorical),,
Q25_4_Import_ShootMature,Q25,Importance: Shooting at mature bucks,3, Moderately important,Nominal (categorical),,
Q25_4_Import_ShootMature,Q25,Importance: Shooting at mature bucks,4, Very important,Nominal (categorical),,
Q25_4_Import_ShootMature,Q25,Importance: Shooting at mature bucks,5, Extremely important,Nominal (categorical),,
Q25_5_Import_FillTag,Q25,Importance: Filling my tag,1, Not at all important,Nominal (categorical),,
Q25_5_Import_FillTag,Q25,Importance: Filling my tag,2, Slightly important,Nominal (categorical),,
Q25_5_Import_FillTag,Q25,Importance: Filling my tag,3, Moderately important,Nominal (categorical),,
Q25_5_Import_FillTag,Q25,Importance: Filling my tag,4, Very important,Nominal (categorical),,
Q25_5_Import_FillTag,Q25,Importance: Filling my tag,5, Extremely important,Nominal (categorical),,
Q25_6_Import_SeeLots,Q25,Importance: Seeing lots of pronghorn,1, Not at all important,Nominal (categorical),,
Q25_6_Import_SeeLots,Q25,Importance: Seeing lots of pronghorn,2, Slightly important,Nominal (categorical),,
Q25_6_Import_SeeLots,Q25,Importance: Seeing lots of pronghorn,3, Moderately important,Nominal (categorical),,
Q25_6_Import_SeeLots,Q25,Importance: Seeing lots of pronghorn,4, Very important,Nominal (categorical),,
Q25_6_Import_SeeLots,Q25,Importance: Seeing lots of pronghorn,5, Extremely important,Nominal (categorical),,
Q25_7_Import_LongSeason,Q25,Importance: Having a long season,1, Not at all important,Nominal (categorical),,
Q25_7_Import_LongSeason,Q25,Importance: Having a long season,2, Slightly important,Nominal (categorical),,
Q25_7_Import_LongSeason,Q25,Importance: Having a long season,3, Moderately important,Nominal (categorical),,
Q25_7_Import_LongSeason,Q25,Importance: Having a long season,4, Very important,Nominal (categorical),,
Q25_7_Import_LongSeason,Q25,Importance: Having a long season,5, Extremely important,Nominal (categorical),,
Q26_MatureBuck,Q26,What do you consider a mature pronghorn buck,1,Any adult male,Nominal (categorical),,
Q26_MatureBuck,Q26,What do you consider a mature pronghorn buck,2,Horn length greater than 10-inches,Nominal (categorical),,
Q26_MatureBuck,Q26,What do you consider a mature pronghorn buck,3,Horn length greater than 12-inches,Nominal (categorical),,
Q26_MatureBuck,Q26,What do you consider a mature pronghorn buck,4,Horn length greater than 14-inches,Nominal (categorical),,
Q26_MatureBuck,Q26,What do you consider a mature pronghorn buck,5,Horn length greater than 16-inches,Nominal (categorical),,
Q26_MatureBuck,Q26,What do you consider a mature pronghorn buck,6,Other,Nominal (categorical),,
Q27_1_Motv_Family,Q27,Motivation: To enjoy time spent with friends/family,1, Not at all,Nominal (categorical),,
Q27_1_Motv_Family,Q27,Motivation: To enjoy time spent with friends/family,2, A little bit,Nominal (categorical),,
Q27_1_Motv_Family,Q27,Motivation: To enjoy time spent with friends/family,3, Somewhat,Nominal (categorical),,
Q27_1_Motv_Family,Q27,Motivation: To enjoy time spent with friends/family,4, Mostly,Nominal (categorical),,
Q27_1_Motv_Family,Q27,Motivation: To enjoy time spent with friends/family,5, Completely,Nominal (categorical),,
Q27_2_Motv_Nature,Q27,Motivation: To enjoy nature and the outdoors,1, Not at all,Nominal (categorical),,
Q27_2_Motv_Nature,Q27,Motivation: To enjoy nature and the outdoors,2, A little bit,Nominal (categorical),,
Q27_2_Motv_Nature,Q27,Motivation: To enjoy nature and the outdoors,3, Somewhat,Nominal (categorical),,
Q27_2_Motv_Nature,Q27,Motivation: To enjoy nature and the outdoors,4, Mostly,Nominal (categorical),,
Q27_2_Motv_Nature,Q27,Motivation: To enjoy nature and the outdoors,5, Completely,Nominal (categorical),,
Q27_3_Motv_Excite,Q27,Motivation: For the excitement that pronghorn hunting provides,1, Not at all,Nominal (categorical),,
Q27_3_Motv_Excite,Q27,Motivation: For the excitement that pronghorn hunting provides,2, A little bit,Nominal (categorical),,
Q27_3_Motv_Excite,Q27,Motivation: For the excitement that pronghorn hunting provides,3, Somewhat,Nominal (categorical),,
Q27_3_Motv_Excite,Q27,Motivation: For the excitement that pronghorn hunting provides,4, Mostly,Nominal (categorical),,
Q27_3_Motv_Excite,Q27,Motivation: For the excitement that pronghorn hunting provides,5, Completely,Nominal (categorical),,
Q27_4_Motv_Meat,Q27,Motivation: To bring meat home for food,1, Not at all,Nominal (categorical),,
Q27_4_Motv_Meat,Q27,Motivation: To bring meat home for food,2, A little bit,Nominal (categorical),,
Q27_4_Motv_Meat,Q27,Motivation: To bring meat home for food,3, Somewhat,Nominal (categorical),,
Q27_4_Motv_Meat,Q27,Motivation: To bring meat home for food,4, Mostly,Nominal (categorical),,
Q27_4_Motv_Meat,Q27,Motivation: To bring meat home for food,5, Completely,Nominal (categorical),,
Q27_5_Motv_Challenge,Q27,Motivation: For the overall challenge associated with hunting pronghorn,1, Not at all,Nominal (categorical),,
Q27_5_Motv_Challenge,Q27,Motivation: For the overall challenge associated with hunting pronghorn,2, A little bit,Nominal (categorical),,
Q27_5_Motv_Challenge,Q27,Motivation: For the overall challenge associated with hunting pronghorn,3, Somewhat,Nominal (categorical),,
Q27_5_Motv_Challenge,Q27,Motivation: For the overall challenge associated with hunting pronghorn,4, Mostly,Nominal (categorical),,
Q27_5_Motv_Challenge,Q27,Motivation: For the overall challenge associated with hunting pronghorn,5, Completely,Nominal (categorical),,
Q27_6_Motv_MatureBuck,Q27,Motivation: To get a mature buck,1, Not at all,Nominal (categorical),,
Q27_6_Motv_MatureBuck,Q27,Motivation: To get a mature buck,2, A little bit,Nominal (categorical),,
Q27_6_Motv_MatureBuck,Q27,Motivation: To get a mature buck,3, Somewhat,Nominal (categorical),,
Q27_6_Motv_MatureBuck,Q27,Motivation: To get a mature buck,4, Mostly,Nominal (categorical),,
Q27_6_Motv_MatureBuck,Q27,Motivation: To get a mature buck,5, Completely,Nominal (categorical),,
Q27_7_Motv_DemoSkills,Q27,Motivation: To demonstrate my hunting skills,1, Not at all,Nominal (categorical),,
Q27_7_Motv_DemoSkills,Q27,Motivation: To demonstrate my hunting skills,2, A little bit,Nominal (categorical),,
Q27_7_Motv_DemoSkills,Q27,Motivation: To demonstrate my hunting skills,3, Somewhat,Nominal (categorical),,
Q27_7_Motv_DemoSkills,Q27,Motivation: To demonstrate my hunting skills,4, Mostly,Nominal (categorical),,
Q27_7_Motv_DemoSkills,Q27,Motivation: To demonstrate my hunting skills,5, Completely,Nominal (categorical),,
Q28A_1_OpportValue,Q28A,Which pronghorn hunting opportunity do you value the most (harvest),1, Harvest any pronghorn in a given year,Nominal (categorical),,
Q28A_1_OpportValue,Q28A,Which pronghorn hunting opportunity do you value the most (harvest),2, Harvest a mature buck in a given year,Nominal (categorical),,
Q28B_2_OpportValue,Q28B,Which pronghorn hunting opportunity do you value the most (hunt),1, Hunt pronghorn with less competition from other hunters,Nominal (categorical),,
Q28B_2_OpportValue,Q28B,Which pronghorn hunting opportunity do you value the most (hunt),2, Hunt pronghorn every year,Nominal (categorical),,
Q28C_3_OpportValue,Q28C,Which pronghorn hunting opportunity do you value the most (forced),1, Q28A choice,Nominal (categorical),,
Q28C_3_OpportValue,Q28C,Which pronghorn hunting opportunity do you value the most (forced),2, Q28B choice,Nominal (categorical),,
Age_Born,SD1,Which year were you born,,,Ordinal (continuous),,
Age_Years,,Age (in years),,,Ordinal (continuous),,
Age_Cat,,Age (by category),1, 18-24 years old,Nominal (categorical),,
Age_Cat,,Age (by category),2, 25-34 years old,Nominal (categorical),,
Age_Cat,,Age (by category),3, 35-44 years old,Nominal (categorical),,
Age_Cat,,Age (by category),4, 45-54 years old,Nominal (categorical),,
Age_Cat,,Age (by category),5, 55-64 years old,Nominal (categorical),,
Age_Cat,,Age (by category),6, 65-74 years old,Nominal (categorical),,
Age_Cat,,Age (by category),7, 75+ years old,Nominal (categorical),,
Residency,SD2,Which year did you start being an Idaho resident,,,Ordinal (continuous),,
Residency_Length,,Residency (in years),,,Ordinal (continuous),,
Gender,SD3,What is your gender,1, Female,Nominal (categorical),,
Gender,SD3,What is your gender,2, Male,Nominal (categorical),,
Gender,SD3,What is your gender,3, Other,Nominal (categorical),,
Ethnicity,SD4,Which one or more of the following would you say is your race or ethnicity,1, Asian,Nominal (categorical),,
Ethnicity,SD4,Which one or more of the following would you say is your race or ethnicity,2, Black (or African American),Nominal (categorical),,
Ethnicity,SD4,Which one or more of the following would you say is your race or ethnicity,3, Hispanic (or Latino),Nominal (categorical),,
Ethnicity,SD4,Which one or more of the following would you say is your race or ethnicity,4, Indigenous (Native American or Native Alaskan),Nominal (categorical),,
Ethnicity,SD4,Which one or more of the following would you say is your race or ethnicity,5, Native Hawiian (or other Pacific Islander),Nominal (categorical),,
Ethnicity,SD4,Which one or more of the following would you say is your race or ethnicity,6, White (or Caucasian),Nominal (categorical),,
Ethnicity,SD4,Which one or more of the following would you say is your race or ethnicity,7, Don't know,Nominal (categorical),,
Ethnicity,SD4,Which one or more of the following would you say is your race or ethnicity,8, Other,Nominal (categorical),,
Income,SD5,What was your annual household income,1, Less than 25k,Nominal (categorical),,
Income,SD5,What was your annual household income,2, 25-49k,Nominal (categorical),,
Income,SD5,What was your annual household income,3, 50-74k,Nominal (categorical),,
Income,SD5,What was your annual household income,4, 75-99k,Nominal (categorical),,
Income,SD5,What was your annual household income,5, 100-149k,Nominal (categorical),,
Income,SD5,What was your annual household income,6, 150-199k,Nominal (categorical),,
Income,SD5,What was your annual household income,7, Greater than 200k,Nominal (categorical),,
Employ,SD6,What is your current employment status,1, Full-time,Nominal (categorical),,
Employ,SD6,What is your current employment status,2, Part-time,Nominal (categorical),,
Employ,SD6,What is your current employment status,3, Temporary,Nominal (categorical),,
Employ,SD6,What is your current employment status,4, Unemployed,Nominal (categorical),,
Employ,SD6,What is your current employment status,5, Retired,Nominal (categorical),,
Employ,SD6,What is your current employment status,6, Disabled,Nominal (categorical),,
qnr_Progress,,Progress,,,Interval (continuous),,
qnr_Finished,,Finished,0, False,Nominal (categorical),,
qnr_Finished,,Finished,1, True,Nominal (categorical),,
qnr_StartDate,,Start Date,None,,Interval (continuous),,
qnr_EndDate,,End Date,None,,Interval (continuous),,
qnr_Duration_seconds,,Duration (in seconds),None,,Interval (continuous),,
qnr_Duration_minutes,,Duration (in minutes),None,,Interval (continuous),,
qnr_LocationLatitude,,Location Latitude,None,,Interval (continuous),,
qnr_LocationLongitude,,Location Longitude,None,,Interval (continuous),,
SD_SatisfactionQ4,,Straighliner data quality test,,,Ratio (continuous),,
SD_SatisfactionQ24,,Straighliner data quality test,,,Ratio (continuous),,
SD_ImportanceQ25,,Straighliner data quality test,,,Ratio (continuous),,
SD_MotivationQ26,,Straighliner data quality test,,,Ratio (continuous),,
MHR_UNIT,,Units hunted in reported on most recent MHR,,,Nominal (categorical),,
