Name,Question_Number,Label,Code,Value,Level,Description,Note
ID,,Response ID,String,Text,Nominal (categorical),,
Q4_Weapon,Q1,Weapon preference,1,Bow,Nominal (categorical),,
Q4_Weapon,Q1,Weapon preference,2,Rifle,Nominal (categorical),,
Q4_Weapon,Q1,Weapon preference,3,Muzzleloader,Nominal (categorical),,
Q5_Hunt19,Q2,Hunted,0,No,Nominal (categorical),,
Q5_Hunt19,Q2,Hunted,1,Yes,Nominal (categorical),,
Q6_Harvest19,Q3,Harvested,0,No,Nominal (categorical),,
Q6_Harvest19,Q3,Harvested,1,Yes,Nominal (categorical),,
Q7_HuntYrsID,Q4,Years hunted in Idaho,1,1-4 years,Nominal (categorical),,
Q7_HuntYrsID,Q4,Years hunted in Idaho,2,5-9 years,Nominal (categorical),,
Q7_HuntYrsID,Q4,Years hunted in Idaho,3,10-14 years,Nominal (categorical),,
Q7_HuntYrsID,Q4,Years hunted in Idaho,4,15-19 years,Nominal (categorical),,
Q7_HuntYrsID,Q4,Years hunted in Idaho,5,20+ years,Nominal (categorical),,
Q7a_HuntYrs20_Qual,Q5,Change in game quality,1,Much worse,Ordinal (continuous),,
Q7a_HuntYrs20_Qual,Q5,Change in game quality,2,Worse,Ordinal (continuous),,
Q7a_HuntYrs20_Qual,Q5,Change in game quality,3,No change,Ordinal (continuous),,
Q7a_HuntYrs20_Qual,Q5,Change in game quality,4,Better,Ordinal (continuous),,
Q7a_HuntYrs20_Qual,Q5,Change in game quality,5,Much better,Ordinal (continuous),,
Q7b_HuntYrs20_Cause,Q6,Reason for change in game quality,1,Habitat,Nominal (categorical),,
Q7b_HuntYrs20_Cause,Q6,Reason for change in game quality,2,Predators,Nominal (categorical),,
Q7b_HuntYrs20_Cause,Q6,Reason for change in game quality,3,Land developmment,Nominal (categorical),,
Q7b_HuntYrs20_Cause,Q6,Reason for change in game quality,4,Resident hunters,Nominal (categorical),,
Q7b_HuntYrs20_Cause,Q6,Reason for change in game quality,5,Non-resident hunters,Nominal (categorical),,
Q8_Region,Q7,Region hunted most frequently,1,Panhandle,Nominal (categorical),,
Q8_Region,Q7,Region hunted most frequently,2,Clearwater,Nominal (categorical),,
Q8_Region,Q7,Region hunted most frequently,3,Southwest,Nominal (categorical),,
Q8_Region,Q7,Region hunted most frequently,4,Magic Valley,Nominal (categorical),,
Q8_Region,Q7,Region hunted most frequently,5,Southeast,Nominal (categorical),,
Q8_Region,Q7,Region hunted most frequently,6,Upper Snake,Nominal (categorical),,
Q8_Region,Q7,Region hunted most frequently,7,Salmon,Nominal (categorical),,
Q9_Unit,Q7,Unit hunted most frequently,1,1,Nominal (categorical),,
Q9_Unit,Q7,Unit hunted most frequently,2,2,Nominal (categorical),,
Q9_Unit,Q7,Unit hunted most frequently,3,3,Nominal (categorical),,
Q9_Unit,Q7,Unit hunted most frequently,4,4,Nominal (categorical),,
Q9_Unit,Q7,Unit hunted most frequently,4a,4a,Nominal (categorical),,
Q9_Unit,Q7,Unit hunted most frequently,5,5,Nominal (categorical),,
Q9_Unit,Q7,Unit hunted most frequently,6,6,Nominal (categorical),,
Q9_Unit,Q7,Unit hunted most frequently,7,7,Nominal (categorical),,
Q9_Unit,Q7,Unit hunted most frequently,9,9,Nominal (categorical),,
Q9_Unit,Q7,Unit hunted most frequently,8,8,Nominal (categorical),,
Q9_Unit,Q7,Unit hunted most frequently,8a,8a,Nominal (categorical),,
Q9_Unit,Q7,Unit hunted most frequently,10,10,Nominal (categorical),,
Q9_Unit,Q7,Unit hunted most frequently,10a,10a,Nominal (categorical),,
Q9_Unit,Q7,Unit hunted most frequently,11,11,Nominal (categorical),,
Q9_Unit,Q7,Unit hunted most frequently,11a,11a,Nominal (categorical),,
Q9_Unit,Q7,Unit hunted most frequently,12,12,Nominal (categorical),,
Q9_Unit,Q7,Unit hunted most frequently,13,13,Nominal (categorical),,
Q9_Unit,Q7,Unit hunted most frequently,14,14,Nominal (categorical),,
Q9_Unit,Q7,Unit hunted most frequently,15,15,Nominal (categorical),,
Q9_Unit,Q7,Unit hunted most frequently,16,16,Nominal (categorical),,
Q9_Unit,Q7,Unit hunted most frequently,16a,16a,Nominal (categorical),,
Q9_Unit,Q7,Unit hunted most frequently,17,17,Nominal (categorical),,
Q9_Unit,Q7,Unit hunted most frequently,18,18,Nominal (categorical),,
Q9_Unit,Q7,Unit hunted most frequently,19,19,Nominal (categorical),,
Q9_Unit,Q7,Unit hunted most frequently,20,20,Nominal (categorical),,
Q9_Unit,Q7,Unit hunted most frequently,19a,19a,Nominal (categorical),,
Q9_Unit,Q7,Unit hunted most frequently,20a,20a,Nominal (categorical),,
Q9_Unit,Q7,Unit hunted most frequently,22,22,Nominal (categorical),,
Q9_Unit,Q7,Unit hunted most frequently,23,23,Nominal (categorical),,
Q9_Unit,Q7,Unit hunted most frequently,24,24,Nominal (categorical),,
Q9_Unit,Q7,Unit hunted most frequently,25,25,Nominal (categorical),,
Q9_Unit,Q7,Unit hunted most frequently,26,26,Nominal (categorical),,
Q9_Unit,Q7,Unit hunted most frequently,31,31,Nominal (categorical),,
Q9_Unit,Q7,Unit hunted most frequently,32,32,Nominal (categorical),,
Q9_Unit,Q7,Unit hunted most frequently,32a,32a,Nominal (categorical),,
Q9_Unit,Q7,Unit hunted most frequently,33,33,Nominal (categorical),,
Q9_Unit,Q7,Unit hunted most frequently,34,34,Nominal (categorical),,
Q9_Unit,Q7,Unit hunted most frequently,35,35,Nominal (categorical),,
Q9_Unit,Q7,Unit hunted most frequently,38,38,Nominal (categorical),,
Q9_Unit,Q7,Unit hunted most frequently,39,39,Nominal (categorical),,
Q9_Unit,Q7,Unit hunted most frequently,40,40,Nominal (categorical),,
Q9_Unit,Q7,Unit hunted most frequently,41,41,Nominal (categorical),,
Q9_Unit,Q7,Unit hunted most frequently,42,42,Nominal (categorical),,
Q9_Unit,Q7,Unit hunted most frequently,43,43,Nominal (categorical),,
Q9_Unit,Q7,Unit hunted most frequently,44,44,Nominal (categorical),,
Q9_Unit,Q7,Unit hunted most frequently,45,45,Nominal (categorical),,
Q9_Unit,Q7,Unit hunted most frequently,46,46,Nominal (categorical),,
Q9_Unit,Q7,Unit hunted most frequently,47,47,Nominal (categorical),,
Q9_Unit,Q7,Unit hunted most frequently,48,48,Nominal (categorical),,
Q9_Unit,Q7,Unit hunted most frequently,49,49,Nominal (categorical),,
Q9_Unit,Q7,Unit hunted most frequently,52,52,Nominal (categorical),,
Q9_Unit,Q7,Unit hunted most frequently,52a,52a,Nominal (categorical),,
Q9_Unit,Q7,Unit hunted most frequently,53,53,Nominal (categorical),,
Q9_Unit,Q7,Unit hunted most frequently,54,54,Nominal (categorical),,
Q9_Unit,Q7,Unit hunted most frequently,55,55,Nominal (categorical),,
Q9_Unit,Q7,Unit hunted most frequently,56,56,Nominal (categorical),,
Q9_Unit,Q7,Unit hunted most frequently,57,57,Nominal (categorical),,
Q9_Unit,Q7,Unit hunted most frequently,66a,66a,Nominal (categorical),,
Q9_Unit,Q7,Unit hunted most frequently,68,68,Nominal (categorical),,
Q9_Unit,Q7,Unit hunted most frequently,68a,68a,Nominal (categorical),,
Q9_Unit,Q7,Unit hunted most frequently,70,70,Nominal (categorical),,
Q9_Unit,Q7,Unit hunted most frequently,71,71,Nominal (categorical),,
Q9_Unit,Q7,Unit hunted most frequently,72,72,Nominal (categorical),,
Q9_Unit,Q7,Unit hunted most frequently,73,73,Nominal (categorical),,
Q9_Unit,Q7,Unit hunted most frequently,73a,73a,Nominal (categorical),,
Q9_Unit,Q7,Unit hunted most frequently,74,74,Nominal (categorical),,
Q9_Unit,Q7,Unit hunted most frequently,75,75,Nominal (categorical),,
Q9_Unit,Q7,Unit hunted most frequently,76,76,Nominal (categorical),,
Q9_Unit,Q7,Unit hunted most frequently,77,77,Nominal (categorical),,
Q9_Unit,Q7,Unit hunted most frequently,78,78,Nominal (categorical),,
Q9_Unit,Q7,Unit hunted most frequently,50,50,Nominal (categorical),,
Q9_Unit,Q7,Unit hunted most frequently,51,51,Nominal (categorical),,
Q9_Unit,Q7,Unit hunted most frequently,58,58,Nominal (categorical),,
Q9_Unit,Q7,Unit hunted most frequently,59,59,Nominal (categorical),,
Q9_Unit,Q7,Unit hunted most frequently,59a,59a,Nominal (categorical),,
Q9_Unit,Q7,Unit hunted most frequently,60,60,Nominal (categorical),,
Q9_Unit,Q7,Unit hunted most frequently,60a,60a,Nominal (categorical),,
Q9_Unit,Q7,Unit hunted most frequently,61,61,Nominal (categorical),,
Q9_Unit,Q7,Unit hunted most frequently,62,62,Nominal (categorical),,
Q9_Unit,Q7,Unit hunted most frequently,62a,62a,Nominal (categorical),,
Q9_Unit,Q7,Unit hunted most frequently,63,63,Nominal (categorical),,
Q9_Unit,Q7,Unit hunted most frequently,63a,63a,Nominal (categorical),,
Q9_Unit,Q7,Unit hunted most frequently,64,64,Nominal (categorical),,
Q9_Unit,Q7,Unit hunted most frequently,65,65,Nominal (categorical),,
Q9_Unit,Q7,Unit hunted most frequently,66,66,Nominal (categorical),,
Q9_Unit,Q7,Unit hunted most frequently,67,67,Nominal (categorical),,
Q9_Unit,Q7,Unit hunted most frequently,69,69,Nominal (categorical),,
Q9_Unit,Q7,Unit hunted most frequently,21,21,Nominal (categorical),,
Q9_Unit,Q7,Unit hunted most frequently,21a,21a,Nominal (categorical),,
Q9_Unit,Q7,Unit hunted most frequently,27,27,Nominal (categorical),,
Q9_Unit,Q7,Unit hunted most frequently,28,28,Nominal (categorical),,
Q9_Unit,Q7,Unit hunted most frequently,29,29,Nominal (categorical),,
Q9_Unit,Q7,Unit hunted most frequently,30,30,Nominal (categorical),,
Q9_Unit,Q7,Unit hunted most frequently,30a,30a,Nominal (categorical),,
Q9_Unit,Q7,Unit hunted most frequently,36,36,Nominal (categorical),,
Q9_Unit,Q7,Unit hunted most frequently,36a,36a,Nominal (categorical),,
Q9_Unit,Q7,Unit hunted most frequently,36b,36b,Nominal (categorical),,
Q9_Unit,Q7,Unit hunted most frequently,37,37,Nominal (categorical),,
Q9_Unit,Q7,Unit hunted most frequently,37a,37a,Nominal (categorical),,
Q7b_HuntYrs20_Cause,Q6,Reason for change in game quality,6,Other,Nominal (categorical),,
Q10_HuntDays,Q8,Actual days in the field,String,Numeric,Ordinal (continuous),YYYY-MM-DD,
Q10a_HuntDays_Count,Q9,Number of days in the field estimate,String,Numeric,Ordinal (continuous),,
Q11_LandType,Q10,Land type hunted most frequently,1,Public,Nominal (categorical),,
Q11_LandType,Q10,Land type hunted most frequently,2,Private,Nominal (categorical),,
Q11_LandType,Q10,Land type hunted most frequently,3,Access Yes,Nominal (categorical),,
Q12a_Travel_Foot,Q11,Primary travel mode frequency: Walked on foot,1,Never,Ordinal (continuous),,
Q12a_Travel_Foot,Q11,Primary travel mode frequency: Walked on foot,2,Sometimes,Ordinal (continuous),,
Q12a_Travel_Foot,Q11,Primary travel mode frequency: Walked on foot,3,Always,Ordinal (continuous),,
Q12b_Travel_Horse,Q11,Primary travel mode frequency: Rode a horse,1,Never,Ordinal (continuous),,
Q12b_Travel_Horse,Q11,Primary travel mode frequency: Rode a horse,2,Sometimes,Ordinal (continuous),,
Q12b_Travel_Horse,Q11,Primary travel mode frequency: Rode a horse,3,Always,Ordinal (continuous),,
Q12c_Travel_AutoTrail,Q11,Primary travel mode frequency: Rode UTV/trail bike on trails/roads closed to full-size vehicle travel,1,Never,Ordinal (continuous),,
Q12c_Travel_AutoTrail,Q11,Primary travel mode frequency: Rode UTV/trail bike on trails/roads closed to full-size vehicle travel,2,Sometimes,Ordinal (continuous),,
Q12c_Travel_AutoTrail,Q11,Primary travel mode frequency: Rode UTV/trail bike on trails/roads closed to full-size vehicle travel,3,Always,Ordinal (continuous),,
Q12d_Travel_AutoRoad,Q11,Primary travel mode frequency: Drove vehicle along roads open to full-size vehicle travel,1,Never,Ordinal (continuous),,
Q12d_Travel_AutoRoad,Q11,Primary travel mode frequency: Drove vehicle along roads open to full-size vehicle travel,2,Sometimes,Ordinal (continuous),,
Q12d_Travel_AutoRoad,Q11,Primary travel mode frequency: Drove vehicle along roads open to full-size vehicle travel,3,Always,Ordinal (continuous),,
Q13a_Satf_Overall,Q12,Satisfaction: Your overall deer hunting experience,1,Very dissatisfied,Ordinal (continuous),,
Q13a_Satf_Overall,Q12,Satisfaction: Your overall deer hunting experience,2,Dissatisfied,Ordinal (continuous),,
Q13a_Satf_Overall,Q12,Satisfaction: Your overall deer hunting experience,3,Neither,Ordinal (continuous),,
Q13a_Satf_Overall,Q12,Satisfaction: Your overall deer hunting experience,4,Satisfied,Ordinal (continuous),,
Q13a_Satf_Overall,Q12,Satisfaction: Your overall deer hunting experience,5,Very satisfied,Ordinal (continuous),,
Q13b_Satf_BuckLegal,Q12,Satisfaction: The number of legal bucks you saw,1,Very dissatisfied,Ordinal (continuous),,
Q13b_Satf_BuckLegal,Q12,Satisfaction: The number of legal bucks you saw,2,Dissatisfied,Ordinal (continuous),,
Q13b_Satf_BuckLegal,Q12,Satisfaction: The number of legal bucks you saw,3,Neither,Ordinal (continuous),,
Q13b_Satf_BuckLegal,Q12,Satisfaction: The number of legal bucks you saw,4,Satisfied,Ordinal (continuous),,
Q13b_Satf_BuckLegal,Q12,Satisfaction: The number of legal bucks you saw,5,Very satisfied,Ordinal (continuous),,
Q13c_Satf_Trophy,Q12,Satisfaction: The number of trophy bucks you saw,1,Very dissatisfied,Ordinal (continuous),,
Q13c_Satf_Trophy,Q12,Satisfaction: The number of trophy bucks you saw,2,Dissatisfied,Ordinal (continuous),,
Q13c_Satf_Trophy,Q12,Satisfaction: The number of trophy bucks you saw,3,Neither,Ordinal (continuous),,
Q13c_Satf_Trophy,Q12,Satisfaction: The number of trophy bucks you saw,4,Satisfied,Ordinal (continuous),,
Q13c_Satf_Trophy,Q12,Satisfaction: The number of trophy bucks you saw,5,Very satisfied,Ordinal (continuous),,
Q13d_Satf_BuckAdult,Q12,Satisfaction: The number of adult bucks you saw,1,Very dissatisfied,Ordinal (continuous),,
Q13d_Satf_BuckAdult,Q12,Satisfaction: The number of adult bucks you saw,2,Dissatisfied,Ordinal (continuous),,
Q13d_Satf_BuckAdult,Q12,Satisfaction: The number of adult bucks you saw,3,Neither,Ordinal (continuous),,
Q13d_Satf_BuckAdult,Q12,Satisfaction: The number of adult bucks you saw,4,Satisfied,Ordinal (continuous),,
Q13d_Satf_BuckAdult,Q12,Satisfaction: The number of adult bucks you saw,5,Very satisfied,Ordinal (continuous),,
Q13e_Satf_Antless,Q12,Satisfaction: The number of antlerless deer you saw,1,Very dissatisfied,Ordinal (continuous),,
Q13e_Satf_Antless,Q12,Satisfaction: The number of antlerless deer you saw,2,Dissatisfied,Ordinal (continuous),,
Q13e_Satf_Antless,Q12,Satisfaction: The number of antlerless deer you saw,3,Neither,Ordinal (continuous),,
Q13e_Satf_Antless,Q12,Satisfaction: The number of antlerless deer you saw,4,Satisfied,Ordinal (continuous),,
Q13e_Satf_Antless,Q12,Satisfaction: The number of antlerless deer you saw,5,Very satisfied,Ordinal (continuous),,
Q13f_Satf_Hunters,Q12,Satisfaction: The number of other hunters you saw,1,Very dissatisfied,Ordinal (continuous),,
Q13f_Satf_Hunters,Q12,Satisfaction: The number of other hunters you saw,2,Dissatisfied,Ordinal (continuous),,
Q13f_Satf_Hunters,Q12,Satisfaction: The number of other hunters you saw,3,Neither,Ordinal (continuous),,
Q13f_Satf_Hunters,Q12,Satisfaction: The number of other hunters you saw,4,Satisfied,Ordinal (continuous),,
Q13f_Satf_Hunters,Q12,Satisfaction: The number of other hunters you saw,5,Very satisfied,Ordinal (continuous),,
Q13g_Satf_Regs,Q12,Satisfaction: The deer hunting regulations,1,Very dissatisfied,Ordinal (continuous),,
Q13g_Satf_Regs,Q12,Satisfaction: The deer hunting regulations,2,Dissatisfied,Ordinal (continuous),,
Q13g_Satf_Regs,Q12,Satisfaction: The deer hunting regulations,3,Neither,Ordinal (continuous),,
Q13g_Satf_Regs,Q12,Satisfaction: The deer hunting regulations,4,Satisfied,Ordinal (continuous),,
Q13g_Satf_Regs,Q12,Satisfaction: The deer hunting regulations,5,Very satisfied,Ordinal (continuous),,
Q14_Crowd,Q13,Perceived crowding rating,1,1 (Not at all),Ordinal (continuous),,
Q14_Crowd,Q13,Perceived crowding rating,2,2 (Not at all),Ordinal (continuous),,
Q14_Crowd,Q13,Perceived crowding rating,3,3 (Slightly),Ordinal (continuous),,
Q14_Crowd,Q13,Perceived crowding rating,4,4 (Slightly),Ordinal (continuous),,
Q14_Crowd,Q13,Perceived crowding rating,5,5 (Moderately),Ordinal (continuous),,
Q14_Crowd,Q13,Perceived crowding rating,6,6 (Moderately),Ordinal (continuous),,
Q14_Crowd,Q13,Perceived crowding rating,7,7 (Moderately),Ordinal (continuous),,
Q14_Crowd,Q13,Perceived crowding rating,8,8 (Extremely),Ordinal (continuous),,
Q14_Crowd,Q13,Perceived crowding rating,9,9 (Extremely),Ordinal (continuous),,
Q15_HuntersNumb,Q14,Perceived hunter numbers change,1,1 (Fewer hunters),Ordinal (continuous),,
Q15_HuntersNumb,Q14,Perceived hunter numbers change,2,2 (Fewer hunters),Ordinal (continuous),,
Q15_HuntersNumb,Q14,Perceived hunter numbers change,3,3 (Fewer hunters),Ordinal (continuous),,
Q15_HuntersNumb,Q14,Perceived hunter numbers change,4,4 (Fewer hunters),Ordinal (continuous),,
Q15_HuntersNumb,Q14,Perceived hunter numbers change,5,5 (No change),Ordinal (continuous),,
Q15_HuntersNumb,Q14,Perceived hunter numbers change,6,6 (More hunters),Ordinal (continuous),,
Q15_HuntersNumb,Q14,Perceived hunter numbers change,7,7 (More hunters),Ordinal (continuous),,
Q15_HuntersNumb,Q14,Perceived hunter numbers change,8,8 (More hunters),Ordinal (continuous),,
Q15_HuntersNumb,Q14,Perceived hunter numbers change,9,9 (More hunters),Ordinal (continuous),,
Q16_CrowdReason,Q15,Contributed most to the crowding,1,I don't think crowding is an issue,Nominal (categorical),,
Q16_CrowdReason,Q15,Contributed most to the crowding,2,Number of other hunters,Nominal (categorical),,
Q16_CrowdReason,Q15,Contributed most to the crowding,3,Access to hunting areas,Nominal (categorical),,
Q16a_CrowdReason,Q16,Who contributes the most to crowding,1,Other Idaho hunters,Nominal (categorical),,
Q16a_CrowdReason,Q16,Who contributes the most to crowding,2,Non-hunters using the same area,Nominal (categorical),,
Q16a_CrowdReason,Q16,Who contributes the most to crowding,3,Non-resident hunters in Idaho,Nominal (categorical),,
Q16a_CrowdReason,Q16,Who contributes the most to crowding,4,Other,Nominal (categorical),,
Q16b_CrowdReason,Q17,What contributes the most to access,1,Trail designations,Nominal (categorical),,
Q16b_CrowdReason,Q17,What contributes the most to access,2,"Environmental conditions (for example, severe weather)",Nominal (categorical),,
Q16b_CrowdReason,Q17,What contributes the most to access,3,"Personal issues (for example, physical conditioning)",Nominal (categorical),,
Q16b_CrowdReason,Q17,What contributes the most to access,4,Other,Nominal (categorical),,
Q17_HuntLocation,Q18,Difficulty hunting in preferred location (2020),1,Very difficult,Ordinal (continuous),,
Q17_HuntLocation,Q18,Difficulty hunting in preferred location (2020),2,Difficult,Ordinal (continuous),,
Q17_HuntLocation,Q18,Difficulty hunting in preferred location (2020),3,Neither,Ordinal (continuous),,
Q17_HuntLocation,Q18,Difficulty hunting in preferred location (2020),4,Easy,Ordinal (continuous),,
Q17_HuntLocation,Q18,Difficulty hunting in preferred location (2020),5,Very easy,Ordinal (continuous),,
Q18_HuntEncounter,Q19,Encounter other hunters (2020),1,Never,Ordinal (continuous),,
Q18_HuntEncounter,Q19,Encounter other hunters (2020),2,Seldom,Ordinal (continuous),,
Q18_HuntEncounter,Q19,Encounter other hunters (2020),3,About half the time,Ordinal (continuous),,
Q18_HuntEncounter,Q19,Encounter other hunters (2020),4,Most of the time,Ordinal (continuous),,
Q18_HuntEncounter,Q19,Encounter other hunters (2020),5,Always,Ordinal (continuous),,
Q19_HuntDisplace,Q20,Displacement experienced (2020),1,Never,Ordinal (continuous),,
Q19_HuntDisplace,Q20,Displacement experienced (2020),2,Seldom,Ordinal (continuous),,
Q19_HuntDisplace,Q20,Displacement experienced (2020),3,About half the time,Ordinal (continuous),,
Q19_HuntDisplace,Q20,Displacement experienced (2020),4,Most of the time,Ordinal (continuous),,
Q19_HuntDisplace,Q20,Displacement experienced (2020),5,Always,Ordinal (continuous),,
Q20a_Expect_Park,Q21,Hunter numbers expected: At the parking area,1,0 hunters,Nominal (categorical),,
Q20a_Expect_Park,Q21,Hunter numbers expected: At the parking area,2,1-5 hunters,Nominal (categorical),,
Q20a_Expect_Park,Q21,Hunter numbers expected: At the parking area,3,6-10 hunters,Nominal (categorical),,
Q20a_Expect_Park,Q21,Hunter numbers expected: At the parking area,4,10-30 hunters,Nominal (categorical),,
Q20a_Expect_Park,Q21,Hunter numbers expected: At the parking area,5,30+ hunters,Nominal (categorical),,
Q20b_Expect_Trailhead,Q21,Hunter numbers expected: At the trailhead,1,0 hunters,Nominal (categorical),,
Q20b_Expect_Trailhead,Q21,Hunter numbers expected: At the trailhead,2,1-5 hunters,Nominal (categorical),,
Q20b_Expect_Trailhead,Q21,Hunter numbers expected: At the trailhead,3,6-10 hunters,Nominal (categorical),,
Q20b_Expect_Trailhead,Q21,Hunter numbers expected: At the trailhead,4,10-30 hunters,Nominal (categorical),,
Q20b_Expect_Trailhead,Q21,Hunter numbers expected: At the trailhead,5,30+ hunters,Nominal (categorical),,
Q20c_Expect_Trail,Q21,Hunter numbers expected: On the trail,1,0 hunters,Nominal (categorical),,
Q20c_Expect_Trail,Q21,Hunter numbers expected: On the trail,2,1-5 hunters,Nominal (categorical),,
Q20c_Expect_Trail,Q21,Hunter numbers expected: On the trail,3,6-10 hunters,Nominal (categorical),,
Q20c_Expect_Trail,Q21,Hunter numbers expected: On the trail,4,10-30 hunters,Nominal (categorical),,
Q20c_Expect_Trail,Q21,Hunter numbers expected: On the trail,5,30+ hunters,Nominal (categorical),,
Q20d_Expect_Field,Q21,Hunter numbers expected: In the field,1,0 hunters,Nominal (categorical),,
Q20d_Expect_Field,Q21,Hunter numbers expected: In the field,2,1-5 hunters,Nominal (categorical),,
Q20d_Expect_Field,Q21,Hunter numbers expected: In the field,3,6-10 hunters,Nominal (categorical),,
Q20d_Expect_Field,Q21,Hunter numbers expected: In the field,4,10-30 hunters,Nominal (categorical),,
Q20d_Expect_Field,Q21,Hunter numbers expected: In the field,5,30+ hunters,Nominal (categorical),,
Q20e_Expect_Hunt,Q21,Hunter numbers expected: At my preferred hunting spot,1,0 hunters,Nominal (categorical),,
Q20e_Expect_Hunt,Q21,Hunter numbers expected: At my preferred hunting spot,2,1-5 hunters,Nominal (categorical),,
Q20e_Expect_Hunt,Q21,Hunter numbers expected: At my preferred hunting spot,3,6-10 hunters,Nominal (categorical),,
Q20e_Expect_Hunt,Q21,Hunter numbers expected: At my preferred hunting spot,4,10-30 hunters,Nominal (categorical),,
Q20e_Expect_Hunt,Q21,Hunter numbers expected: At my preferred hunting spot,5,30+ hunters,Nominal (categorical),,
Q21a_Actual_Park,Q22,Hunter numbers actual: At the parking area,1,0 hunters,Nominal (categorical),,
Q21a_Actual_Park,Q22,Hunter numbers actual: At the parking area,2,1-5 hunters,Nominal (categorical),,
Q21a_Actual_Park,Q22,Hunter numbers actual: At the parking area,3,6-10 hunters,Nominal (categorical),,
Q21a_Actual_Park,Q22,Hunter numbers actual: At the parking area,4,10-30 hunters,Nominal (categorical),,
Q21a_Actual_Park,Q22,Hunter numbers actual: At the parking area,5,30+ hunters,Nominal (categorical),,
Q21b_Actual_Trailhead,Q22,Hunter numbers actual: At the trailhead,1,0 hunters,Nominal (categorical),,
Q21b_Actual_Trailhead,Q22,Hunter numbers actual: At the trailhead,2,1-5 hunters,Nominal (categorical),,
Q21b_Actual_Trailhead,Q22,Hunter numbers actual: At the trailhead,3,6-10 hunters,Nominal (categorical),,
Q21b_Actual_Trailhead,Q22,Hunter numbers actual: At the trailhead,4,10-30 hunters,Nominal (categorical),,
Q21b_Actual_Trailhead,Q22,Hunter numbers actual: At the trailhead,5,30+ hunters,Nominal (categorical),,
Q21c_Actual_Trail,Q22,Hunter numbers actual: On the trail,1,0 hunters,Nominal (categorical),,
Q21c_Actual_Trail,Q22,Hunter numbers actual: On the trail,2,1-5 hunters,Nominal (categorical),,
Q21c_Actual_Trail,Q22,Hunter numbers actual: On the trail,3,6-10 hunters,Nominal (categorical),,
Q21c_Actual_Trail,Q22,Hunter numbers actual: On the trail,4,10-30 hunters,Nominal (categorical),,
Q21c_Actual_Trail,Q22,Hunter numbers actual: On the trail,5,30+ hunters,Nominal (categorical),,
Q21d_Actual_Field,Q22,Hunter numbers actual: In the field,1,0 hunters,Nominal (categorical),,
Q21d_Actual_Field,Q22,Hunter numbers actual: In the field,2,1-5 hunters,Nominal (categorical),,
Q21d_Actual_Field,Q22,Hunter numbers actual: In the field,3,6-10 hunters,Nominal (categorical),,
Q21d_Actual_Field,Q22,Hunter numbers actual: In the field,4,10-30 hunters,Nominal (categorical),,
Q21d_Actual_Field,Q22,Hunter numbers actual: In the field,5,30+ hunters,Nominal (categorical),,
Q21e_Actual_Hunt,Q22,Hunter numbers actual: At my preferred hunting spot,1,0 hunters,Nominal (categorical),,
Q21e_Actual_Hunt,Q22,Hunter numbers actual: At my preferred hunting spot,2,1-5 hunters,Nominal (categorical),,
Q21e_Actual_Hunt,Q22,Hunter numbers actual: At my preferred hunting spot,3,6-10 hunters,Nominal (categorical),,
Q21e_Actual_Hunt,Q22,Hunter numbers actual: At my preferred hunting spot,4,10-30 hunters,Nominal (categorical),,
Q21e_Actual_Hunt,Q22,Hunter numbers actual: At my preferred hunting spot,5,30+ hunters,Nominal (categorical),,
Q22_HuntSuccess,Q23,Harvest success (Idaho),1,Much worse,Ordinal (continuous),,
Q22_HuntSuccess,Q23,Harvest success (Idaho),2,Worse,Ordinal (continuous),,
Q22_HuntSuccess,Q23,Harvest success (Idaho),3,No change,Ordinal (continuous),,
Q22_HuntSuccess,Q23,Harvest success (Idaho),4,Better,Ordinal (continuous),,
Q22_HuntSuccess,Q23,Harvest success (Idaho),5,Much better,Ordinal (continuous),,
Q23_HuntSatf,Q24,Hunt satisfaction (Idaho),1,Very dissatisfied,Ordinal (continuous),,
Q23_HuntSatf,Q24,Hunt satisfaction (Idaho),2,Dissatisfied,Ordinal (continuous),,
Q23_HuntSatf,Q24,Hunt satisfaction (Idaho),3,Neither,Ordinal (continuous),,
Q23_HuntSatf,Q24,Hunt satisfaction (Idaho),4,Satisfied,Ordinal (continuous),,
Q23_HuntSatf,Q24,Hunt satisfaction (Idaho),5,Very satisfied,Ordinal (continuous),,
Q23a_Access_Public,Q25,Public access change (Idaho),1,Much less access,Ordinal (continuous),,
Q23a_Access_Public,Q25,Public access change (Idaho),2,Less access,Ordinal (continuous),,
Q23a_Access_Public,Q25,Public access change (Idaho),3,No change,Ordinal (continuous),,
Q23a_Access_Public,Q25,Public access change (Idaho),4,More access,Ordinal (continuous),,
Q23a_Access_Public,Q25,Public access change (Idaho),5,Much more access,Ordinal (continuous),,
Q23b_Access_Private,Q26,Private access change (Idaho),1,Much less access,Ordinal (continuous),,
Q23b_Access_Private,Q26,Private access change (Idaho),2,Less access,Ordinal (continuous),,
Q23b_Access_Private,Q26,Private access change (Idaho),3,No change,Ordinal (continuous),,
Q23b_Access_Private,Q26,Private access change (Idaho),4,More access,Ordinal (continuous),,
Q23b_Access_Private,Q26,Private access change (Idaho),5,Much more access,Ordinal (continuous),,
Q24a_Import_BuckLegal_See,Q27,Importance: Seeing legal bucks in the field,1,Not at all important,Ordinal (continuous),,
Q24a_Import_BuckLegal_See,Q27,Importance: Seeing legal bucks in the field,2,Slightly important,Ordinal (continuous),,
Q24a_Import_BuckLegal_See,Q27,Importance: Seeing legal bucks in the field,3,Moderately important,Ordinal (continuous),,
Q24a_Import_BuckLegal_See,Q27,Importance: Seeing legal bucks in the field,4,Very important,Ordinal (continuous),,
Q24a_Import_BuckLegal_See,Q27,Importance: Seeing legal bucks in the field,5,Extremely important,Ordinal (continuous),,
Q24b_Import_Antless_See,Q27,Importance: Seeing antlerless deer in the field,1,Not at all important,Ordinal (continuous),,
Q24b_Import_Antless_See,Q27,Importance: Seeing antlerless deer in the field,2,Slightly important,Ordinal (continuous),,
Q24b_Import_Antless_See,Q27,Importance: Seeing antlerless deer in the field,3,Moderately important,Ordinal (continuous),,
Q24b_Import_Antless_See,Q27,Importance: Seeing antlerless deer in the field,4,Very important,Ordinal (continuous),,
Q24b_Import_Antless_See,Q27,Importance: Seeing antlerless deer in the field,5,Extremely important,Ordinal (continuous),,
Q24c_Import_Trophy_See,Q27,Importance: Seeing trophy bucks in the field,1,Not at all important,Ordinal (continuous),,
Q24c_Import_Trophy_See,Q27,Importance: Seeing trophy bucks in the field,2,Slightly important,Ordinal (continuous),,
Q24c_Import_Trophy_See,Q27,Importance: Seeing trophy bucks in the field,3,Moderately important,Ordinal (continuous),,
Q24c_Import_Trophy_See,Q27,Importance: Seeing trophy bucks in the field,4,Very important,Ordinal (continuous),,
Q24c_Import_Trophy_See,Q27,Importance: Seeing trophy bucks in the field,5,Extremely important,Ordinal (continuous),,
Q24d_Import_BuckLegal_Shoot,Q27,Importance: Shooting at a legal bucks,1,Not at all important,Ordinal (continuous),,
Q24d_Import_BuckLegal_Shoot,Q27,Importance: Shooting at a legal bucks,2,Slightly important,Ordinal (continuous),,
Q24d_Import_BuckLegal_Shoot,Q27,Importance: Shooting at a legal bucks,3,Moderately important,Ordinal (continuous),,
Q24d_Import_BuckLegal_Shoot,Q27,Importance: Shooting at a legal bucks,4,Very important,Ordinal (continuous),,
Q24d_Import_BuckLegal_Shoot,Q27,Importance: Shooting at a legal bucks,5,Extremely important,Ordinal (continuous),,
Q24e_Import_BuckAdult_Shoot,Q27,Importance: Shooting at adult bucks,1,Not at all important,Ordinal (continuous),,
Q24e_Import_BuckAdult_Shoot,Q27,Importance: Shooting at adult bucks,2,Slightly important,Ordinal (continuous),,
Q24e_Import_BuckAdult_Shoot,Q27,Importance: Shooting at adult bucks,3,Moderately important,Ordinal (continuous),,
Q24e_Import_BuckAdult_Shoot,Q27,Importance: Shooting at adult bucks,4,Very important,Ordinal (continuous),,
Q24e_Import_BuckAdult_Shoot,Q27,Importance: Shooting at adult bucks,5,Extremely important,Ordinal (continuous),,
Q24f_Import_Trophy_Shoot,Q27,Importance: Shooting at trophy bucks,1,Not at all important,Ordinal (continuous),,
Q24f_Import_Trophy_Shoot,Q27,Importance: Shooting at trophy bucks,2,Slightly important,Ordinal (continuous),,
Q24f_Import_Trophy_Shoot,Q27,Importance: Shooting at trophy bucks,3,Moderately important,Ordinal (continuous),,
Q24f_Import_Trophy_Shoot,Q27,Importance: Shooting at trophy bucks,4,Very important,Ordinal (continuous),,
Q24f_Import_Trophy_Shoot,Q27,Importance: Shooting at trophy bucks,5,Extremely important,Ordinal (continuous),,
Q24g_Import_FillTag,Q27,Importance: Filling my tag,1,Not at all important,Ordinal (continuous),,
Q24g_Import_FillTag,Q27,Importance: Filling my tag,2,Slightly important,Ordinal (continuous),,
Q24g_Import_FillTag,Q27,Importance: Filling my tag,3,Moderately important,Ordinal (continuous),,
Q24g_Import_FillTag,Q27,Importance: Filling my tag,4,Very important,Ordinal (continuous),,
Q24g_Import_FillTag,Q27,Importance: Filling my tag,5,Extremely important,Ordinal (continuous),,
Q25a_Actual_BuckLegal_See,Q28,Actualization: Saw legal bucks in the field,1,Not at all,Ordinal (continuous),,
Q25a_Actual_BuckLegal_See,Q28,Actualization: Saw legal bucks in the field,2,Slightly,Ordinal (continuous),,
Q25a_Actual_BuckLegal_See,Q28,Actualization: Saw legal bucks in the field,3,Somewhat,Ordinal (continuous),,
Q25a_Actual_BuckLegal_See,Q28,Actualization: Saw legal bucks in the field,4,Mostly,Ordinal (continuous),,
Q25a_Actual_BuckLegal_See,Q28,Actualization: Saw legal bucks in the field,5,Very much,Ordinal (continuous),,
Q25b_Actual_Antless_See,Q28,Actualization: Saw antlerless deer in the field,1,Not at all,Ordinal (continuous),,
Q25b_Actual_Antless_See,Q28,Actualization: Saw antlerless deer in the field,2,Slightly,Ordinal (continuous),,
Q25b_Actual_Antless_See,Q28,Actualization: Saw antlerless deer in the field,3,Somewhat,Ordinal (continuous),,
Q25b_Actual_Antless_See,Q28,Actualization: Saw antlerless deer in the field,4,Mostly,Ordinal (continuous),,
Q25b_Actual_Antless_See,Q28,Actualization: Saw antlerless deer in the field,5,Very much,Ordinal (continuous),,
Q25c_Actual_Trophy_See,Q28,Actualization: Saw trophy bucks in the field,1,Not at all,Ordinal (continuous),,
Q25c_Actual_Trophy_See,Q28,Actualization: Saw trophy bucks in the field,2,Slightly,Ordinal (continuous),,
Q25c_Actual_Trophy_See,Q28,Actualization: Saw trophy bucks in the field,3,Somewhat,Ordinal (continuous),,
Q25c_Actual_Trophy_See,Q28,Actualization: Saw trophy bucks in the field,4,Mostly,Ordinal (continuous),,
Q25c_Actual_Trophy_See,Q28,Actualization: Saw trophy bucks in the field,5,Very much,Ordinal (continuous),,
Q25d_Actual_BuckLegal_Shoot,Q28,Actualization: Shot at a legal bucks,1,Not at all,Ordinal (continuous),,
Q25d_Actual_BuckLegal_Shoot,Q28,Actualization: Shot at a legal bucks,2,Slightly,Ordinal (continuous),,
Q25d_Actual_BuckLegal_Shoot,Q28,Actualization: Shot at a legal bucks,3,Somewhat,Ordinal (continuous),,
Q25d_Actual_BuckLegal_Shoot,Q28,Actualization: Shot at a legal bucks,4,Mostly,Ordinal (continuous),,
Q25d_Actual_BuckLegal_Shoot,Q28,Actualization: Shot at a legal bucks,5,Very much,Ordinal (continuous),,
Q25e_Actual_BuckAdult_Shoot,Q28,Actualization: Shot at adult bucks,1,Not at all,Ordinal (continuous),,
Q25e_Actual_BuckAdult_Shoot,Q28,Actualization: Shot at adult bucks,2,Slightly,Ordinal (continuous),,
Q25e_Actual_BuckAdult_Shoot,Q28,Actualization: Shot at adult bucks,3,Somewhat,Ordinal (continuous),,
Q25e_Actual_BuckAdult_Shoot,Q28,Actualization: Shot at adult bucks,4,Mostly,Ordinal (continuous),,
Q25e_Actual_BuckAdult_Shoot,Q28,Actualization: Shot at adult bucks,5,Very much,Ordinal (continuous),,
Q25f_Actual_Trophy_Shoot,Q28,Actualization: Shot at trophy bucks,1,Not at all,Ordinal (continuous),,
Q25f_Actual_Trophy_Shoot,Q28,Actualization: Shot at trophy bucks,2,Slightly,Ordinal (continuous),,
Q25f_Actual_Trophy_Shoot,Q28,Actualization: Shot at trophy bucks,3,Somewhat,Ordinal (continuous),,
Q25f_Actual_Trophy_Shoot,Q28,Actualization: Shot at trophy bucks,4,Mostly,Ordinal (continuous),,
Q25f_Actual_Trophy_Shoot,Q28,Actualization: Shot at trophy bucks,5,Very much,Ordinal (continuous),,
Q25g_Actual_FillTag,Q28,Actualization: Filled my tag,1,Not at all,Ordinal (continuous),,
Q25g_Actual_FillTag,Q28,Actualization: Filled my tag,2,Slightly,Ordinal (continuous),,
Q25g_Actual_FillTag,Q28,Actualization: Filled my tag,3,Somewhat,Ordinal (continuous),,
Q25g_Actual_FillTag,Q28,Actualization: Filled my tag,4,Mostly,Ordinal (continuous),,
Q25g_Actual_FillTag,Q28,Actualization: Filled my tag,5,Very much,Ordinal (continuous),,
Q26a_HuntSensitive,Q29,Agreement: I am sensitive to the presence of other hunters,1,Strongly disagree,Ordinal (continuous),,
Q26a_HuntSensitive,Q29,Agreement: I am sensitive to the presence of other hunters,2,Disagree,Ordinal (continuous),,
Q26a_HuntSensitive,Q29,Agreement: I am sensitive to the presence of other hunters,3,Neither,Ordinal (continuous),,
Q26a_HuntSensitive,Q29,Agreement: I am sensitive to the presence of other hunters,4,Agree,Ordinal (continuous),,
Q26a_HuntSensitive,Q29,Agreement: I am sensitive to the presence of other hunters,5,Strongly agree,Ordinal (continuous),,
Q26b_HuntSensitive,Q29,Agreement: I do not like other hunters to see me,1,Strongly disagree,Ordinal (continuous),,
Q26b_HuntSensitive,Q29,Agreement: I do not like other hunters to see me,2,Disagree,Ordinal (continuous),,
Q26b_HuntSensitive,Q29,Agreement: I do not like other hunters to see me,3,Neither,Ordinal (continuous),,
Q26b_HuntSensitive,Q29,Agreement: I do not like other hunters to see me,4,Agree,Ordinal (continuous),,
Q26b_HuntSensitive,Q29,Agreement: I do not like other hunters to see me,5,Strongly agree,Ordinal (continuous),,
Q26c_HuntSensitive,Q29,Agreement: Other hunters annoy me,1,Strongly disagree,Ordinal (continuous),,
Q26c_HuntSensitive,Q29,Agreement: Other hunters annoy me,2,Disagree,Ordinal (continuous),,
Q26c_HuntSensitive,Q29,Agreement: Other hunters annoy me,3,Neither,Ordinal (continuous),,
Q26c_HuntSensitive,Q29,Agreement: Other hunters annoy me,4,Agree,Ordinal (continuous),,
Q26c_HuntSensitive,Q29,Agreement: Other hunters annoy me,5,Strongly agree,Ordinal (continuous),,
Q26d_HuntSensitive,Q29,Agreement: I do not like to see other hunters,1,Strongly disagree,Ordinal (continuous),,
Q26d_HuntSensitive,Q29,Agreement: I do not like to see other hunters,2,Disagree,Ordinal (continuous),,
Q26d_HuntSensitive,Q29,Agreement: I do not like to see other hunters,3,Neither,Ordinal (continuous),,
Q26d_HuntSensitive,Q29,Agreement: I do not like to see other hunters,4,Agree,Ordinal (continuous),,
Q26d_HuntSensitive,Q29,Agreement: I do not like to see other hunters,5,Strongly agree,Ordinal (continuous),,
Q26e_HuntSensitive,Q29,Agreement: My experience is ruined if I see other hunters,1,Strongly disagree,Ordinal (continuous),,
Q26e_HuntSensitive,Q29,Agreement: My experience is ruined if I see other hunters,2,Disagree,Ordinal (continuous),,
Q26e_HuntSensitive,Q29,Agreement: My experience is ruined if I see other hunters,3,Neither,Ordinal (continuous),,
Q26e_HuntSensitive,Q29,Agreement: My experience is ruined if I see other hunters,4,Agree,Ordinal (continuous),,
Q26e_HuntSensitive,Q29,Agreement: My experience is ruined if I see other hunters,5,Strongly agree,Ordinal (continuous),,
Q26f_HuntSensitive,Q29,Agreement: I do not like to interact with other hunters in anyway,1,Strongly disagree,Ordinal (continuous),,
Q26f_HuntSensitive,Q29,Agreement: I do not like to interact with other hunters in anyway,2,Disagree,Ordinal (continuous),,
Q26f_HuntSensitive,Q29,Agreement: I do not like to interact with other hunters in anyway,3,Neither,Ordinal (continuous),,
Q26f_HuntSensitive,Q29,Agreement: I do not like to interact with other hunters in anyway,4,Agree,Ordinal (continuous),,
Q26f_HuntSensitive,Q29,Agreement: I do not like to interact with other hunters in anyway,5,Strongly agree,Ordinal (continuous),,
Q27a_Trust_Issue,Q30,Trust: Effectively manage white-tailed deer hunter crowding in Idaho,1,Strongly disagree,Ordinal (continuous),,
Q27a_Trust_Issue,Q30,Trust: Effectively manage white-tailed deer hunter crowding in Idaho,2,Disagree,Ordinal (continuous),,
Q27a_Trust_Issue,Q30,Trust: Effectively manage white-tailed deer hunter crowding in Idaho,3,Neither,Ordinal (continuous),,
Q27a_Trust_Issue,Q30,Trust: Effectively manage white-tailed deer hunter crowding in Idaho,4,Agree,Ordinal (continuous),,
Q27a_Trust_Issue,Q30,Trust: Effectively manage white-tailed deer hunter crowding in Idaho,5,Strongly agree,Ordinal (continuous),,
Q27b_Trust_Issue,Q30,Trust: Respond to white-tailed deer hunter crowding issues in Idaho,1,Strongly disagree,Ordinal (continuous),,
Q27b_Trust_Issue,Q30,Trust: Respond to white-tailed deer hunter crowding issues in Idaho,2,Disagree,Ordinal (continuous),,
Q27b_Trust_Issue,Q30,Trust: Respond to white-tailed deer hunter crowding issues in Idaho,3,Neither,Ordinal (continuous),,
Q27b_Trust_Issue,Q30,Trust: Respond to white-tailed deer hunter crowding issues in Idaho,4,Agree,Ordinal (continuous),,
Q27b_Trust_Issue,Q30,Trust: Respond to white-tailed deer hunter crowding issues in Idaho,5,Strongly agree,Ordinal (continuous),,
Q27c_Trust_Issue,Q30,Trust: Make good management decisions regarding white-tailed deer hunter crowding issues in Idaho,1,Strongly disagree,Ordinal (continuous),,
Q27c_Trust_Issue,Q30,Trust: Make good management decisions regarding white-tailed deer hunter crowding issues in Idaho,2,Disagree,Ordinal (continuous),,
Q27c_Trust_Issue,Q30,Trust: Make good management decisions regarding white-tailed deer hunter crowding issues in Idaho,3,Neither,Ordinal (continuous),,
Q27c_Trust_Issue,Q30,Trust: Make good management decisions regarding white-tailed deer hunter crowding issues in Idaho,4,Agree,Ordinal (continuous),,
Q27c_Trust_Issue,Q30,Trust: Make good management decisions regarding white-tailed deer hunter crowding issues in Idaho,5,Strongly agree,Ordinal (continuous),,
Q27d_Trust_Issue,Q30,Trust: Properly address white-tailed deer hunter crowding issues in Idaho,1,Strongly disagree,Ordinal (continuous),,
Q27d_Trust_Issue,Q30,Trust: Properly address white-tailed deer hunter crowding issues in Idaho,2,Disagree,Ordinal (continuous),,
Q27d_Trust_Issue,Q30,Trust: Properly address white-tailed deer hunter crowding issues in Idaho,3,Neither,Ordinal (continuous),,
Q27d_Trust_Issue,Q30,Trust: Properly address white-tailed deer hunter crowding issues in Idaho,4,Agree,Ordinal (continuous),,
Q27d_Trust_Issue,Q30,Trust: Properly address white-tailed deer hunter crowding issues in Idaho,5,Strongly agree,Ordinal (continuous),,
Q28a_Trust_Info,Q31,Trust: The best available information on white-tailed deer hunter crowding issues,1,Strongly disagree,Ordinal (continuous),,
Q28a_Trust_Info,Q31,Trust: The best available information on white-tailed deer hunter crowding issues,2,Disagree,Ordinal (continuous),,
Q28a_Trust_Info,Q31,Trust: The best available information on white-tailed deer hunter crowding issues,3,Neither,Ordinal (continuous),,
Q28a_Trust_Info,Q31,Trust: The best available information on white-tailed deer hunter crowding issues,4,Agree,Ordinal (continuous),,
Q28a_Trust_Info,Q31,Trust: The best available information on white-tailed deer hunter crowding issues,5,Strongly agree,Ordinal (continuous),,
Q28b_Trust_Info,Q31,Trust: Enough information to decide what actions I should take regarding hunter crowding,1,Strongly disagree,Ordinal (continuous),,
Q28b_Trust_Info,Q31,Trust: Enough information to decide what actions I should take regarding hunter crowding,2,Disagree,Ordinal (continuous),,
Q28b_Trust_Info,Q31,Trust: Enough information to decide what actions I should take regarding hunter crowding,3,Neither,Ordinal (continuous),,
Q28b_Trust_Info,Q31,Trust: Enough information to decide what actions I should take regarding hunter crowding,4,Agree,Ordinal (continuous),,
Q28b_Trust_Info,Q31,Trust: Enough information to decide what actions I should take regarding hunter crowding,5,Strongly agree,Ordinal (continuous),,
Q28c_Trust_Info,Q31,Trust: Truthful information about issues related to white-tailed deer hunter crowding,1,Strongly disagree,Ordinal (continuous),,
Q28c_Trust_Info,Q31,Trust: Truthful information about issues related to white-tailed deer hunter crowding,2,Disagree,Ordinal (continuous),,
Q28c_Trust_Info,Q31,Trust: Truthful information about issues related to white-tailed deer hunter crowding,3,Neither,Ordinal (continuous),,
Q28c_Trust_Info,Q31,Trust: Truthful information about issues related to white-tailed deer hunter crowding,4,Agree,Ordinal (continuous),,
Q28c_Trust_Info,Q31,Trust: Truthful information about issues related to white-tailed deer hunter crowding,5,Strongly agree,Ordinal (continuous),,
Q28d_Trust_Info,Q31,Trust: Timely information regarding white-tailed deer hunter crowding issues,1,Strongly disagree,Ordinal (continuous),,
Q28d_Trust_Info,Q31,Trust: Timely information regarding white-tailed deer hunter crowding issues,2,Disagree,Ordinal (continuous),,
Q28d_Trust_Info,Q31,Trust: Timely information regarding white-tailed deer hunter crowding issues,3,Neither,Ordinal (continuous),,
Q28d_Trust_Info,Q31,Trust: Timely information regarding white-tailed deer hunter crowding issues,4,Agree,Ordinal (continuous),,
Q28d_Trust_Info,Q31,Trust: Timely information regarding white-tailed deer hunter crowding issues,5,Strongly agree,Ordinal (continuous),,
Q29_GradeIDFG,Q32,Grade IDFG for its handling of elk hunter crowding in Idaho,0,F,Ordinal (continuous),,
Q29_GradeIDFG,Q32,Grade IDFG for its handling of elk hunter crowding in Idaho,1,D,Ordinal (continuous),,
Q29_GradeIDFG,Q32,Grade IDFG for its handling of elk hunter crowding in Idaho,2,C,Ordinal (continuous),,
Q29_GradeIDFG,Q32,Grade IDFG for its handling of elk hunter crowding in Idaho,3,B,Ordinal (continuous),,
Q29_GradeIDFG,Q32,Grade IDFG for its handling of elk hunter crowding in Idaho,4,A,Ordinal (continuous),,
Q1_Tag,S1,Tag purchase,0,No,Nominal (categorical),,
Q1_Tag,S1,Tag purchase,1,Yes,Nominal (categorical),,
Q2_Tag2,S2,Second tag purchase,0,No,Nominal (categorical),,
Q2_Tag2,S2,Second tag purchase,1,"Yes, regular deer tag",Nominal (categorical),,
Q2_Tag2,S2,Second tag purchase,2,"Yes, white-tailed deer tag",Nominal (categorical),,
Q3_Age18,S3,Are you over the age of 18?,0,No,Nominal (categorical),,
Q3_Age18,S3,Are you over the age of 18?,1,Yes,Nominal (categorical),,
Q30_Age,SD1,Age (years),String,Numeric,Ordinal (continuous),,
AgeCat,,Age group classification,1,18-24 years old,NA,NA,
AgeCat,,Age group classification,2,25-34 years old,NA,NA,
AgeCat,,Age group classification,3,35-44 years old,NA,NA,
AgeCat,,Age group classification,4,45-54 years old,NA,NA,
AgeCat,,Age group classification,5,55-64 years old,NA,NA,
AgeCat,,Age group classification,6,65-74 years old,NA,NA,
AgeCat,,Age group classification,7,75+ years old,NA,NA,
Q31_Resident,SD2,Idaho residency length (years),String,Numeric,Ordinal (continuous),,
Q32_Gender,SD3,Gender,0,Female,Nominal (categorical),,
Q32_Gender,SD3,Gender,1,Male,Nominal (categorical),,
Q32_Gender,SD3,Gender,3,Other,Nominal (categorical),,
Q33_Ethnic,SD4,Ethnicity,1,Asian,Nominal (categorical),,
Q33_Ethnic,SD4,Ethnicity,2,Black (or African American),Nominal (categorical),,
Q33_Ethnic,SD4,Ethnicity,3,Hispanic (or Latino),Nominal (categorical),,
Q33_Ethnic,SD4,Ethnicity,4,Indigenous (Native American or Native Alaskan),Nominal (categorical),,
Q33_Ethnic,SD4,Ethnicity,5,Native Hawiian (or other Pacific Islander),Nominal (categorical),,
Q33_Ethnic,SD4,Ethnicity,6,White (or Caucasian),Nominal (categorical),,
Q33_Ethnic,SD4,Ethnicity,7,Don't know,Nominal (categorical),,
Q33_Ethnic,SD4,Ethnicity,8,Other,Nominal (categorical),,
Q34_Edu,SD5,Education,1,Less than high school,Nominal (categorical),,
Q34_Edu,SD5,Education,2,High school graduate of GED,Nominal (categorical),,
Q34_Edu,SD5,Education,3,Two-year college degree,Nominal (categorical),,
Q34_Edu,SD5,Education,4,Four-year college degree,Nominal (categorical),,
Q34_Edu,SD5,Education,5,Vocational or trade school certification,Nominal (categorical),,
Q34_Edu,SD5,Education,6,Graduate degree,Nominal (categorical),,
Q35_Income,SD6,Income,1,Less than 25k,Nominal (categorical),,
Q35_Income,SD6,Income,2,25-49k,Nominal (categorical),,
Q35_Income,SD6,Income,3,50-74k,Nominal (categorical),,
Q35_Income,SD6,Income,4,75-99k,Nominal (categorical),,
Q35_Income,SD6,Income,5,100-149k,Nominal (categorical),,
Q35_Income,SD6,Income,6,150-199k,Nominal (categorical),,
Q35_Income,SD6,Income,7,Greater than 200k,Nominal (categorical),,
Q36_Employ,SD7,Employment status,1,Full-time,Nominal (categorical),,
Q36_Employ,SD7,Employment status,2,Part-time,Nominal (categorical),,
Q36_Employ,SD7,Employment status,3,Temporary,Nominal (categorical),,
Q36_Employ,SD7,Employment status,4,Unemployed,Nominal (categorical),,
Q36_Employ,SD7,Employment status,5,Retired,Nominal (categorical),,
Q36_Employ,SD7,Employment status,6,Disabled,Nominal (categorical),,
Q37_Politics,SD7,Political views,1,Very liberal,Nominal (categorical),,
Q37_Politics,SD7,Political views,2,Liberal,Nominal (categorical),,
Q37_Politics,SD7,Political views,3,Moderate,Nominal (categorical),,
Q37_Politics,SD7,Political views,4,Conservative,Nominal (categorical),,
Q37_Politics,SD7,Political views,5,Very conservative,Nominal (categorical),,
Q37_Politics,SD7,Political views,6,Don't know,Nominal (categorical),,
Q37_Politics,SD7,Political views,7,Other,Nominal (categorical),,
Q38_Rprt,R1,Receive survey results,0,No,Nominal (categorical),,
Q38_Rprt,R1,Receive survey results,1,Yes,Nominal (categorical),,
Q38_Rprt_Email,,n/a,String,Text,Nominal (categorical),user@domain,
Start,,Participant survey start date and time,String,Text,Nominal (categorical),dd-mm-yyyy hh:mm:ss,
End,,Participant survey end date and time,String,Text,Nominal (categorical),dd-mm-yyyy hh:mm:ss,
Progress,,Participant survey progress percentage,String,Numeric,Ordinal (continuous),,
Duration,,Participant survey duration,String,Numeric,Ordinal (continuous),,
Finish,,Participant finished survey,0,FALSE,Nominal (categorical),,
Finish,,Participant finished survey,1,TRUE,Nominal (categorical),,
Lat,,Latitude of participant survey completion location,String,Numeric,Ordinal (continuous),,
Lon,,Longitude of participant survey completion location,String,Numeric,Ordinal (continuous),,
SportID,,IDFG sportsman identification number,String,Numeric,Nominal (categorical),,
Weight_State,,Sampel weight based on avergae age of population within Idaho,String,Numeric,Nominal (categorical),,
Zip,,Zip code,String,,Nominal (categorical),Based on contact address,
Weight_Strata,,Sample weight based on average age of population within IDFG administrative region,String,Numeric,Nominal (categorical),,
Region,,Region (sample strata),1,Panhandle,Nominal (categorical),Based on contact address,
Region,,Region (sample strata),2,Clearwater,Nominal (categorical),Based on contact address,
Region,,Region (sample strata),3,Southwest,Nominal (categorical),Based on contact address,
Region,,Region (sample strata),4,Magic Valley,Nominal (categorical),Based on contact address,
Region,,Region (sample strata),5,Southeast,Nominal (categorical),Based on contact address,
Region,,Region (sample strata),6,Upper Snake,Nominal (categorical),Based on contact address,
Region,,Region (sample strata),7,Salmon,Nominal (categorical),Based on contact address,
