﻿Q6_abnd,Q7_satf,Q8_land_publ,Q8_land_prvt,Q8_land_unk,Q9_trap_foot,Q9_trap_body,Q9_trap_snare,Q9_trap_cage,Q9_trap_other,Q10_length,Q11_date_start_month,Q11_date_start_day,Q11_date_end_month,Q11_date_end_day,Q11_no_op,Rank
3,3,100,-99,-99,85,-99,15,-99,-99,1,11,1,3,1,0,1
3,3,100,-99,-99,100,-99,-99,-99,-99,1,12,15,2,28,0,1
2,2,100,-99,-99,100,-99,-99,-99,-99,1,12,14,2,30,0,1
2,2,75,25,-99,100,-99,-99,-99,-99,2,-99,-99,-99,-99,1,1
3,3,70,20,-99,100,-99,-99,-99,-99,1,-99,-99,-99,-99,1,1
3,3,-99,100,-99,90,-99,10,-99,-99,2,-99,-99,-99,-99,1,1
3,1,70,-99,30,100,-99,-99,-99,-99,2,-99,-99,-99,-99,1,1
3,4,100,-99,-99,100,-99,-99,-99,-99,2,10,1,-99,-99,0,1
3,2,10,90,-99,100,-99,-99,-99,-99,2,-99,-99,-99,-99,1,1
3,2,10,90,-99,100,-99,-99,-99,-99,2,-99,-99,-99,-99,1,1
2,2,70,30,-99,90,-99,10,-99,-99,2,-99,-99,-99,-99,1,1
3,3,50,50,-99,100,-99,-99,-99,-99,1,11,10,-99,-99,0,1
3,3,100,-99,-99,100,-99,-99,-99,-99,2,-99,-99,-99,-99,1,1
3,3,-99,100,-99,100,-99,-99,-99,-99,1,11,20,2,1,0,1
2,3,75,25,-99,50,-99,50,-99,-99,2,-99,-99,-99,-99,1,1
3,3,90,10,-99,80,-99,10,-99,-99,3,12,15,1,15,0,1
3,3,100,-99,-99,100,-99,-99,-99,-99,1,12,1,-99,-99,0,1
3,3,-99,100,-99,100,-99,-99,-99,-99,2,-99,-99,-99,-99,1,1
3,2,100,-99,-99,50,-99,50,-99,-99,2,11,15,2,15,0,1
3,3,100,-99,-99,90,-99,10,-99,-99,2,-99,-99,-99,-99,0,1
3,3,50,50,-99,90,-99,10,-99,-99,1,-99,-99,-99,-99,1,1
3,3,90,10,-99,100,-99,-99,-99,-99,2,1,1,3,1,0,1
2,3,20,80,-99,-99,-99,-99,100,-99,2,-99,-99,-99,-99,1,1
3,3,80,20,-99,100,-99,-99,-99,-99,2,-99,-99,-99,-99,1,1
3,3,-99,100,-99,100,-99,-99,-99,-99,2,-99,-99,-99,-99,1,1
3,1,100,-99,-99,100,-99,-99,-99,-99,2,-99,-99,-99,-99,1,1
3,3,100,-99,-99,80,-99,20,-99,-99,2,-99,-99,-99,-99,1,1
3,3,100,-99,-99,100,-99,-99,-99,-99,2,1,1,2,28,0,1
-99,3,100,-99,-99,100,-99,-99,-99,-99,1,11,1,2,28,0,1
3,3,-99,100,-99,100,-99,-99,-99,-99,2,-99,-99,-99,-99,1,1
3,3,100,-99,-99,100,-99,-99,-99,-99,2,-99,-99,-99,-99,1,1
3,3,100,-99,-99,100,-99,-99,-99,-99,2,-99,-99,-99,-99,1,1
3,3,100,-99,-99,100,-99,-99,-99,-99,2,-99,-99,-99,-99,1,1
3,3,100,-99,-99,100,-99,-99,-99,-99,2,-99,-99,-99,-99,1,1
3,3,100,-99,-99,100,-99,-99,-99,-99,2,11,1,2,30,0,1
3,3,50,50,-99,80,-99,20,-99,-99,2,-99,-99,-99,-99,0,1
3,3,100,-99,-99,75,-99,25,-99,-99,2,-99,-99,-99,-99,1,1
1,1,100,-99,-99,100,-99,-99,-99,-99,3,2,1,2,28,0,1
2,1,50,50,-99,70,-99,-99,30,-99,1,12,1,2,15,0,1
1,3,100,-99,-99,100,-99,-99,-99,-99,2,-99,-99,-99,-99,1,1
3,2,95,5,-99,90,-99,10,-99,-99,1,-99,-99,-99,-99,1,1
1,3,50,50,-99,100,-99,-99,-99,-99,2,-99,-99,-99,-99,1,1
3,3,100,-99,-99,100,-99,-99,-99,-99,2,-99,-99,-99,-99,1,1
-99,-99,-99,-99,-99,-99,-99,-99,-99,-99,-99,-99,-99,-99,-99,0,1
1,3,80,20,-99,90,5,5,-99,-99,1,1,1,3,30,0,1
2,2,80,20,-99,70,-99,30,-99,-99,1,12,1,3,1,0,1
3,3,100,-99,-99,100,-99,-99,-99,-99,2,-99,-99,-99,-99,1,1
3,3,100,-99,-99,100,-99,-99,-99,-99,2,-99,-99,-99,-99,1,1
1,2,90,10,-99,90,-99,10,-99,-99,1,11,1,2,15,0,1
2,3,90,10,-99,20,-99,80,-99,-99,1,12,1,2,28,0,1
3,3,90,10,-99,100,-99,-99,-99,-99,2,-99,-99,-99,-99,1,1
4,3,30,70,-99,90,-99,10,-99,-99,2,12,1,2,15,0,1
3,3,-99,100,-99,100,-99,-99,-99,-99,2,-99,-99,-99,-99,1,1
3,1,100,-99,-99,100,-99,-99,-99,-99,1,-99,-99,-99,-99,1,1
3,3,100,-99,-99,100,-99,-99,-99,-99,2,-99,-99,-99,-99,1,1
3,3,50,50,-99,70,-99,30,-99,-99,1,10,1,2,31,0,1
3,2,100,-99,-99,90,-99,10,-99,-99,2,-99,-99,-99,-99,0,1
3,4,100,-99,-99,100,-99,-99,-99,-99,2,-99,-99,-99,-99,1,1
1,1,95,5,-99,25,25,50,-99,-99,2,-99,-99,-99,-99,1,1
2,3,100,-99,-99,100,-99,-99,-99,-99,2,-99,-99,-99,-99,1,1
1,1,100,-99,-99,100,-99,-99,-99,-99,2,12,1,2,28,0,1
2,2,100,-99,-99,50,-99,50,-99,-99,2,-99,-99,-99,-99,1,1
1,2,85,15,-99,100,-99,-99,-99,-99,1,12,1,2,16,0,1
3,3,-99,100,-99,100,-99,-99,-99,-99,2,-99,-99,-99,-99,1,1
3,3,-99,100,-99,50,-99,50,-99,-99,2,-99,-99,-99,-99,1,1
3,3,-99,100,-99,80,10,10,-99,-99,2,-99,-99,-99,-99,1,1
2,2,100,-99,-99,100,-99,-99,-99,-99,2,-99,-99,-99,-99,1,1
3,3,100,-99,-99,100,-99,-99,-99,-99,2,-99,-99,-99,-99,1,1
-99,-99,50,50,-99,90,-99,10,-99,-99,2,-99,-99,-99,-99,1,1
3,3,20,80,-99,90,-99,10,-99,-99,1,12,1,3,31,0,1
2,3,90,10,-99,90,-99,10,-99,-99,2,-99,-99,-99,-99,1,1
3,3,80,20,-99,90,-99,10,-99,-99,2,-99,-99,-99,-99,1,1
3,3,90,10,-99,60,40,-99,-99,-99,1,11,1,2,29,0,1
3,3,80,20,-99,90,-99,-99,10,-99,1,-99,-99,-99,-99,1,1
4,4,100,-99,-99,20,60,20,-99,-99,1,12,15,2,28,0,1
3,3,50,50,-99,95,-99,5,-99,-99,2,-99,-99,-99,-99,1,1
4,3,100,-99,-99,20,60,20,-99,-99,1,11,1,2,28,0,1
1,1,10,90,-99,50,-99,50,-99,-99,3,1,1,2,15,0,1
4,3,100,-99,-99,100,-99,-99,-99,-99,2,-99,-99,-99,-99,1,1
3,3,50,50,-99,100,-99,-99,-99,-99,2,-99,-99,-99,-99,1,1
1,2,50,50,-99,100,-99,-99,-99,-99,2,-99,-99,-99,-99,1,1
2,3,75,25,-99,100,-99,-99,-99,-99,2,-99,-99,-99,-99,1,1
1,2,100,-99,-99,95,-99,5,-99,-99,2,-99,-99,-99,-99,1,1
3,3,30,70,-99,100,-99,-99,-99,-99,2,-99,-99,-99,-99,1,1
2,2,50,50,-99,80,-99,20,-99,-99,1,11,1,2,15,0,1
3,3,100,-99,-99,100,-99,-99,-99,-99,2,-99,-99,-99,-99,1,1
3,3,100,-99,-99,100,-99,-99,-99,-99,2,-99,-99,-99,-99,1,1
3,3,100,-99,-99,100,-99,-99,-99,-99,2,-99,-99,-99,-99,1,1
3,3,100,-99,-99,60,10,30,-99,-99,1,-99,-99,-99,-99,1,1
3,3,80,20,-99,80,10,10,-99,-99,2,-99,-99,-99,-99,1,1
4,3,70,30,-99,20,-99,70,-99,-99,2,-99,-99,-99,-99,0,1
3,3,100,-99,-99,70,-99,30,-99,-99,2,-99,-99,-99,-99,1,1
3,3,-99,100,-99,50,-99,-99,50,-99,2,-99,-99,-99,-99,1,1
2,2,80,20,-99,45,30,20,5,-99,3,-99,-99,-99,-99,0,1
3,3,50,50,-99,90,-99,10,-99,-99,1,12,1,2,31,0,1
3,3,90,10,-99,90,10,-99,-99,-99,1,11,1,2,28,0,1
3,3,20,80,-99,33,66,-99,-99,-99,2,-99,-99,-99,-99,1,1
2,3,50,-99,-99,50,-99,50,-99,-99,2,-99,-99,-99,-99,1,1
3,2,100,-99,-99,50,-99,50,-99,-99,2,11,1,2,15,0,1
3,3,-99,100,-99,100,-99,-99,-99,-99,2,-99,-99,-99,-99,1,1
3,3,-99,100,-99,10,-99,-99,90,-99,1,11,1,3,1,0,1
1,1,80,20,-99,100,-99,-99,-99,-99,1,11,1,3,30,0,1
2,3,50,50,-99,50,-99,50,-99,-99,2,11,1,-99,-99,0,1
3,2,20,80,-99,100,-99,-99,-99,-99,2,-99,-99,-99,-99,1,1
1,1,60,30,10,80,-99,15,5,-99,2,-99,-99,-99,-99,1,1
2,3,90,10,-99,60,10,30,-99,-99,2,-99,-99,-99,-99,1,1
1,2,-99,100,-99,50,-99,-99,50,-99,1,9,-99,4,-99,0,1
3,3,80,20,-99,70,30,-99,-99,-99,2,-99,-99,-99,-99,1,1
3,3,100,-99,-99,100,-99,-99,-99,-99,2,-99,-99,-99,-99,1,1
3,3,100,-99,-99,100,-99,-99,-99,-99,2,-99,-99,-99,-99,1,1
4,3,80,20,-99,40,-99,60,-99,-99,1,12,1,2,15,0,1
3,3,50,50,-99,99.8,.1,-99,.1,-99,1,12,1,2,28,0,1
3,3,-99,100,-99,80,-99,20,-99,-99,2,-99,-99,-99,-99,1,1
3,3,-99,100,-99,100,-99,-99,-99,-99,2,-99,-99,-99,-99,1,1
3,3,80,20,-99,100,-99,-99,-99,-99,2,-99,-99,-99,-99,1,1
3,3,80,20,-99,100,-99,-99,-99,-99,1,-99,-99,-99,-99,1,1
2,3,30,70,-99,50,-99,50,-99,-99,2,-99,-99,-99,-99,1,1
3,3,70,30,-99,80,-99,20,-99,-99,1,-99,-99,-99,-99,1,1
4,3,80,20,-99,50,-99,50,-99,-99,1,10,30,3,1,0,1
3,2,50,50,-99,100,-99,-99,-99,-99,1,11,1,2,1,0,1
3,3,50,50,-99,50,-99,-99,50,-99,1,-99,-99,-99,-99,1,1
1,2,70,30,-99,90,-99,10,-99,-99,3,12,15,1,15,0,1
3,3,95,5,-99,80,-99,20,-99,-99,2,-99,-99,-99,-99,0,1
2,3,90,10,-99,80,-99,10,10,-99,2,-99,-99,-99,-99,1,1
1,3,100,-99,-99,80,-99,20,-99,-99,2,-99,-99,-99,-99,1,1
3,3,100,-99,-99,100,-99,-99,-99,-99,2,-99,-99,-99,-99,1,1
3,4,50,50,-99,100,-99,-99,-99,-99,2,-99,-99,-99,-99,1,1
3,4,100,-99,-99,5,80,15,-99,-99,2,-99,-99,-99,-99,1,1
3,3,-99,-99,100,50,-99,50,-99,-99,-99,11,15,2,1,0,1
2,3,50,50,-99,100,-99,-99,-99,-99,2,-99,-99,-99,-99,1,1
2,2,100,-99,-99,100,-99,-99,-99,-99,1,12,1,2,28,0,1
3,3,100,-99,-99,100,-99,-99,-99,-99,1,-99,-99,-99,-99,1,1
3,2,-99,100,-99,100,-99,-99,-99,-99,2,-99,-99,-99,-99,1,1
3,3,99,1,-99,50,-99,50,-99,-99,2,-99,-99,-99,-99,1,1
3,3,100,-99,-99,100,-99,-99,-99,-99,2,12,1,2,15,0,1
2,2,90,10,-99,100,-99,-99,-99,-99,2,-99,-99,-99,-99,1,1
3,3,80,20,-99,60,-99,40,-99,-99,1,12,20,3,14,0,1
2,2,100,-99,-99,100,-99,-99,-99,-99,2,-99,-99,-99,-99,0,1
3,3,-99,100,-99,80,20,-99,-99,-99,2,-99,-99,-99,-99,1,1
3,3,80,20,-99,100,-99,-99,-99,-99,1,11,26,1,30,0,1
3,3,40,60,-99,100,-99,-99,-99,-99,2,-99,-99,-99,-99,1,1
3,3,100,-99,-99,100,-99,-99,-99,-99,2,-99,-99,-99,-99,1,1
2,3,-99,100,-99,10,-99,10,80,-99,2,-99,-99,-99,-99,1,1
4,3,50,50,-99,80,-99,20,-99,-99,1,11,1,2,15,0,1
1,3,100,-99,-99,100,-99,-99,-99,-99,2,-99,-99,-99,-99,1,1
3,3,-99,100,-99,100,-99,-99,-99,-99,2,-99,-99,-99,-99,1,1
3,3,80,20,-99,90,-99,5,5,-99,1,11,1,2,28,0,1
3,4,80,20,-99,80,-99,20,-99,-99,1,10,1,2,28,0,1
3,3,30,70,-99,70,-99,30,-99,-99,1,11,15,2,28,0,1
3,3,100,-99,-99,100,-99,-99,-99,-99,2,-99,-99,-99,-99,1,1
3,2,-99,90,-99,20,-99,30,-99,-99,2,11,1,3,31,0,1
3,3,100,-99,-99,50,20,30,-99,-99,2,-99,-99,-99,-99,1,1
2,3,98,2,-99,-99,-99,-99,-99,-99,2,-99,-99,-99,-99,1,1
3,3,100,-99,-99,20,80,-99,-99,-99,2,-99,-99,-99,-99,1,1
2,3,100,-99,-99,90,-99,-99,10,-99,1,12,1,2,28,0,1
3,2,20,80,-99,100,-99,-99,-99,-99,2,-99,-99,-99,-99,1,1
3,2,50,50,-99,50,50,-99,-99,-99,2,-99,-99,-99,-99,1,1
5,4,90,10,-99,70,30,-99,-99,-99,2,-99,-99,-99,-99,1,1
3,3,80,20,-99,100,-99,-99,-99,-99,1,12,1,3,1,0,1
1,1,100,-99,-99,50,10,40,-99,-99,2,-99,-99,-99,-99,1,1
1,1,100,-99,-99,100,-99,-99,-99,-99,2,-99,-99,-99,-99,1,1
2,3,30,70,-99,90,-99,10,-99,-99,2,-99,-99,-99,-99,1,1
3,3,15,-99,-99,100,-99,-99,-99,-99,2,-99,-99,-99,-99,1,1
2,3,100,-99,-99,100,-99,-99,-99,-99,1,11,1,3,31,0,1
1,2,100,-99,-99,100,-99,-99,-99,-99,2,-99,-99,-99,-99,1,1
3,2,90,10,-99,80,-99,20,-99,-99,2,-99,-99,-99,-99,1,1
2,2,50,50,-99,30,10,10,50,-99,2,-99,-99,-99,-99,1,1
2,2,95,5,-99,100,-99,-99,-99,-99,1,-99,-99,-99,-99,1,1
3,2,100,-99,-99,30,-99,70,-99,-99,2,-99,-99,-99,-99,1,1
4,3,-99,100,-99,60,-99,40,-99,-99,2,-99,-99,-99,-99,1,1
2,2,70,30,-99,90,-99,10,-99,-99,1,-99,-99,-99,-99,1,1
1,2,100,-99,-99,90,-99,10,-99,-99,2,-99,-99,-99,-99,1,1
2,2,100,-99,-99,90,-99,10,-99,-99,2,-99,-99,-99,-99,1,1
3,3,50,50,-99,100,-99,-99,-99,-99,2,12,14,2,14,0,1
2,1,70,30,-99,100,-99,-99,-99,-99,2,-99,-99,-99,-99,1,1
3,3,100,-99,-99,100,-99,-99,-99,-99,2,-99,-99,-99,-99,1,1
3,4,50,50,-99,100,-99,-99,-99,-99,1,12,1,3,1,0,1
3,3,50,50,-99,70,20,-99,10,-99,1,12,1,3,31,0,1
3,2,100,-99,-99,100,-99,-99,-99,-99,1,10,1,3,1,0,1
2,2,-99,100,-99,100,-99,-99,-99,-99,2,-99,-99,-99,-99,1,1
2,2,50,50,-99,80,10,-99,-99,-99,2,-99,-99,-99,-99,1,1
2,3,100,-99,-99,50,50,-99,-99,-99,2,-99,-99,-99,-99,1,1
2,2,20,70,10,90,-99,10,-99,-99,2,-99,-99,-99,-99,1,1
2,3,95,-99,-99,100,-99,-99,-99,-99,2,-99,-99,-99,-99,1,1
3,3,70,30,-99,50,-99,50,-99,-99,1,12,1,1,30,0,1
3,3,100,-99,-99,100,-99,-99,-99,-99,2,-99,-99,-99,-99,1,1
-99,3,100,-99,-99,100,-99,-99,-99,-99,2,-99,-99,-99,-99,1,1
2,4,80,20,-99,80,-99,20,-99,-99,2,-99,-99,-99,-99,1,1
2,3,75,25,-99,100,-99,-99,-99,-99,1,11,15,2,28,0,1
1,2,100,-99,-99,60,-99,40,-99,-99,1,12,1,3,31,0,1
3,3,100,-99,-99,100,-99,-99,-99,-99,2,-99,-99,-99,-99,1,1
2,2,75,25,-99,80,-99,20,-99,-99,2,-99,-99,-99,-99,1,1
3,3,90,10,-99,80,-99,20,-99,-99,2,-99,-99,-99,-99,1,1
1,2,100,-99,-99,50,-99,50,-99,-99,2,-99,-99,-99,-99,1,1
1,2,100,-99,-99,90,-99,10,-99,-99,2,11,15,1,15,0,1
3,3,-99,100,-99,100,-99,-99,-99,-99,2,-99,-99,-99,-99,1,1
3,3,100,-99,-99,98,-99,-99,2,-99,2,12,30,2,30,0,1
1,2,90,10,-99,50,-99,50,-99,-99,2,-99,-99,-99,-99,0,1
3,3,90,10,-99,100,-99,-99,-99,-99,2,12,15,3,15,0,1
1,2,90,10,-99,100,-99,-99,-99,-99,2,-99,-99,-99,-99,1,1
3,3,100,-99,-99,60,-99,40,-99,-99,2,-99,-99,-99,-99,1,1
3,3,-99,100,-99,100,-99,-99,-99,-99,2,-99,-99,-99,-99,1,1
3,3,100,-99,-99,80,20,-99,-99,-99,2,-99,-99,-99,-99,1,1
3,3,100,-99,-99,90,-99,10,-99,-99,2,-99,-99,-99,-99,1,1
3,3,-99,100,-99,100,-99,-99,-99,-99,2,-99,-99,-99,-99,1,1
3,3,100,-99,-99,50,-99,50,-99,-99,2,-99,-99,-99,-99,1,1
3,3,90,10,-99,80,-99,10,10,-99,2,12,1,2,28,0,1
3,3,-99,100,-99,100,-99,-99,-99,-99,1,-99,-99,-99,-99,1,1
1,1,100,-99,-99,100,-99,-99,-99,-99,1,12,1,2,28,0,1
2,3,80,20,-99,80,-99,20,-99,-99,1,11,1,3,1,0,1
1,1,100,-99,-99,100,-99,-99,-99,-99,2,-99,-99,-99,-99,0,1
3,3,80,20,-99,100,-99,-99,-99,-99,2,-99,-99,-99,-99,1,1
3,2,20,80,-99,100,-99,-99,-99,-99,2,-99,-99,-99,-99,1,1
2,3,100,-99,-99,90,-99,10,-99,-99,2,-99,-99,-99,-99,1,1
2,2,90,10,-99,90,-99,5,5,-99,2,12,1,2,28,0,1
3,3,100,-99,-99,100,-99,-99,-99,-99,2,11,25,1,25,0,1
3,3,100,-99,-99,100,-99,-99,-99,-99,1,11,15,2,15,0,1
2,3,90,10,-99,100,-99,-99,-99,-99,2,-99,-99,-99,-99,1,1
3,3,80,20,-99,80,-99,20,-99,-99,2,-99,-99,-99,-99,1,1
3,3,100,-99,-99,100,-99,-99,-99,-99,2,-99,-99,-99,-99,1,1
2,2,90,10,-99,80,-99,20,-99,-99,2,-99,-99,-99,-99,1,1
2,2,100,-99,-99,75,-99,25,-99,-99,2,11,15,1,15,0,1
3,3,100,-99,-99,99,-99,1,-99,-99,2,-99,-99,-99,-99,1,1
3,2,-99,100,-99,100,-99,-99,-99,-99,1,12,1,2,30,0,1
3,2,-99,100,-99,100,-99,-99,-99,-99,1,12,1,2,30,0,1
1,1,-99,100,-99,85,-99,15,-99,-99,1,11,1,2,28,0,1
3,2,60,40,-99,90,-99,10,-99,-99,1,11,15,3,1,0,1
-99,3,50,50,-99,20,-99,-99,80,-99,2,-99,-99,-99,-99,1,1
4,3,100,-99,-99,40,40,10,10,-99,1,12,1,3,1,0,1
3,3,50,50,-99,50,50,-99,-99,-99,2,-99,-99,-99,-99,1,1
3,3,100,-99,-99,20,80,-99,-99,-99,2,12,15,3,1,0,1
3,3,60,40,-99,100,-99,-99,-99,-99,2,11,1,1,30,0,1
1,1,100,-99,-99,80,-99,20,-99,-99,3,12,14,1,31,0,1
3,2,50,50,-99,50,50,10,-99,-99,2,-99,-99,-99,-99,1,1
1,2,100,-99,-99,100,-99,-99,-99,-99,3,11,15,1,15,0,1
3,3,100,-99,-99,10,-99,-99,90,-99,2,-99,-99,-99,-99,0,1
3,3,50,50,-99,98,1,-99,1,-99,2,12,1,1,31,0,1
-99,2,-99,100,-99,-99,-99,-99,100,-99,2,-99,-99,-99,-99,0,1
3,3,-99,100,-99,100,-99,-99,-99,-99,2,-99,-99,-99,-99,1,1
3,3,100,-99,-99,100,-99,-99,-99,-99,1,12,1,3,31,0,1
3,3,40,60,-99,100,-99,-99,-99,-99,2,-99,-99,-99,-99,0,1
3,2,50,50,-99,100,-99,-99,-99,-99,1,-99,-99,-99,-99,1,1
3,3,90,10,-99,90,-99,10,-99,-99,2,1,1,3,1,0,1
3,3,10,90,-99,90,-99,10,-99,-99,3,12,2,2,1,0,1
3,3,100,-99,-99,100,-99,-99,-99,-99,2,-99,-99,-99,-99,1,1
2,3,90,10,-99,75,-99,20,5,-99,2,12,1,1,31,0,1
2,2,50,50,-99,70,-99,30,-99,-99,2,-99,-99,-99,-99,1,1
1,3,100,-99,-99,100,-99,-99,-99,-99,1,-99,-99,-99,-99,1,1
2,3,100,-99,-99,100,-99,-99,-99,-99,2,-99,-99,-99,-99,1,1
2,3,90,10,-99,70,-99,20,10,-99,1,12,1,2,28,0,1
2,3,100,-99,-99,100,-99,-99,-99,-99,2,-99,-99,-99,-99,1,1
2,3,100,-99,-99,100,-99,-99,-99,-99,1,12,1,3,30,0,1
1,1,100,-99,-99,70,-99,30,-99,-99,2,-99,-99,-99,-99,1,1
1,3,90,10,-99,100,-99,-99,-99,-99,2,-99,-99,-99,-99,0,1
3,3,-99,100,-99,80,-99,20,-99,-99,2,-99,-99,-99,-99,0,1
4,3,20,80,-99,90,-99,10,-99,-99,1,-99,-99,-99,-99,1,1
3,3,50,50,-99,100,-99,-99,-99,-99,2,-99,-99,-99,-99,1,1
3,3,80,20,-99,25,25,25,25,-99,2,12,14,2,16,0,1
3,3,100,-99,-99,100,-99,-99,-99,-99,2,-99,-99,-99,-99,1,1
3,2,100,-99,-99,100,-99,-99,-99,-99,1,12,1,3,1,0,1
1,3,100,-99,-99,100,-99,-99,-99,-99,1,12,1,2,28,0,1
1,2,100,-99,-99,100,-99,-99,-99,-99,1,-99,-99,-99,-99,1,1
3,3,90,10,-99,90,-99,10,-99,-99,1,12,14,3,1,0,1
4,4,80,20,-99,95,-99,4,1,-99,1,11,1,3,1,0,1
3,4,75,25,-99,100,-99,-99,-99,-99,2,-99,-99,-99,-99,1,1
3,3,80,20,-99,100,-99,-99,-99,-99,2,-99,-99,-99,-99,1,1
4,3,90,10,-99,99,-99,1,-99,-99,2,-99,-99,-99,-99,1,2
3,3,-99,100,-99,100,-99,-99,-99,-99,2,-99,-99,-99,-99,1,2
3,2,100,-99,-99,100,-99,-99,-99,-99,2,12,1,-99,-99,0,2
3,3,90,10,-99,90,-99,10,-99,-99,2,-99,-99,-99,-99,1,2
2,2,100,-99,-99,100,-99,-99,-99,-99,1,-99,-99,-99,-99,1,2
3,3,80,20,-99,50,-99,50,-99,-99,1,12,1,3,1,0,2
4,3,50,50,-99,100,-99,-99,-99,-99,2,-99,-99,-99,-99,1,2
3,3,100,-99,-99,100,-99,-99,-99,-99,2,12,1,2,1,0,2
2,3,70,30,-99,90,-99,10,-99,-99,2,-99,-99,-99,-99,1,2
3,3,100,-99,-99,80,-99,20,-99,-99,1,12,1,2,16,0,2
4,3,100,-99,-99,50,50,-99,-99,-99,2,-99,-99,-99,-99,1,2
3,3,80,20,-99,100,-99,-99,-99,-99,2,-99,-99,-99,-99,1,2
3,3,100,-99,-99,100,-99,-99,-99,-99,2,-99,-99,-99,-99,1,2
1,2,100,-99,-99,100,-99,-99,-99,-99,2,-99,-99,-99,-99,1,2
3,2,80,20,-99,100,-99,-99,-99,-99,-99,12,1,2,15,0,2
3,3,90,10,-99,100,-99,-99,-99,-99,1,-99,-99,-99,-99,1,2
2,2,100,-99,-99,20,-99,80,-99,-99,2,-99,-99,-99,-99,1,2
3,3,90,10,-99,90,-99,10,-99,-99,2,-99,-99,-99,-99,1,2
1,1,-99,-99,-99,-99,-99,-99,-99,-99,2,-99,-99,-99,-99,1,2
2,2,100,-99,-99,50,-99,50,-99,-99,2,-99,-99,-99,-99,1,2
3,3,100,-99,-99,100,-99,-99,-99,-99,2,-99,-99,-99,-99,1,2
3,3,100,-99,-99,100,-99,-99,-99,-99,1,-99,-99,-99,-99,0,2
3,3,80,10,10,90,-99,10,-99,-99,2,12,14,2,16,0,2
2,2,80,20,-99,80,-99,20,-99,-99,2,11,1,12,31,0,2
2,2,-99,100,-99,100,-99,-99,-99,-99,1,11,15,2,15,0,2
2,3,50,50,-99,50,-99,50,-99,-99,3,12,1,1,1,0,2
1,2,100,-99,-99,100,-99,-99,-99,-99,2,-99,-99,-99,-99,1,2
4,3,90,10,-99,90,-99,10,-99,-99,1,12,14,2,28,0,2
1,2,50,50,-99,90,-99,10,-99,-99,2,-99,-99,-99,-99,1,2
1,1,50,50,-99,50,-99,50,-99,-99,3,12,1,12,31,0,2
3,1,90,10,-99,10,-99,90,-99,-99,2,-99,-99,-99,-99,1,2
3,2,100,-99,-99,100,-99,-99,-99,-99,2,-99,-99,-99,-99,1,2
1,1,100,-99,-99,100,-99,-99,-99,-99,2,-99,-99,-99,-99,1,2
3,3,100,-99,-99,100,-99,-99,-99,-99,2,-99,-99,-99,-99,1,2
3,3,100,-99,-99,-99,-99,-99,100,-99,1,-99,-99,3,1,0,2
2,2,50,50,-99,100,-99,-99,-99,-99,2,-99,-99,-99,-99,1,2
2,2,50,50,-99,70,-99,30,-99,-99,2,-99,-99,-99,-99,1,2
2,3,100,-99,-99,50,-99,50,-99,-99,2,-99,-99,-99,-99,1,2
1,3,100,-99,-99,100,-99,-99,-99,-99,3,12,15,1,16,0,2
2,2,100,-99,-99,80,-99,20,-99,-99,2,-99,-99,-99,-99,1,2
3,3,100,-99,-99,100,-99,-99,-99,-99,2,-99,-99,-99,-99,1,2
2,2,10,90,-99,100,-99,-99,-99,-99,2,-99,-99,-99,-99,1,2
2,3,100,-99,-99,10,-99,90,-99,-99,2,-99,-99,-99,-99,1,2
3,3,100,-99,-99,50,-99,50,-99,-99,2,-99,-99,-99,-99,1,2
2,3,100,-99,-99,90,1,9,-99,-99,3,12,1,1,5,0,2
3,3,-99,100,-99,90,-99,10,-99,-99,2,-99,-99,-99,-99,1,2
3,3,-99,100,-99,100,-99,-99,-99,-99,2,-99,-99,-99,-99,1,2
1,2,30,70,-99,-99,-99,-99,100,-99,2,-99,-99,-99,-99,1,2
3,4,-99,100,-99,100,-99,-99,-99,-99,1,11,15,-99,-99,0,2
-99,-99,-99,-99,-99,-99,-99,-99,-99,-99,-99,-99,-99,-99,-99,0,2
1,2,30,70,-99,-99,-99,-99,100,-99,2,-99,-99,-99,-99,1,2
2,2,100,-99,-99,100,-99,-99,-99,-99,1,11,1,2,1,0,2
3,3,90,10,-99,100,-99,-99,-99,-99,1,11,1,3,31,0,2
2,2,100,-99,-99,100,-99,-99,-99,-99,1,11,1,2,15,0,2
2,3,70,30,-99,60,-99,40,-99,-99,2,-99,-99,-99,-99,1,2
2,2,100,-99,-99,100,-99,-99,-99,-99,2,-99,-99,-99,-99,1,2
3,3,20,80,-99,70,-99,30,-99,-99,2,11,1,-99,-99,0,2
3,3,90,10,-99,100,-99,-99,-99,-99,2,-99,-99,-99,-99,1,2
3,3,90,10,-99,100,-99,-99,-99,-99,2,-99,-99,-99,-99,1,2
2,2,50,50,-99,100,-99,-99,-99,-99,1,10,1,3,1,0,2
3,3,100,-99,-99,100,-99,-99,-99,-99,1,-99,-99,-99,-99,1,2
2,3,100,-99,-99,100,-99,-99,-99,-99,2,12,1,1,31,0,2
2,3,80,20,-99,100,-99,-99,-99,-99,2,-99,-99,-99,-99,1,2
1,2,100,-99,-99,100,-99,-99,-99,-99,1,11,1,2,28,0,2
1,1,-99,100,-99,50,-99,50,-99,-99,1,-99,-99,-99,-99,1,2
3,2,100,-99,-99,100,-99,-99,-99,-99,1,11,1,2,2,0,2
2,3,100,-99,-99,80,-99,20,-99,-99,2,-99,-99,-99,-99,1,2
1,3,100,-99,-99,90,-99,10,-99,-99,1,11,15,3,15,0,2
1,1,100,-99,-99,90,-99,10,-99,-99,2,-99,-99,-99,-99,0,2
4,3,100,-99,-99,90,-99,10,-99,-99,1,11,1,3,1,0,2
-99,-99,-99,-99,-99,-99,-99,-99,-99,-99,-99,-99,-99,-99,-99,0,2
3,3,90,10,-99,80,-99,20,-99,-99,2,1,1,2,28,0,2
3,2,100,-99,-99,100,-99,-99,-99,-99,1,-99,-99,-99,-99,1,2
3,3,50,50,-99,80,-99,20,-99,-99,2,-99,-99,-99,-99,1,2
4,4,80,20,-99,100,-99,-99,-99,-99,1,12,1,2,16,0,2
2,3,20,80,-99,90,-99,10,-99,-99,2,-99,-99,-99,-99,1,2
1,1,100,-99,-99,100,-99,-99,-99,-99,3,12,15,1,15,0,2
3,2,-99,100,-99,10,-99,90,-99,-99,1,11,1,2,29,0,2
3,3,100,-99,-99,85,-99,15,-99,-99,2,-99,-99,-99,-99,1,2
5,3,75,25,-99,100,-99,-99,-99,-99,2,-99,-99,-99,-99,1,2
3,3,100,-99,-99,100,-99,-99,-99,-99,1,1,1,3,30,0,2
3,3,-99,100,-99,100,-99,-99,-99,-99,2,-99,-99,-99,-99,1,2
3,2,100,-99,-99,100,-99,-99,-99,-99,1,-99,-99,-99,-99,1,2
2,2,100,-99,-99,100,-99,-99,-99,-99,1,-99,-99,-99,-99,1,2
3,2,-99,100,-99,-99,-99,70,30,-99,1,11,1,2,14,0,2
2,2,50,50,-99,100,-99,-99,-99,-99,1,11,1,3,31,0,2
2,2,20,80,-99,100,-99,-99,-99,-99,-99,-99,-99,-99,-99,1,2
3,3,30,70,-99,90,-99,10,-99,-99,2,-99,-99,-99,-99,1,2
3,-99,-99,-99,-99,50,-99,50,-99,-99,2,-99,-99,-99,-99,1,2
2,3,-99,100,-99,85,-99,10,5,-99,3,-99,-99,-99,-99,0,2
5,3,75,25,-99,100,-99,-99,-99,-99,2,-99,-99,-99,-99,0,2
1,1,70,30,-99,100,-99,-99,-99,-99,1,-99,-99,-99,-99,1,2
2,3,100,-99,-99,100,-99,-99,-99,-99,2,10,1,1,1,0,2
1,3,10,90,-99,35,-99,55,10,-99,2,-99,-99,-99,-99,1,2
3,3,30,70,-99,70,-99,30,-99,-99,2,11,30,2,1,0,2
3,3,100,-99,-99,100,-99,-99,-99,-99,2,-99,-99,-99,-99,1,2
3,3,100,-99,-99,100,-99,-99,-99,-99,2,-99,-99,-99,-99,1,2
3,2,50,50,-99,100,-99,-99,-99,-99,2,-99,-99,-99,-99,1,2
3,3,80,20,-99,90,10,-99,-99,-99,1,-99,-99,-99,-99,1,2
2,2,90,10,-99,100,-99,-99,-99,-99,2,-99,-99,-99,-99,1,2
3,3,100,-99,-99,100,-99,-99,-99,-99,2,-99,-99,-99,-99,1,2
2,4,100,-99,-99,100,-99,-99,-99,-99,2,-99,-99,-99,-99,1,2
3,3,-99,100,-99,100,-99,-99,-99,-99,2,-99,-99,-99,-99,1,2
1,2,80,20,-99,70,-99,30,-99,-99,2,-99,-99,-99,-99,1,2
3,3,100,-99,-99,100,-99,-99,-99,-99,1,12,1,2,15,0,2
4,1,50,50,-99,25,-99,25,25,-99,2,-99,-99,-99,-99,1,2
2,2,100,-99,-99,100,-99,-99,-99,-99,2,-99,-99,-99,-99,1,2
3,3,80,20,-99,100,-99,-99,-99,-99,2,-99,-99,-99,-99,1,2
2,3,100,-99,-99,90,10,-99,-99,-99,1,-99,-99,-99,-99,1,2
3,4,100,-99,-99,100,-99,-99,-99,-99,2,-99,-99,-99,-99,1,2
1,3,100,-99,-99,-99,-99,100,-99,-99,2,-99,-99,-99,-99,1,2
3,3,100,-99,-99,100,-99,-99,-99,-99,1,11,1,2,1,0,2
2,3,100,-99,-99,80,-99,20,-99,-99,1,-99,-99,-99,-99,1,2
3,3,100,-99,-99,90,-99,10,-99,-99,2,11,1,2,1,0,2
2,2,100,-99,-99,10,-99,90,-99,-99,1,-99,-99,-99,-99,1,2
3,2,90,10,-99,60,-99,10,30,-99,1,12,1,3,10,0,2
2,3,-99,100,-99,100,-99,-99,-99,-99,1,-99,-99,-99,-99,1,2
3,2,100,-99,-99,90,-99,10,-99,-99,2,-99,-99,-99,-99,1,2
3,2,100,-99,-99,90,-99,10,-99,-99,1,11,1,2,28,0,2
3,2,100,-99,-99,100,-99,-99,-99,-99,2,-99,-99,-99,-99,1,2
1,3,85,15,-99,80,-99,20,-99,-99,3,-99,-99,-99,-99,1,2
1,2,100,-99,-99,100,-99,-99,-99,-99,2,-99,-99,-99,-99,1,2
3,3,-99,100,-99,100,-99,-99,-99,-99,1,11,1,3,1,0,2
3,2,40,60,-99,80,-99,20,-99,-99,1,-99,-99,-99,-99,1,2
3,3,100,-99,-99,100,-99,-99,-99,-99,2,-99,-99,-99,-99,1,2
3,3,100,-99,-99,50,-99,50,-99,-99,1,12,1,2,15,0,2
2,3,80,20,-99,85,-99,10,5,-99,1,11,15,2,30,0,2
-99,-99,-99,-99,-99,-99,-99,-99,-99,-99,-99,-99,-99,-99,-99,0,2
3,3,100,-99,-99,98,-99,2,-99,-99,2,-99,-99,-99,-99,1,2
2,3,30,70,-99,-99,-99,-99,-99,-99,2,-99,-99,-99,-99,1,2
1,1,50,50,-99,100,-99,-99,-99,-99,1,-99,-99,-99,-99,1,2
3,3,50,50,-99,100,-99,-99,-99,-99,2,-99,-99,-99,-99,1,2
2,3,90,10,-99,100,-99,-99,-99,-99,2,-99,-99,-99,-99,1,2
3,2,20,80,-99,85,-99,15,-99,-99,1,11,1,2,1,0,2
3,3,60,40,-99,100,-99,-99,-99,-99,2,-99,-99,-99,-99,0,2
3,3,50,50,-99,90,10,-99,-99,-99,2,-99,-99,-99,-99,1,2
3,3,100,-99,-99,100,-99,-99,-99,-99,2,-99,-99,-99,-99,1,2
3,3,100,-99,-99,100,-99,-99,-99,-99,1,12,1,-99,-99,0,2
3,3,100,-99,-99,-99,-99,-99,100,-99,2,-99,-99,-99,-99,1,2
4,2,70,30,-99,100,-99,-99,-99,-99,2,-99,-99,-99,-99,1,2
3,3,100,-99,-99,95,-99,5,-99,-99,2,12,1,1,30,0,2
3,3,50,50,-99,80,20,-99,-99,-99,1,12,1,3,31,0,2
2,3,100,-99,-99,100,-99,-99,-99,-99,2,12,15,2,15,0,2
3,1,100,-99,-99,80,10,10,-99,-99,2,-99,-99,-99,-99,1,2
3,1,95,5,-99,100,-99,-99,-99,-99,2,12,1,2,1,0,2
2,3,70,30,-99,-99,-99,-99,-99,100,2,-99,-99,-99,-99,1,2
2,3,20,80,-99,100,-99,-99,-99,-99,2,-99,-99,-99,-99,1,2
2,2,100,-99,-99,90,-99,10,-99,-99,3,12,1,12,31,0,2
3,3,70,30,-99,90,-99,10,-99,-99,2,-99,-99,-99,-99,1,2
3,1,100,-99,-99,50,-99,50,-99,-99,1,11,1,2,28,0,2
3,3,95,5,-99,75,-99,-99,25,-99,2,-99,-99,-99,-99,1,2
2,2,10,90,-99,90,-99,10,-99,-99,1,12,30,2,30,0,2
3,3,100,-99,-99,20,-99,80,-99,-99,2,-99,-99,-99,-99,1,2
4,3,10,90,-99,90,-99,10,-99,-99,2,-99,-99,-99,-99,1,2
3,3,90,10,-99,90,-99,10,-99,-99,2,-99,-99,-99,-99,1,2
3,4,100,-99,-99,100,-99,-99,-99,-99,2,-99,-99,-99,-99,1,2
3,3,100,-99,-99,100,-99,-99,-99,-99,2,-99,-99,-99,-99,1,2
3,3,50,50,-99,100,-99,-99,-99,-99,2,-99,-99,-99,-99,1,2
3,3,50,50,-99,100,-99,-99,-99,-99,2,-99,-99,-99,-99,1,2
2,2,100,-99,-99,80,-99,20,-99,-99,2,12,1,2,1,0,2
1,2,100,-99,-99,100,-99,-99,-99,-99,2,-99,-99,-99,-99,1,2
3,3,50,50,-99,100,-99,-99,-99,-99,2,-99,-99,-99,-99,1,2
3,3,50,50,-99,75,-99,25,-99,-99,2,-99,-99,-99,-99,1,2
3,3,100,-99,-99,90,-99,10,-99,-99,2,-99,-99,-99,-99,1,2
3,3,100,-99,-99,90,-99,10,-99,-99,2,-99,-99,-99,-99,0,2
3,3,100,-99,-99,100,-99,-99,-99,-99,1,-99,-99,-99,-99,1,2
3,3,70,30,-99,90,10,-99,-99,-99,2,-99,-99,-99,-99,1,2
1,2,-99,100,-99,50,-99,-99,50,-99,1,12,1,3,31,0,2
3,3,90,10,-99,100,-99,-99,-99,-99,2,-99,-99,-99,-99,1,2
2,3,100,-99,-99,100,-99,-99,-99,-99,2,-99,-99,-99,-99,1,2
-99,2,90,10,-99,50,-99,50,-99,-99,2,-99,-99,-99,-99,0,2
2,3,75,25,-99,75,-99,-99,25,-99,1,8,1,4,1,0,2
3,3,20,80,-99,100,-99,-99,-99,-99,2,-99,-99,-99,-99,1,2
3,2,100,-99,-99,90,-99,-99,10,-99,1,11,1,4,1,0,2
2,2,90,10,-99,100,-99,-99,-99,-99,2,11,15,2,28,0,2
3,3,50,50,-99,100,-99,-99,-99,-99,2,-99,-99,-99,-99,1,2
3,3,100,-99,-99,100,-99,-99,-99,-99,2,-99,-99,-99,-99,1,2
3,3,100,-99,-99,100,-99,-99,-99,-99,2,-99,-99,-99,-99,1,2
1,1,99,1,-99,90,-99,10,-99,-99,3,1,1,1,31,0,2
3,4,100,-99,-99,80,-99,20,-99,-99,2,-99,-99,-99,-99,1,2
5,4,100,-99,-99,100,-99,-99,-99,-99,2,-99,-99,-99,-99,0,2
2,2,-99,100,-99,100,-99,-99,-99,-99,1,-99,-99,-99,-99,1,2
1,2,20,80,-99,-99,100,-99,-99,-99,-99,11,1,2,28,0,2
2,2,50,50,-99,100,-99,-99,-99,-99,2,-99,-99,-99,-99,1,2
3,2,100,-99,-99,100,-99,-99,-99,-99,2,-99,-99,-99,-99,1,2
2,2,100,-99,-99,90,-99,10,-99,-99,3,-99,-99,-99,-99,1,2
3,2,100,-99,-99,100,-99,-99,-99,-99,1,-99,-99,-99,-99,1,2
2,3,50,50,-99,100,-99,-99,-99,-99,2,-99,-99,-99,-99,1,2
4,3,100,-99,-99,100,-99,-99,-99,-99,2,-99,-99,-99,-99,1,2
3,3,90,10,-99,70,30,-99,-99,-99,2,-99,-99,-99,-99,1,2
1,2,60,40,-99,100,-99,-99,-99,-99,1,-99,-99,-99,-99,1,2
-99,-99,-99,-99,-99,-99,-99,-99,-99,-99,-99,-99,-99,-99,-99,0,2
1,3,30,70,-99,100,-99,-99,-99,-99,2,-99,-99,-99,-99,1,2
4,3,100,-99,-99,-99,-99,100,-99,-99,2,-99,-99,-99,-99,1,2
3,3,-99,100,-99,80,-99,20,-99,-99,2,-99,-99,-99,-99,1,2
3,3,80,20,-99,50,-99,-99,50,-99,1,12,1,3,30,0,2
3,3,100,-99,-99,50,-99,50,-99,-99,2,-99,-99,-99,-99,1,2
3,3,50,50,-99,100,-99,-99,-99,-99,1,12,1,2,28,0,2
3,2,100,-99,-99,100,-99,-99,-99,-99,1,-99,-99,-99,-99,1,2
2,2,100,-99,-99,100,-99,-99,-99,-99,1,11,15,3,1,0,2
3,3,100,-99,-99,100,-99,-99,-99,-99,2,-99,-99,-99,-99,0,2
2,3,100,-99,-99,100,-99,-99,-99,-99,2,-99,-99,-99,-99,1,2
2,3,100,-99,-99,100,-99,-99,-99,-99,1,11,1,3,31,0,2
3,2,20,80,-99,50,20,30,-99,-99,1,-99,-99,-99,-99,1,2
3,3,75,25,-99,90,-99,10,-99,-99,1,-99,-99,-99,-99,1,2
3,3,60,40,-99,10,-99,-99,90,-99,1,10,15,3,31,0,2
3,3,50,50,-99,50,-99,50,-99,-99,2,-99,-99,-99,-99,1,2
4,3,70,30,-99,100,-99,-99,-99,-99,1,11,15,2,28,0,2
3,3,100,-99,-99,100,-99,-99,-99,-99,1,-99,-99,-99,-99,1,2
3,3,100,-99,-99,100,-99,-99,-99,-99,2,-99,-99,-99,-99,1,2
3,3,50,50,-99,100,-99,-99,-99,-99,1,12,1,3,1,0,2
3,2,70,30,-99,70,20,10,-99,-99,1,-99,-99,-99,-99,1,2
3,2,70,30,-99,50,-99,50,-99,-99,1,-99,-99,-99,-99,1,2
3,3,100,-99,-99,90,-99,10,-99,-99,2,12,14,2,16,0,2
3,3,100,-99,-99,50,50,-99,-99,-99,2,-99,-99,-99,-99,1,2
3,3,-99,100,-99,100,-99,-99,-99,-99,2,-99,-99,-99,-99,1,2
4,3,-99,100,-99,50,-99,50,-99,-99,1,11,15,-99,-99,0,2
3,3,100,-99,-99,100,-99,-99,-99,-99,2,-99,-99,-99,-99,1,2
3,3,90,10,-99,40,-99,40,20,-99,2,-99,-99,-99,-99,1,2
2,3,100,-99,-99,100,-99,-99,-99,-99,2,-99,-99,-99,-99,1,2
3,3,100,-99,-99,100,-99,-99,-99,-99,2,-99,-99,-99,-99,1,2
3,2,100,-99,-99,100,-99,-99,-99,-99,1,11,15,2,15,0,2
3,3,100,-99,-99,40,60,-99,-99,-99,2,-99,-99,-99,-99,1,2
3,3,100,-99,-99,100,-99,-99,-99,-99,1,10,15,2,30,0,2
2,2,-99,100,-99,100,-99,-99,-99,-99,1,-99,-99,-99,-99,1,2
3,3,-99,100,-99,50,-99,50,-99,-99,2,-99,-99,-99,-99,1,3
2,2,100,-99,-99,100,-99,-99,-99,-99,1,12,1,2,16,0,3
1,1,100,-99,-99,-99,100,-99,-99,-99,1,10,1,5,30,0,3
3,3,80,20,-99,100,-99,-99,-99,-99,1,-99,-99,-99,-99,1,3
3,3,100,-99,-99,50,-99,50,-99,-99,2,-99,-99,-99,-99,1,3
3,3,-99,100,-99,100,-99,-99,-99,-99,2,-99,-99,-99,-99,1,3
3,3,10,90,-99,100,-99,-99,-99,-99,2,-99,-99,-99,-99,1,3
3,3,100,-99,-99,100,-99,-99,-99,-99,2,-99,-99,-99,-99,1,3
3,2,-99,100,-99,25,25,50,-99,-99,2,-99,-99,-99,-99,1,3
3,3,100,-99,-99,90,10,-99,-99,-99,-99,-99,-99,-99,-99,1,3
3,3,75,25,-99,-99,-99,100,-99,-99,2,-99,-99,-99,-99,1,3
3,3,100,-99,-99,100,-99,-99,-99,-99,2,-99,-99,-99,-99,1,3
3,3,100,-99,-99,80,-99,20,-99,-99,2,-99,-99,-99,-99,1,3
2,3,100,-99,-99,100,-99,-99,-99,-99,1,-99,-99,-99,-99,0,3
3,2,-99,100,-99,100,-99,-99,-99,-99,1,-99,-99,-99,-99,1,3
3,3,100,-99,-99,100,-99,-99,-99,-99,2,-99,-99,-99,-99,1,3
3,3,100,-99,-99,100,-99,-99,-99,-99,1,11,1,-99,-99,0,3
2,2,50,50,-99,50,-99,50,-99,-99,2,-99,-99,-99,-99,1,3
1,1,-99,-99,-99,-99,-99,-99,-99,-99,2,-99,-99,-99,-99,1,3
2,3,50,50,-99,20,80,-99,-99,-99,2,-99,-99,-99,-99,1,3
3,3,50,50,-99,100,-99,-99,-99,-99,2,-99,-99,-99,-99,1,3
1,2,90,10,-99,90,-99,10,-99,-99,1,-99,-99,-99,-99,1,3
2,3,10,90,-99,90,-99,10,-99,-99,2,-99,-99,-99,-99,1,3
3,3,-99,100,-99,100,-99,-99,-99,-99,1,11,15,-99,-99,0,3
1,1,-99,100,-99,100,-99,-99,-99,-99,1,-99,-99,-99,-99,1,3
2,3,50,50,-99,20,20,20,40,-99,1,-99,-99,-99,-99,1,3
2,3,90,10,-99,100,-99,-99,-99,-99,2,-99,-99,-99,-99,1,3
3,3,100,-99,-99,100,-99,-99,-99,-99,1,11,1,2,1,0,3
3,3,100,-99,-99,100,-99,-99,-99,-99,3,-99,-99,-99,-99,1,3
3,3,40,60,-99,80,-99,20,-99,-99,2,-99,-99,-99,-99,1,3
2,3,5,95,-99,50,-99,50,-99,-99,1,10,1,4,30,0,3
2,2,-99,100,-99,50,-99,-99,50,-99,1,11,1,3,1,0,3
3,3,-99,100,-99,100,-99,-99,-99,-99,2,-99,-99,-99,-99,1,3
3,3,50,50,-99,80,-99,20,-99,-99,2,-99,-99,-99,-99,1,3
2,3,100,-99,-99,100,-99,-99,-99,-99,1,11,1,2,28,0,3
2,2,-99,100,-99,100,-99,-99,-99,-99,1,-99,-99,-99,-99,1,3
3,2,100,-99,-99,100,-99,-99,-99,-99,1,1,1,12,31,0,3
3,3,40,60,-99,90,-99,10,-99,-99,2,-99,-99,-99,-99,1,3
3,3,40,60,-99,100,-99,-99,-99,-99,1,-99,-99,-99,-99,1,3
3,3,100,-99,-99,100,-99,-99,-99,-99,2,-99,-99,-99,-99,1,3
3,3,100,-99,-99,60,-99,40,-99,-99,1,12,1,3,1,0,3
3,3,100,-99,-99,100,-99,-99,-99,-99,1,-99,-99,-99,-99,1,3
1,4,70,30,-99,90,-99,10,-99,-99,2,-99,-99,-99,-99,0,3
1,2,80,20,-99,100,-99,-99,-99,-99,1,11,-99,4,-99,0,3
3,2,90,10,-99,90,-99,10,-99,-99,1,-99,-99,-99,-99,1,3
2,2,100,-99,-99,70,-99,30,-99,-99,1,11,1,3,31,0,3
3,2,-99,100,-99,100,-99,-99,-99,-99,2,-99,-99,-99,-99,1,3
3,3,50,50,-99,95,-99,5,-99,-99,2,-99,-99,-99,-99,1,3
3,3,10,90,-99,-99,-99,-99,100,-99,1,12,15,4,28,0,3
3,4,50,50,-99,100,-99,-99,-99,-99,1,11,1,3,1,0,3
1,3,90,10,-99,100,-99,-99,-99,-99,2,-99,-99,-99,-99,1,3
3,2,100,-99,-99,50,-99,50,-99,-99,2,-99,-99,-99,-99,1,3
2,3,90,10,-99,90,-99,10,-99,-99,1,1,1,12,31,0,3
2,2,100,-99,-99,100,-99,-99,-99,-99,1,11,1,3,15,0,3
2,3,-99,100,-99,-99,-99,50,50,-99,2,-99,-99,-99,-99,1,3
3,3,50,50,-99,100,-99,-99,-99,-99,2,-99,-99,-99,-99,1,3
4,3,-99,100,-99,100,-99,-99,-99,-99,1,9,20,2,20,0,3
3,3,100,-99,-99,-99,-99,100,-99,-99,2,-99,-99,-99,-99,1,3
2,1,100,-99,-99,10,-99,90,-99,-99,2,-99,-99,-99,-99,1,3
3,3,80,20,-99,10,-99,-99,90,-99,2,12,15,1,31,0,3
2,1,100,-99,-99,100,-99,-99,-99,-99,1,-99,-99,-99,-99,1,3
3,3,50,50,-99,75,-99,25,-99,-99,1,11,1,3,30,0,3
3,3,100,-99,-99,100,-99,-99,-99,-99,2,-99,-99,-99,-99,1,3
3,2,-99,-99,-99,100,-99,-99,-99,-99,1,-99,-99,-99,-99,1,3
2,3,100,-99,-99,100,-99,-99,-99,-99,1,10,1,3,1,0,3
-99,-99,-99,-99,-99,-99,-99,-99,-99,-99,-99,-99,-99,-99,-99,0,3
-99,-99,-99,-99,-99,-99,-99,-99,-99,-99,-99,-99,-99,-99,-99,0,3
-99,-99,-99,-99,-99,-99,-99,-99,-99,-99,-99,-99,-99,-99,-99,0,3
2,3,100,-99,-99,90,-99,10,-99,-99,2,-99,-99,-99,-99,1,3
3,3,50,50,-99,100,-99,-99,-99,-99,2,-99,-99,-99,-99,0,3
3,3,100,-99,-99,20,60,20,-99,-99,2,-99,-99,-99,-99,1,3
2,2,100,-99,-99,100,-99,-99,-99,-99,2,-99,-99,-99,-99,1,3
2,2,100,-99,-99,100,-99,-99,-99,-99,2,-99,-99,-99,-99,1,3
3,3,100,-99,-99,90,-99,10,-99,-99,2,-99,-99,-99,-99,1,3
3,3,100,-99,-99,100,-99,-99,-99,-99,2,-99,-99,-99,-99,0,3
3,3,90,10,-99,100,-99,-99,-99,-99,2,-99,-99,-99,-99,1,3
1,2,10,90,-99,90,-99,10,-99,-99,2,-99,-99,-99,-99,1,3
2,3,-99,100,-99,-99,-99,-99,100,-99,2,-99,-99,-99,-99,1,3
3,3,10,80,-99,90,10,-99,-99,-99,2,-99,-99,-99,-99,1,3
3,3,50,50,-99,60,10,30,-99,-99,2,-99,-99,-99,-99,1,3
1,3,100,-99,-99,100,-99,-99,-99,-99,2,-99,-99,-99,-99,1,3
2,3,80,20,-99,100,-99,-99,-99,-99,2,-99,-99,-99,-99,1,3
3,3,100,-99,-99,60,-99,40,-99,-99,2,-99,-99,-99,-99,1,3
1,2,100,-99,-99,80,-99,20,-99,-99,3,12,15,2,15,0,3
1,1,70,30,-99,50,-99,-99,-99,50,3,12,15,1,15,0,3
3,4,80,20,-99,100,-99,-99,-99,-99,2,-99,-99,-99,-99,1,3
3,2,100,-99,-99,20,40,-99,40,-99,1,11,1,1,31,0,3
4,3,80,20,-99,90,-99,10,-99,-99,1,10,1,3,31,0,3
3,3,100,-99,-99,100,-99,-99,-99,-99,1,10,1,3,31,0,3
1,2,100,-99,-99,80,-99,20,-99,-99,1,12,1,2,15,0,3
1,2,100,-99,-99,60,-99,40,-99,-99,2,-99,-99,-99,-99,1,3
1,2,100,-99,-99,95,-99,5,-99,-99,2,11,1,-99,-99,0,3
1,1,100,-99,-99,100,-99,-99,-99,-99,2,-99,-99,-99,-99,1,3
3,3,100,-99,-99,75,-99,25,-99,-99,2,-99,-99,-99,-99,1,3
1,1,100,-99,-99,-99,-99,100,-99,-99,2,11,20,-99,-99,0,3
5,4,-99,100,-99,98,-99,2,-99,-99,1,11,30,-99,-99,0,3
3,3,100,-99,-99,75,-99,25,-99,-99,2,12,15,2,15,0,3
1,1,60,40,-99,100,-99,-99,-99,-99,3,1,1,2,1,0,3
2,3,100,-99,-99,100,-99,-99,-99,-99,1,-99,-99,-99,-99,1,3
3,3,50,50,-99,100,-99,-99,-99,-99,2,-99,-99,-99,-99,1,3
3,3,100,-99,-99,100,-99,-99,-99,-99,2,-99,-99,-99,-99,1,3
3,3,-99,90,10,100,-99,-99,-99,-99,2,-99,-99,-99,-99,1,3
3,3,100,-99,-99,100,-99,-99,-99,-99,2,-99,-99,-99,-99,0,3
1,1,90,10,-99,90,-99,10,-99,-99,2,-99,-99,-99,-99,1,3
3,3,100,-99,-99,100,-99,-99,-99,-99,2,11,15,2,16,0,3
3,2,-99,100,-99,100,-99,-99,-99,-99,1,11,15,-99,-99,0,3
3,3,100,-99,-99,100,-99,-99,-99,-99,2,-99,-99,-99,-99,1,3
4,1,-99,100,-99,40,-99,20,40,-99,2,-99,-99,-99,-99,1,3
1,2,100,-99,-99,100,-99,-99,-99,-99,1,-99,-99,-99,-99,1,3
3,3,100,-99,-99,100,-99,-99,-99,-99,1,11,1,3,31,0,3
3,2,-99,100,-99,100,-99,-99,-99,-99,1,-99,-99,3,31,0,3
3,2,-99,100,-99,-99,-99,-99,100,-99,1,9,1,4,30,0,3
2,3,-99,100,-99,50,-99,-99,50,-99,2,-99,-99,-99,-99,1,3
3,3,100,-99,-99,100,-99,-99,-99,-99,2,-99,-99,-99,-99,1,3
3,3,80,20,-99,20,-99,80,-99,-99,2,-99,-99,-99,-99,1,3
3,3,80,20,-99,100,-99,-99,-99,-99,2,-99,-99,-99,-99,1,3
1,2,100,-99,-99,100,-99,-99,-99,-99,3,-99,-99,-99,-99,1,3
2,3,75,25,-99,80,-99,20,-99,-99,2,-99,-99,-99,-99,1,3
1,3,100,-99,-99,30,-99,70,-99,-99,2,-99,-99,-99,-99,1,3
2,2,90,10,-99,90,-99,10,-99,-99,2,-99,-99,-99,-99,1,3
2,2,50,50,-99,100,-99,-99,-99,-99,2,-99,-99,-99,-99,1,3
3,3,30,70,-99,100,-99,-99,-99,-99,1,11,15,2,15,0,3
3,3,100,-99,-99,100,-99,-99,-99,-99,1,-99,-99,-99,-99,1,3
3,3,50,50,-99,100,-99,-99,-99,-99,2,-99,-99,-99,-99,1,3
3,3,70,30,-99,100,-99,-99,-99,-99,2,12,1,2,28,0,3
