﻿Q11_no_op,Rank,Q6_abnd,Q7_satf,Q8_land_publ,Q8_land_prvt,Q8_land_unk,Q9_trap_foot,Q9_trap_body,Q9_trap_snare,Q9_trap_cage,Q9_trap_other,Q10_length,Q11_date_start_month,Q11_date_start_day,Q11_date_end_month,Q11_date_end_day
1,1,4,3,-99,70,30,100,-99,-99,-99,-99,2,-99,-99,-99,-99
1,2,3,3,20,60,20,100,-99,-99,-99,-99,2,-99,-99,-99,-99
1,2,5,3,-99,90,10,100,-99,-99,-99,-99,1,-99,-99,-99,-99
1,2,4,3,20,70,10,100,-99,-99,-99,-99,1,-99,-99,-99,-99
0,1,3,1,-99,100,-99,100,-99,-99,-99,-99,2,7,1,6,30
1,1,3,1,-99,100,-99,100,-99,-99,-99,-99,2,-99,-99,-99,-99
1,1,3,3,-99,100,-99,100,-99,-99,-99,-99,2,-99,-99,-99,-99
1,1,3,3,-99,100,-99,100,-99,-99,-99,-99,2,-99,-99,-99,-99
1,1,3,3,-99,100,-99,100,-99,-99,-99,-99,-99,-99,-99,-99,-99
1,1,3,3,-99,100,-99,100,-99,-99,-99,-99,2,-99,-99,-99,-99
0,1,3,3,-99,100,-99,100,-99,-99,-99,-99,2,-99,-99,-99,-99
1,1,3,3,-99,100,-99,100,-99,-99,-99,-99,2,-99,-99,-99,-99
1,1,3,2,-99,100,-99,100,-99,-99,-99,-99,2,-99,-99,-99,-99
1,1,3,3,-99,100,-99,100,-99,-99,-99,-99,2,-99,-99,-99,-99
1,1,3,4,-99,100,-99,100,-99,-99,-99,-99,2,-99,-99,-99,-99
1,1,3,3,-99,100,-99,100,-99,-99,-99,-99,2,-99,-99,-99,-99
1,1,3,3,-99,100,-99,100,-99,-99,-99,-99,2,-99,-99,-99,0
1,1,3,2,-99,100,-99,100,-99,-99,-99,-99,2,-99,-99,-99,-99
1,1,2,3,-99,100,-99,100,-99,-99,-99,-99,2,-99,-99,-99,-99
1,1,4,4,-99,100,-99,100,-99,-99,-99,-99,2,-99,-99,-99,-99
1,1,4,3,-99,100,-99,100,-99,-99,-99,-99,2,-99,-99,-99,-99
1,2,2,3,-99,100,-99,100,-99,-99,-99,-99,2,-99,-99,-99,-99
1,2,4,3,-99,100,-99,100,-99,-99,-99,-99,2,-99,-99,-99,-99
1,2,4,3,-99,100,-99,100,-99,-99,-99,-99,2,-99,-99,-99,-99
1,2,3,2,-99,100,-99,100,-99,-99,-99,-99,2,-99,-99,-99,-99
1,2,4,3,-99,100,-99,100,-99,-99,-99,-99,2,-99,-99,-99,-99
1,2,4,3,-99,100,-99,100,-99,-99,-99,-99,2,-99,-99,-99,-99
1,2,3,3,-99,100,-99,100,-99,-99,-99,-99,2,-99,-99,-99,-99
1,2,4,3,-99,100,-99,100,-99,-99,-99,-99,2,-99,-99,-99,-99
1,2,4,3,-99,100,-99,100,-99,-99,-99,-99,2,-99,-99,-99,-99
0,2,3,3,-99,100,-99,100,-99,-99,-99,-99,1,11,20,2,1
1,2,3,3,-99,100,-99,100,-99,-99,-99,-99,2,-99,-99,-99,-99
1,2,3,3,-99,100,-99,100,-99,-99,-99,-99,2,-99,-99,-99,-99
1,2,3,3,-99,100,-99,100,-99,-99,-99,-99,2,-99,-99,-99,-99
1,2,3,3,-99,100,-99,100,-99,-99,-99,-99,2,-99,-99,-99,-99
1,2,3,3,-99,100,-99,100,-99,-99,-99,-99,2,-99,-99,-99,-99
1,2,5,4,-99,100,-99,100,-99,-99,-99,-99,2,-99,-99,-99,-99
1,2,2,2,-99,100,-99,100,-99,-99,-99,-99,2,-99,-99,-99,-99
1,2,1,2,-99,100,-99,100,-99,-99,-99,-99,2,-99,-99,-99,-99
1,2,3,3,-99,100,-99,100,-99,-99,-99,-99,2,-99,-99,-99,-99
1,2,3,3,-99,100,-99,100,-99,-99,-99,-99,2,-99,-99,-99,-99
0,2,3,2,-99,100,-99,100,-99,-99,-99,-99,3,10,1,3,31
1,2,4,3,-99,100,-99,100,-99,-99,-99,-99,2,-99,-99,-99,-99
1,2,3,3,-99,100,-99,100,-99,-99,-99,-99,2,-99,-99,-99,-99
1,3,-99,-99,-99,100,-99,100,-99,-99,-99,-99,2,-99,-99,-99,-99
1,3,3,3,-99,100,-99,100,-99,-99,-99,-99,2,-99,-99,-99,-99
1,3,2,2,-99,100,-99,100,-99,-99,-99,-99,2,-99,-99,-99,-99
1,3,3,3,-99,100,-99,100,-99,-99,-99,-99,2,-99,-99,-99,-99
1,3,3,3,-99,100,-99,100,-99,-99,-99,-99,2,-99,-99,-99,-99
1,3,3,3,-99,100,-99,100,-99,-99,-99,-99,2,-99,-99,-99,-99
1,3,3,3,-99,100,-99,100,-99,-99,-99,-99,2,-99,-99,-99,-99
1,3,3,3,-99,100,-99,100,-99,-99,-99,-99,2,-99,-99,-99,-99
1,3,1,1,-99,100,-99,100,-99,-99,-99,-99,2,-99,-99,-99,-99
1,1,3,3,5,95,-99,100,-99,-99,-99,-99,2,-99,-99,-99,-99
1,1,3,3,5,95,-99,100,-99,-99,-99,-99,2,-99,-99,-99,-99
1,1,3,3,10,90,-99,100,-99,-99,-99,-99,2,-99,-99,-99,-99
1,1,2,3,10,90,-99,100,-99,-99,-99,-99,2,-99,-99,-99,-99
1,1,4,3,10,90,-99,100,-99,-99,-99,-99,2,-99,-99,-99,-99
1,2,4,3,10,90,-99,100,-99,-99,-99,-99,2,-99,-99,-99,-99
1,2,3,3,10,90,-99,100,-99,-99,-99,-99,2,-99,-99,-99,-99
1,2,5,3,10,90,-99,100,-99,-99,-99,-99,2,-99,-99,-99,-99
1,2,3,3,10,90,-99,100,-99,-99,-99,-99,2,-99,-99,-99,-99
1,2,2,3,10,90,-99,100,-99,-99,-99,-99,2,-99,-99,-99,-99
1,3,3,3,10,90,-99,100,-99,-99,-99,-99,2,-99,-99,-99,-99
0,3,3,3,10,90,-99,100,-99,-99,-99,-99,3,11,1,-99,-99
1,1,2,3,20,80,-99,100,-99,-99,-99,-99,2,-99,-99,-99,-99
1,1,3,3,20,80,-99,100,-99,-99,-99,-99,2,-99,-99,-99,-99
1,1,1,3,20,80,-99,100,-99,-99,-99,-99,2,-99,-99,-99,-99
1,1,3,3,20,80,-99,100,-99,-99,-99,-99,2,-99,-99,-99,-99
1,1,3,3,20,80,-99,100,-99,-99,-99,-99,2,-99,-99,-99,-99
1,1,4,3,20,80,-99,100,-99,-99,-99,-99,2,-99,-99,-99,-99
1,2,3,3,20,80,-99,100,-99,-99,-99,-99,2,-99,-99,-99,-99
1,2,3,3,20,80,-99,100,-99,-99,-99,-99,2,-99,-99,-99,-99
1,3,4,3,20,80,-99,100,-99,-99,-99,-99,2,-99,-99,-99,-99
1,2,3,3,25,75,-99,100,-99,-99,-99,-99,2,-99,-99,-99,-99
1,3,3,3,25,75,-99,100,-99,-99,-99,-99,2,-99,-99,-99,-99
1,1,3,3,30,70,-99,100,-99,-99,-99,-99,2,-99,-99,-99,-99
1,1,3,2,30,70,-99,100,-99,-99,-99,-99,2,-99,-99,-99,-99
0,2,2,3,30,70,-99,100,-99,-99,-99,-99,2,1,1,12,31
1,3,3,3,30,70,-99,100,-99,-99,-99,-99,2,-99,-99,-99,-99
1,1,3,4,40,60,-99,100,-99,-99,-99,-99,2,-99,-99,-99,-99
1,1,3,3,40,60,-99,100,-99,-99,-99,-99,2,-99,-99,-99,-99
1,2,4,3,40,60,-99,100,-99,-99,-99,-99,2,-99,-99,-99,-99
1,2,4,2,40,60,-99,100,-99,-99,-99,-99,2,-99,-99,-99,-99
1,2,2,3,40,60,-99,100,-99,-99,-99,-99,2,-99,-99,-99,-99
1,3,4,3,40,60,-99,100,-99,-99,-99,-99,2,-99,-99,-99,-99
0,3,4,3,40,60,-99,100,-99,-99,-99,-99,2,11,1,-99,-99
1,1,3,2,50,50,-99,100,-99,-99,-99,-99,2,-99,-99,-99,-99
1,1,2,3,50,50,-99,100,-99,-99,-99,-99,2,-99,-99,-99,-99
1,1,4,3,50,50,-99,100,-99,-99,-99,-99,2,-99,-99,-99,-99
0,1,3,3,50,50,-99,100,-99,-99,-99,-99,2,1,1,12,31
0,1,3,1,50,50,-99,100,-99,-99,-99,-99,2,10,15,2,15
1,1,3,3,50,50,-99,100,-99,-99,-99,-99,2,-99,-99,-99,-99
1,1,3,4,50,50,-99,100,-99,-99,-99,-99,2,-99,-99,-99,-99
1,1,3,4,50,50,-99,100,-99,-99,-99,-99,2,-99,-99,-99,-99
0,1,4,4,50,50,-99,100,-99,-99,-99,-99,2,7,1,6,30
1,1,3,3,50,50,-99,100,-99,-99,-99,-99,2,-99,-99,-99,-99
1,1,4,3,50,50,-99,100,-99,-99,-99,-99,2,-99,-99,-99,-99
1,1,3,3,50,50,-99,100,-99,-99,-99,-99,2,-99,-99,-99,-99
1,1,3,3,50,50,-99,100,-99,-99,-99,-99,2,-99,-99,-99,-99
1,1,1,2,50,50,-99,100,-99,-99,-99,-99,2,-99,-99,-99,-99
0,2,3,-99,50,50,-99,100,-99,-99,-99,-99,1,1,1,12,31
1,2,4,3,50,50,-99,100,-99,-99,-99,-99,2,-99,-99,-99,-99
1,2,-99,3,50,50,-99,100,-99,-99,-99,-99,-99,-99,-99,-99,-99
1,2,3,3,50,50,-99,100,-99,-99,-99,-99,2,-99,-99,-99,-99
1,2,3,3,50,50,-99,100,-99,-99,-99,-99,2,-99,-99,-99,-99
1,2,3,3,50,50,-99,100,-99,-99,-99,-99,2,-99,-99,-99,-99
1,2,4,3,50,50,-99,100,-99,-99,-99,-99,3,-99,-99,-99,-99
1,2,3,3,50,50,-99,100,-99,-99,-99,-99,2,-99,-99,-99,-99
1,2,-99,-99,50,50,-99,100,-99,-99,-99,-99,2,-99,-99,-99,-99
1,2,3,4,50,50,-99,100,-99,-99,-99,-99,2,-99,-99,-99,-99
0,2,2,2,50,50,-99,100,-99,-99,-99,-99,2,-99,-99,-99,-99
1,2,3,3,50,50,-99,100,-99,-99,-99,-99,2,-99,-99,-99,-99
1,2,3,3,50,50,-99,100,-99,-99,-99,-99,2,-99,-99,-99,-99
1,2,3,3,50,50,-99,100,-99,-99,-99,-99,2,-99,-99,-99,-99
1,2,3,3,50,50,-99,100,-99,-99,-99,-99,2,-99,-99,-99,-99
1,2,3,2,50,50,-99,100,-99,-99,-99,-99,2,-99,-99,-99,-99
1,2,4,3,50,50,-99,100,-99,-99,-99,-99,2,-99,-99,-99,-99
1,3,1,3,50,50,-99,100,-99,-99,-99,-99,2,-99,-99,-99,-99
1,3,3,3,50,50,-99,100,-99,-99,-99,-99,2,-99,-99,-99,-99
1,3,3,2,50,50,-99,100,-99,-99,-99,-99,2,-99,-99,-99,-99
1,3,3,3,50,50,-99,100,-99,-99,-99,-99,2,-99,-99,-99,-99
1,3,3,3,50,50,-99,100,-99,-99,-99,-99,2,-99,-99,-99,-99
1,3,3,3,50,50,-99,100,-99,-99,-99,-99,2,-99,-99,-99,-99
1,3,4,3,50,50,-99,100,-99,-99,-99,-99,2,-99,-99,-99,-99
1,3,3,3,50,50,-99,100,-99,-99,-99,-99,2,-99,-99,-99,-99
1,3,3,3,50,50,-99,100,-99,-99,-99,-99,2,-99,-99,-99,-99
1,1,2,3,30,50,-99,100,-99,-99,-99,-99,2,-99,-99,-99,-99
1,1,3,3,60,40,-99,100,-99,-99,-99,-99,2,-99,-99,-99,-99
1,1,3,3,60,40,-99,100,-99,-99,-99,-99,2,-99,-99,-99,-99
1,2,-99,-99,60,40,-99,100,-99,-99,-99,-99,2,-99,-99,-99,-99
1,1,3,3,70,30,-99,100,-99,-99,-99,-99,2,-99,-99,-99,-99
0,2,2,3,70,30,-99,100,-99,-99,-99,-99,2,1,1,12,31
1,2,3,2,70,30,-99,100,-99,-99,-99,-99,2,-99,-99,-99,-99
1,2,4,3,70,30,-99,100,-99,-99,-99,-99,2,-99,-99,-99,-99
1,2,5,2,70,30,-99,100,-99,-99,-99,-99,1,-99,-99,-99,-99
1,3,4,3,70,30,-99,100,-99,-99,-99,-99,2,-99,-99,-99,-99
1,3,3,3,70,30,-99,100,-99,-99,-99,-99,2,-99,-99,-99,-99
1,3,3,3,70,30,-99,100,-99,-99,-99,-99,2,-99,-99,-99,-99
0,1,3,3,75,25,-99,100,-99,-99,-99,-99,2,10,15,4,15
1,1,5,4,75,25,-99,100,-99,-99,-99,-99,2,-99,-99,-99,-99
1,1,5,4,75,25,-99,100,-99,-99,-99,-99,-99,-99,-99,-99,-99
0,1,3,3,75,25,-99,100,-99,-99,-99,-99,2,8,1,3,1
1,2,4,3,75,25,-99,100,-99,-99,-99,-99,2,-99,-99,-99,-99
0,1,3,3,80,20,-99,100,-99,-99,-99,-99,1,1,1,12,31
1,1,3,3,80,20,-99,100,-99,-99,-99,-99,2,-99,-99,-99,-99
0,1,2,3,80,20,-99,100,-99,-99,-99,-99,3,10,1,3,1
1,2,5,3,80,20,-99,100,-99,-99,-99,-99,2,-99,-99,-99,-99
1,2,3,3,80,20,-99,100,-99,-99,-99,-99,2,-99,-99,-99,-99
1,2,3,3,80,20,-99,100,-99,-99,-99,-99,2,-99,-99,-99,-99
0,2,2,3,80,20,-99,100,-99,-99,-99,-99,2,9,1,3,31
1,2,4,3,80,20,-99,100,-99,-99,-99,-99,2,-99,-99,-99,-99
1,2,3,3,80,20,-99,100,-99,-99,-99,-99,2,-99,-99,-99,-99
1,2,3,3,80,20,-99,100,-99,-99,-99,-99,2,-99,-99,-99,-99
0,1,1,3,90,10,-99,100,-99,-99,-99,-99,2,-99,-99,-99,-99
1,1,3,3,90,10,-99,100,-99,-99,-99,-99,2,-99,-99,-99,-99
1,1,2,2,90,10,-99,100,-99,-99,-99,-99,-99,-99,-99,-99,-99
1,1,3,4,90,10,-99,100,-99,-99,-99,-99,2,-99,-99,-99,-99
1,1,3,3,90,10,-99,100,-99,-99,-99,-99,2,-99,-99,-99,-99
1,1,3,3,90,10,-99,100,-99,-99,-99,-99,2,-99,-99,-99,-99
1,1,4,3,90,10,-99,100,-99,-99,-99,-99,2,1,1,12,31
1,2,4,3,90,10,-99,100,-99,-99,-99,-99,2,-99,-99,-99,-99
1,2,3,3,90,10,-99,100,-99,-99,-99,-99,2,-99,-99,-99,-99
1,2,3,3,90,10,-99,100,-99,-99,-99,-99,2,-99,-99,-99,-99
0,2,1,2,90,10,-99,100,-99,-99,-99,-99,2,7,1,6,30
1,2,2,3,90,10,-99,100,-99,-99,-99,-99,2,-99,-99,-99,-99
1,2,2,3,90,10,-99,100,-99,-99,-99,-99,2,-99,-99,-99,-99
1,2,4,4,90,10,-99,100,-99,-99,-99,-99,2,-99,-99,-99,-99
0,2,1,3,90,10,-99,100,-99,-99,-99,-99,2,-99,-99,-99,-99
1,2,3,3,90,10,-99,100,-99,-99,-99,-99,2,-99,-99,-99,-99
1,3,3,4,90,10,-99,100,-99,-99,-99,-99,2,-99,-99,-99,-99
1,3,4,3,90,10,-99,100,-99,-99,-99,-99,2,-99,-99,-99,-99
1,3,4,3,90,10,-99,100,-99,-99,-99,-99,2,-99,-99,-99,-99
0,3,4,3,90,10,-99,100,-99,-99,-99,-99,2,-99,-99,-99,-99
1,3,3,2,90,10,-99,100,-99,-99,-99,-99,2,-99,-99,-99,-99
1,3,1,1,90,10,-99,100,-99,-99,-99,-99,2,-99,-99,-99,-99
1,1,2,2,95,5,-99,100,-99,-99,-99,-99,2,-99,-99,-99,-99
1,2,4,3,95,5,-99,100,-99,-99,-99,-99,2,-99,-99,-99,-99
1,2,3,3,95,5,-99,100,-99,-99,-99,-99,2,-99,-99,-99,-99
1,2,3,3,90,5,-99,100,-99,-99,-99,-99,2,-99,-99,-99,-99
0,1,2,2,99,1,-99,100,-99,-99,-99,-99,2,11,1,2,15
1,1,3,2,100,-99,-99,100,-99,-99,-99,-99,2,-99,-99,-99,-99
1,1,3,3,100,-99,-99,100,-99,-99,-99,-99,2,-99,-99,-99,-99
1,1,3,3,100,-99,-99,100,-99,-99,-99,-99,1,-99,-99,-99,-99
1,1,3,3,100,-99,-99,100,-99,-99,-99,-99,2,-99,-99,-99,-99
0,1,3,3,100,-99,-99,100,-99,-99,-99,-99,2,1,1,12,31
1,1,3,3,100,-99,-99,100,-99,-99,-99,-99,2,-99,-99,-99,-99
1,1,3,4,100,-99,-99,100,-99,-99,-99,-99,2,-99,-99,-99,-99
1,1,3,3,100,-99,-99,100,-99,-99,-99,-99,2,-99,-99,-99,-99
1,1,3,4,100,-99,-99,100,-99,-99,-99,-99,2,-99,-99,-99,-99
1,1,3,3,100,-99,-99,100,-99,-99,-99,-99,2,-99,-99,-99,-99
1,1,4,3,100,-99,-99,100,-99,-99,-99,-99,2,-99,-99,-99,-99
1,1,2,3,100,-99,-99,100,-99,-99,-99,-99,2,-99,-99,-99,-99
0,1,3,3,100,-99,-99,100,-99,-99,-99,-99,2,1,1,12,31
1,1,3,3,100,-99,-99,100,-99,-99,-99,-99,2,-99,-99,-99,-99
1,1,3,3,100,-99,-99,100,-99,-99,-99,-99,2,-99,-99,-99,-99
1,1,2,3,100,-99,-99,100,-99,-99,-99,-99,2,-99,-99,-99,-99
1,1,1,1,100,-99,-99,100,-99,-99,-99,-99,2,-99,-99,-99,-99
0,1,3,3,100,-99,-99,100,-99,-99,-99,-99,2,-99,-99,-99,-99
1,1,2,3,100,-99,-99,100,-99,-99,-99,-99,1,-99,-99,-99,-99
0,1,3,3,100,-99,-99,100,-99,-99,-99,-99,3,10,1,3,31
0,1,3,3,100,-99,-99,100,-99,-99,-99,-99,1,9,15,3,30
1,1,2,2,100,-99,-99,100,-99,-99,-99,-99,2,-99,-99,-99,-99
1,1,4,4,100,-99,-99,100,-99,-99,-99,-99,2,-99,-99,-99,-99
1,1,3,3,100,-99,-99,100,-99,-99,-99,-99,2,-99,-99,-99,-99
1,1,1,1,100,-99,-99,100,-99,-99,-99,-99,2,-99,-99,-99,-99
1,1,2,2,100,-99,-99,100,-99,-99,-99,-99,2,-99,-99,-99,-99
1,1,3,3,100,-99,-99,100,-99,-99,-99,-99,2,-99,-99,-99,-99
1,1,3,3,100,-99,-99,100,-99,-99,-99,-99,2,-99,-99,-99,-99
0,1,2,-99,100,-99,-99,100,-99,-99,-99,-99,2,1,1,12,31
1,1,3,3,100,-99,-99,100,-99,-99,-99,-99,2,-99,-99,-99,-99
1,1,3,3,100,-99,-99,100,-99,-99,-99,-99,2,-99,-99,-99,-99
1,1,3,3,100,-99,-99,100,-99,-99,-99,-99,2,-99,-99,-99,-99
1,1,3,4,100,-99,-99,100,-99,-99,-99,-99,2,-99,-99,-99,-99
1,1,1,3,100,-99,-99,100,-99,-99,-99,-99,2,-99,-99,-99,-99
1,1,3,3,100,-99,-99,100,-99,-99,-99,-99,2,-99,-99,-99,-99
1,1,3,3,100,-99,-99,100,-99,-99,-99,-99,2,-99,-99,-99,-99
1,1,3,3,100,-99,-99,100,-99,-99,-99,-99,2,-99,-99,-99,-99
1,1,3,3,100,-99,-99,100,-99,-99,-99,-99,2,-99,-99,-99,-99
0,1,3,4,100,-99,-99,100,-99,-99,-99,-99,2,-99,-99,-99,-99
1,1,1,1,100,-99,-99,100,-99,-99,-99,-99,-99,-99,-99,-99,-99
1,1,3,3,100,-99,-99,100,-99,-99,-99,-99,2,-99,-99,-99,-99
0,2,3,3,100,-99,-99,100,-99,-99,-99,-99,-99,-99,-99,-99,-99
1,2,3,3,100,-99,-99,100,-99,-99,-99,-99,2,-99,-99,-99,-99
0,2,2,3,100,-99,-99,100,-99,-99,-99,-99,3,10,15,2,15
1,2,3,3,100,-99,-99,100,-99,-99,-99,-99,2,-99,-99,-99,-99
1,2,5,3,100,-99,-99,100,-99,-99,-99,-99,2,-99,-99,-99,-99
1,2,3,3,100,-99,-99,100,-99,-99,-99,-99,2,-99,-99,-99,-99
1,2,3,2,100,-99,-99,100,-99,-99,-99,-99,1,-99,-99,-99,-99
1,2,4,3,100,-99,-99,100,-99,-99,-99,-99,2,-99,-99,-99,-99
1,2,3,2,100,-99,-99,100,-99,-99,-99,-99,2,-99,-99,-99,-99
1,2,3,3,100,-99,-99,100,-99,-99,-99,-99,2,-99,-99,-99,-99
1,2,3,3,100,-99,-99,100,-99,-99,-99,-99,2,-99,-99,-99,-99
1,2,2,3,100,-99,-99,100,-99,-99,-99,-99,2,-99,-99,-99,-99
1,2,2,2,100,-99,-99,100,-99,-99,-99,-99,2,-99,-99,-99,-99
1,2,3,3,100,-99,-99,100,-99,-99,-99,-99,2,-99,-99,-99,-99
1,2,3,3,100,-99,-99,100,-99,-99,-99,-99,2,-99,-99,-99,-99
1,2,3,1,100,-99,-99,100,-99,-99,-99,-99,2,-99,-99,-99,-99
1,2,-99,3,100,-99,-99,100,-99,-99,-99,-99,2,-99,-99,-99,-99
1,2,3,2,100,-99,-99,100,-99,-99,-99,-99,2,-99,-99,-99,-99
1,2,3,3,100,-99,-99,100,-99,-99,-99,-99,2,-99,-99,-99,-99
1,2,4,3,100,-99,-99,100,-99,-99,-99,-99,2,-99,-99,-99,-99
0,2,2,2,100,-99,-99,100,-99,-99,-99,-99,3,11,16,2,28
1,2,3,3,100,-99,-99,100,-99,-99,-99,-99,2,-99,-99,-99,-99
1,2,3,3,100,-99,-99,100,-99,-99,-99,-99,2,-99,-99,-99,-99
1,2,3,3,100,-99,-99,100,-99,-99,-99,-99,2,-99,-99,-99,-99
1,2,3,3,100,-99,-99,100,-99,-99,-99,-99,2,-99,-99,-99,-99
1,2,3,3,100,-99,-99,100,-99,-99,-99,-99,2,-99,-99,-99,-99
1,2,3,3,100,-99,-99,100,-99,-99,-99,-99,2,-99,-99,-99,-99
1,2,3,3,100,-99,-99,100,-99,-99,-99,-99,1,-99,-99,-99,-99
1,2,1,1,100,-99,-99,100,-99,-99,-99,-99,1,-99,-99,-99,-99
1,2,3,3,100,-99,-99,100,-99,-99,-99,-99,2,-99,-99,-99,-99
1,2,5,3,100,-99,-99,100,-99,-99,-99,-99,2,-99,-99,-99,-99
1,2,3,3,100,-99,-99,100,-99,-99,-99,-99,2,-99,-99,-99,-99
1,2,3,3,100,-99,-99,100,-99,-99,-99,-99,2,-99,-99,-99,-99
0,2,-99,2,100,-99,-99,100,-99,-99,-99,-99,2,-99,-99,-99,-99
1,2,3,3,100,-99,-99,100,-99,-99,-99,-99,2,-99,-99,-99,-99
1,2,3,2,100,-99,-99,100,-99,-99,-99,-99,2,-99,-99,-99,-99
1,2,2,3,100,-99,-99,100,-99,-99,-99,-99,2,-99,-99,-99,-99
1,2,1,3,100,-99,-99,100,-99,-99,-99,-99,2,-99,-99,-99,-99
1,2,3,3,100,-99,-99,100,-99,-99,-99,-99,2,-99,-99,-99,-99
1,2,3,3,100,-99,-99,100,-99,-99,-99,-99,2,-99,-99,-99,-99
0,2,5,3,100,-99,-99,100,-99,-99,-99,-99,2,1,1,12,31
0,2,1,3,100,-99,-99,100,-99,-99,-99,-99,1,-99,-99,-99,-99
1,2,3,3,100,-99,-99,100,-99,-99,-99,-99,2,-99,-99,-99,-99
1,2,2,2,100,-99,-99,100,-99,-99,-99,-99,3,-99,-99,-99,-99
0,2,3,3,100,-99,-99,100,-99,-99,-99,-99,2,-99,-99,-99,-99
1,2,2,2,100,-99,-99,100,-99,-99,-99,-99,2,-99,-99,-99,-99
1,2,3,3,100,-99,-99,100,-99,-99,-99,-99,2,-99,-99,-99,-99
1,3,4,3,100,-99,-99,100,-99,-99,-99,-99,2,-99,-99,-99,-99
1,3,3,4,100,-99,-99,100,-99,-99,-99,-99,2,-99,-99,-99,-99
1,3,3,1,100,-99,-99,100,-99,-99,-99,-99,2,-99,-99,-99,-99
0,3,3,4,100,-99,-99,100,-99,-99,-99,-99,2,-99,-99,-99,-99
0,3,5,4,100,-99,-99,100,-99,-99,-99,-99,1,-99,-99,-99,-99
1,3,3,3,100,-99,-99,100,-99,-99,-99,-99,2,-99,-99,-99,-99
1,3,3,3,100,-99,-99,100,-99,-99,-99,-99,2,-99,-99,-99,-99
1,3,3,3,100,-99,-99,100,-99,-99,-99,-99,2,-99,-99,-99,-99
0,3,3,3,100,-99,-99,100,-99,-99,-99,-99,2,-99,-99,-99,-99
1,3,3,3,100,-99,-99,100,-99,-99,-99,-99,2,-99,-99,-99,-99
1,3,4,3,100,-99,-99,100,-99,-99,-99,-99,2,-99,-99,-99,-99
1,3,3,3,100,-99,-99,100,-99,-99,-99,-99,2,-99,-99,-99,-99
1,3,3,3,100,-99,-99,100,-99,-99,-99,-99,2,-99,-99,-99,-99
1,3,1,3,100,-99,-99,100,-99,-99,-99,-99,2,-99,-99,-99,-99
1,3,3,2,100,-99,-99,100,-99,-99,-99,-99,2,-99,-99,-99,-99
1,3,3,3,100,-99,-99,100,-99,-99,-99,-99,2,-99,-99,-99,-99
1,3,3,3,100,-99,-99,100,-99,-99,-99,-99,2,-99,-99,-99,-99
1,3,3,3,100,-99,-99,100,-99,-99,-99,-99,2,-99,-99,-99,-99
1,1,1,3,90,-99,-99,100,-99,-99,-99,-99,2,-99,-99,-99,-99
1,1,3,2,80,-99,-99,100,-99,-99,-99,-99,2,-99,-99,-99,-99
1,2,2,3,15,-99,-99,100,-99,-99,-99,-99,2,-99,-99,-99,-99
1,1,2,3,10,90,-99,99,-99,1,-99,-99,2,-99,-99,-99,-99
1,2,1,4,50,50,-99,99,-99,-99,1,-99,2,-99,-99,-99,-99
1,2,3,3,100,-99,-99,99,-99,1,-99,-99,2,-99,-99,-99,-99
1,1,1,2,99,1,-99,98,-99,2,-99,-99,2,-99,-99,-99,-99
1,1,3,2,-99,90,10,95,-99,5,-99,-99,2,-99,-99,-99,-99
1,1,3,3,-99,100,-99,95,-99,5,-99,-99,2,-99,-99,-99,-99
0,1,5,4,-99,100,-99,95,-99,5,-99,-99,2,-99,-99,-99,-99
1,1,-99,3,-99,100,-99,95,-99,5,-99,-99,2,-99,-99,-99,-99
1,1,4,3,10,90,-99,95,-99,5,-99,-99,2,-99,-99,-99,-99
1,1,5,4,10,90,-99,95,-99,5,-99,-99,2,-99,-99,-99,-99
1,1,2,4,20,80,-99,95,-99,5,-99,-99,2,-99,-99,-99,-99
1,1,4,3,50,50,-99,95,-99,5,-99,-99,2,-99,-99,-99,-99
0,1,3,3,50,50,-99,95,-99,5,-99,-99,3,10,1,3,1
0,1,2,3,80,20,-99,95,-99,4,1,-99,3,-99,-99,-99,-99
1,2,3,3,80,20,-99,95,-99,5,-99,-99,2,-99,-99,-99,-99
1,1,3,3,90,10,-99,95,-99,5,-99,-99,2,-99,-99,-99,-99
1,1,3,3,100,-99,-99,95,-99,5,-99,-99,2,-99,-99,-99,-99
1,1,2,3,100,-99,-99,95,-99,5,-99,-99,2,-99,-99,-99,-99
0,1,3,3,100,-99,-99,95,-99,5,-99,-99,2,1,1,-99,-99
1,1,3,3,100,-99,-99,95,-99,5,-99,-99,2,-99,-99,-99,-99
0,2,3,3,100,-99,-99,95,-99,5,-99,-99,2,-99,-99,-99,-99
1,2,3,4,100,-99,-99,95,-99,5,-99,-99,2,-99,-99,-99,-99
1,2,2,3,20,70,10,90,-99,10,-99,-99,2,-99,-99,-99,-99
1,1,3,4,-99,100,-99,90,-99,10,-99,-99,2,-99,-99,-99,-99
1,1,4,3,-99,100,-99,90,-99,10,-99,-99,2,-99,-99,-99,-99
1,1,1,1,-99,100,-99,90,-99,10,-99,-99,2,-99,-99,-99,-99
1,1,4,3,-99,100,-99,90,-99,10,-99,-99,2,-99,-99,-99,-99
1,2,2,2,-99,100,-99,90,-99,10,-99,-99,2,-99,-99,-99,-99
1,2,4,3,-99,100,-99,90,-99,10,-99,-99,2,-99,-99,-99,-99
1,2,3,3,-99,100,-99,90,-99,10,-99,-99,2,-99,-99,-99,-99
1,2,2,4,-99,100,-99,90,-99,10,-99,-99,2,-99,-99,-99,-99
0,3,2,2,-99,100,-99,90,-99,10,-99,-99,1,10,1,-99,-99
1,1,5,4,1,99,-99,90,-99,10,-99,-99,2,-99,-99,-99,-99
0,2,3,3,5,95,-99,90,-99,10,-99,-99,1,6,1,5,31
1,1,4,4,10,90,-99,90,-99,10,-99,-99,2,-99,-99,-99,-99
1,1,3,3,10,90,-99,90,-99,10,-99,-99,2,-99,-99,-99,-99
1,1,3,3,10,90,-99,90,-99,10,-99,-99,2,-99,-99,-99,-99
1,2,3,3,10,90,-99,90,-99,10,-99,-99,2,-99,-99,-99,-99
1,2,3,3,10,90,-99,90,-99,10,-99,-99,2,-99,-99,-99,-99
0,2,3,3,10,90,-99,90,-99,10,-99,-99,2,1,1,12,31
1,3,3,3,10,90,-99,90,-99,10,-99,-99,2,-99,-99,-99,-99
1,1,3,3,20,80,-99,90,-99,10,-99,-99,2,-99,-99,-99,-99
1,1,3,3,20,80,-99,90,-99,10,-99,-99,2,-99,-99,-99,-99
1,1,3,4,20,80,-99,90,-99,10,-99,-99,2,-99,-99,-99,-99
1,1,3,2,20,80,-99,90,-99,10,-99,-99,2,-99,-99,-99,-99
1,1,2,3,20,80,-99,90,-99,10,-99,-99,2,-99,-99,-99,-99
1,2,4,3,20,80,-99,90,-99,10,-99,-99,2,-99,-99,-99,-99
1,2,5,3,25,75,-99,90,-99,10,-99,-99,2,-99,-99,-99,-99
1,2,4,3,30,70,-99,90,-99,10,-99,-99,2,-99,-99,-99,-99
1,2,3,3,40,60,-99,90,-99,10,-99,-99,2,-99,-99,-99,-99
1,1,2,2,50,50,-99,90,-99,10,-99,-99,2,-99,-99,-99,-99
1,1,4,3,50,50,-99,90,-99,10,-99,-99,2,-99,-99,-99,-99
1,1,2,2,50,50,-99,90,-99,10,-99,-99,2,-99,-99,-99,-99
1,1,3,4,50,50,-99,90,-99,10,-99,-99,2,-99,-99,-99,-99
1,1,3,2,50,50,-99,90,-99,10,-99,-99,2,-99,-99,-99,-99
1,1,4,3,50,50,-99,90,-99,10,-99,-99,2,-99,-99,-99,-99
1,2,3,3,50,50,-99,90,-99,10,-99,-99,2,-99,-99,-99,-99
1,2,4,3,50,50,-99,90,-99,10,-99,-99,2,-99,-99,-99,-99
1,3,4,4,50,50,-99,90,-99,10,-99,-99,2,-99,-99,-99,-99
1,3,4,3,50,50,-99,90,-99,10,-99,-99,2,-99,-99,-99,-99
1,3,3,3,50,50,-99,90,-99,10,-99,-99,2,-99,-99,-99,-99
1,3,4,3,50,50,-99,90,-99,10,-99,-99,2,-99,-99,-99,-99
1,2,2,3,60,40,-99,90,-99,10,-99,-99,2,-99,-99,-99,-99
1,1,4,3,70,30,-99,90,-99,10,-99,-99,1,-99,-99,-99,-99
1,1,3,4,70,30,-99,90,-99,10,-99,-99,2,-99,-99,-99,-99
1,1,3,3,70,30,-99,90,-99,10,-99,-99,2,-99,-99,-99,-99
1,1,2,3,70,30,-99,90,-99,10,-99,-99,2,-99,-99,-99,-99
1,2,3,3,70,30,-99,90,-99,10,-99,-99,2,-99,-99,-99,-99
1,2,2,3,70,30,-99,90,-99,10,-99,-99,2,-99,-99,-99,-99
1,2,3,3,75,25,-99,90,10,-99,-99,-99,2,-99,-99,-99,-99
1,1,3,3,90,20,-99,90,-99,10,-99,-99,2,-99,-99,-99,-99
1,1,3,4,80,20,-99,90,-99,10,-99,-99,2,-99,-99,-99,-99
1,1,3,4,80,20,-99,90,-99,10,-99,-99,2,-99,-99,-99,-99
1,1,3,3,80,20,-99,90,-99,10,-99,-99,2,-99,-99,-99,-99
1,1,3,3,80,20,-99,90,-99,10,-99,-99,2,-99,-99,-99,-99
1,2,3,3,80,20,-99,90,-99,10,-99,-99,2,-99,-99,-99,-99
1,2,3,3,80,20,-99,90,-99,10,-99,-99,2,-99,-99,-99,-99
0,2,3,3,80,20,-99,90,-99,10,-99,-99,1,1,1,12,31
1,2,3,3,80,20,-99,90,-99,10,-99,-99,2,-99,-99,-99,-99
1,1,3,3,90,10,-99,90,-99,10,-99,-99,2,-99,-99,-99,-99
1,1,3,3,90,10,-99,90,-99,10,-99,-99,-99,-99,-99,-99,-99
1,1,3,3,90,10,-99,90,-99,10,-99,-99,2,-99,-99,-99,-99
1,1,5,4,90,10,-99,90,-99,10,-99,-99,2,-99,-99,-99,-99
1,1,3,4,90,10,-99,90,-99,10,-99,-99,2,-99,-99,-99,-99
0,2,4,3,90,10,-99,90,-99,10,-99,-99,1,1,1,12,31
1,2,3,3,90,10,-99,90,-99,10,-99,-99,2,-99,-99,-99,-99
1,2,4,3,90,10,-99,90,-99,10,-99,-99,2,-99,-99,-99,-99
1,2,5,3,90,10,-99,90,-99,10,-99,-99,2,-99,-99,-99,-99
1,2,4,3,90,10,-99,90,-99,10,-99,-99,2,-99,-99,-99,-99
1,2,2,3,90,10,-99,90,-99,10,-99,-99,2,-99,-99,-99,-99
1,2,4,4,90,10,-99,90,-99,10,-99,-99,2,-99,-99,-99,-99
1,2,1,3,90,10,-99,90,-99,10,-99,-99,2,-99,-99,-99,-99
1,3,2,2,90,10,-99,90,-99,10,-99,-99,2,-99,-99,-99,-99
1,1,3,3,100,-99,-99,90,-99,10,-99,-99,2,-99,-99,-99,-99
1,1,3,3,100,-99,-99,90,-99,10,-99,-99,2,-99,-99,-99,-99
0,1,1,3,100,-99,-99,90,-99,10,-99,-99,2,-99,-99,-99,-99
1,1,3,3,100,-99,-99,90,-99,10,-99,-99,2,-99,-99,-99,-99
1,1,1,4,100,-99,-99,90,-99,10,-99,-99,2,-99,-99,-99,-99
1,1,2,2,100,-99,-99,90,-99,10,-99,-99,2,-99,-99,-99,-99
1,1,3,3,100,-99,-99,90,-99,10,-99,-99,2,-99,-99,-99,-99
1,1,2,3,100,-99,-99,90,-99,10,-99,-99,2,-99,-99,-99,-99
1,1,3,3,100,-99,-99,90,-99,10,-99,-99,2,-99,-99,-99,-99
1,1,3,3,100,-99,-99,90,-99,10,-99,-99,2,-99,-99,-99,-99
1,2,2,3,100,-99,-99,90,10,-99,-99,-99,2,-99,-99,-99,-99
0,2,3,3,100,-99,-99,90,-99,10,-99,-99,2,-99,-99,-99,-99
0,2,3,3,100,-99,-99,90,-99,10,-99,-99,3,10,-99,3,-99
1,2,3,3,100,-99,-99,90,-99,10,-99,-99,2,-99,-99,-99,-99
1,2,1,2,100,-99,-99,90,-99,10,-99,-99,2,-99,-99,-99,-99
1,2,3,3,100,-99,-99,90,-99,10,-99,-99,2,-99,-99,-99,-99
1,2,4,3,100,-99,-99,90,-99,10,-99,-99,2,-99,-99,-99,-99
1,3,3,1,100,-99,-99,90,-99,10,-99,-99,2,-99,-99,-99,-99
1,1,2,-99,75,-99,-99,90,10,-99,-99,-99,2,-99,-99,-99,-99
0,2,4,3,85,15,-99,85,-99,15,-99,-99,2,1,-99,12,-99
0,3,2,2,85,15,-99,85,-99,15,-99,-99,3,11,1,3,31
1,1,3,4,90,10,-99,85,5,10,-99,-99,2,-99,-99,-99,-99
1,2,3,3,90,10,-99,85,-99,15,-99,-99,2,-99,-99,-99,-99
0,1,3,3,60,30,10,80,-99,20,-99,-99,2,7,1,6,30
1,1,2,3,80,10,10,80,10,10,-99,-99,2,-99,-99,-99,-99
1,1,2,3,80,10,10,80,10,10,-99,-99,2,-99,-99,-99,-99
1,1,4,3,-99,100,-99,80,-99,20,-99,-99,2,-99,-99,-99,-99
1,1,3,4,-99,100,-99,80,-99,20,-99,-99,2,-99,-99,-99,-99
1,1,1,3,-99,100,-99,80,-99,20,-99,-99,1,-99,-99,-99,-99
1,1,3,3,-99,100,-99,80,-99,20,-99,-99,2,-99,-99,-99,-99
1,2,5,4,-99,100,-99,80,-99,20,-99,-99,2,-99,-99,-99,-99
1,2,2,2,-99,100,-99,80,-99,20,-99,-99,2,-99,-99,-99,-99
1,2,2,2,-99,100,-99,80,-99,20,-99,-99,2,-99,-99,-99,-99
1,2,3,2,-99,100,-99,80,-99,20,-99,-99,2,-99,-99,-99,-99
1,2,4,3,-99,100,-99,80,-99,20,-99,-99,2,-99,-99,-99,-99
1,3,4,3,-99,100,-99,80,-99,20,-99,-99,2,-99,-99,-99,-99
0,1,5,3,1,99,-99,80,-99,10,10,-99,1,-99,-99,-99,-99
1,1,3,1,10,90,-99,80,20,-99,-99,-99,2,-99,-99,-99,-99
1,2,3,2,10,90,-99,80,-99,20,-99,-99,2,-99,-99,-99,-99
1,3,3,3,10,90,-99,80,-99,20,-99,-99,2,-99,-99,-99,-99
1,1,2,2,20,80,-99,80,20,-99,-99,-99,2,-99,-99,-99,-99
1,1,3,4,20,80,-99,80,-99,20,-99,-99,2,-99,-99,-99,-99
0,1,3,4,20,80,-99,80,-99,20,-99,-99,2,-99,-99,-99,-99
1,3,2,3,20,80,-99,80,-99,20,-99,-99,2,-99,-99,-99,-99
1,1,2,3,25,75,-99,80,10,10,-99,-99,2,-99,-99,-99,-99
1,1,3,3,25,75,-99,80,-99,20,-99,-99,2,-99,-99,-99,-99
0,1,3,4,25,75,-99,80,-99,20,-99,-99,2,-99,-99,-99,-99
1,2,3,3,25,75,-99,80,-99,20,-99,-99,2,-99,-99,-99,-99
1,1,3,4,30,70,-99,80,-99,20,-99,-99,2,-99,-99,-99,-99
1,2,3,3,30,70,-99,80,-99,20,-99,-99,2,-99,-99,-99,-99
0,2,1,3,30,70,-99,80,-99,20,-99,-99,2,10,15,3,15
1,3,3,3,30,70,-99,80,-99,20,-99,-99,2,-99,-99,-99,-99
1,3,3,3,30,70,-99,80,-99,20,-99,-99,2,-99,-99,-99,-99
1,3,4,3,40,60,-99,80,-99,20,-99,-99,2,-99,-99,-99,-99
0,1,4,4,50,50,-99,80,-99,20,-99,-99,2,-99,-99,-99,-99
0,1,3,3,50,50,-99,80,-99,20,-99,-99,2,11,15,1,31
1,1,3,2,50,50,-99,80,20,-99,-99,-99,2,-99,-99,-99,-99
1,2,3,4,50,50,-99,80,-99,20,-99,-99,2,-99,-99,-99,-99
1,2,4,3,50,50,-99,80,-99,20,-99,-99,2,-99,-99,-99,-99
1,2,3,3,50,50,-99,80,-99,20,-99,-99,2,-99,-99,-99,-99
1,3,3,3,50,50,-99,80,-99,20,-99,-99,2,-99,-99,-99,-99
1,3,3,3,50,50,-99,80,-99,20,-99,-99,2,-99,-99,-99,-99
1,2,3,3,60,40,-99,80,-99,20,-99,-99,2,-99,-99,-99,-99
1,2,2,2,60,40,-99,80,10,10,-99,-99,2,-99,-99,-99,-99
1,3,4,3,60,40,-99,80,-99,20,-99,-99,2,-99,-99,-99,-99
0,1,2,3,70,30,-99,80,-99,20,-99,-99,2,10,25,1,15
1,1,3,3,70,30,-99,80,-99,20,-99,-99,2,-99,-99,-99,-99
0,2,3,3,70,30,-99,80,-99,20,-99,-99,3,10,1,2,28
1,1,2,3,80,20,-99,80,-99,20,-99,-99,2,-99,-99,-99,-99
1,1,3,1,80,20,-99,80,-99,20,-99,-99,2,-99,-99,-99,-99
1,1,3,3,80,20,-99,80,-99,20,-99,-99,2,-99,-99,-99,-99
1,1,3,4,80,20,-99,80,-99,20,-99,-99,2,-99,-99,-99,-99
1,1,3,3,80,20,-99,80,8,8,4,-99,2,-99,-99,-99,-99
1,2,2,2,80,20,-99,80,-99,20,-99,-99,2,-99,-99,-99,-99
1,2,2,2,80,20,-99,80,-99,20,-99,-99,2,-99,-99,-99,-99
0,3,1,2,80,20,-99,80,-99,20,-99,-99,3,-99,-99,-99,-99
1,3,4,3,80,20,-99,80,-99,10,-99,-99,2,-99,-99,-99,-99
1,1,2,3,85,15,-99,80,-99,20,-99,-99,2,-99,-99,-99,-99
1,1,1,2,90,10,-99,80,-99,20,-99,-99,2,-99,-99,-99,-99
1,1,1,3,90,10,-99,80,-99,20,-99,-99,2,-99,-99,-99,-99
1,2,2,3,90,10,-99,80,-99,20,-99,-99,2,-99,-99,-99,-99
1,2,2,3,90,10,-99,80,-99,20,-99,-99,2,-99,-99,-99,-99
1,2,3,3,90,10,-99,80,-99,20,-99,-99,2,-99,-99,-99,-99
0,1,3,2,100,-99,-99,80,-99,20,-99,-99,3,10,1,2,30
1,1,3,3,100,-99,-99,80,-99,20,-99,-99,1,-99,-99,-99,-99
1,1,3,3,100,-99,-99,80,-99,20,-99,-99,2,-99,-99,-99,-99
1,2,3,3,100,-99,-99,80,-99,20,-99,-99,2,-99,-99,-99,-99
1,2,3,3,100,-99,-99,80,-99,20,-99,-99,2,-99,-99,-99,-99
1,2,3,3,100,-99,-99,80,-99,20,-99,-99,2,-99,-99,-99,-99
1,2,3,3,100,-99,-99,80,-99,20,-99,-99,2,-99,-99,-99,-99
1,2,3,2,100,-99,-99,80,-99,20,-99,-99,2,-99,-99,-99,-99
1,2,3,3,100,-99,-99,80,-99,20,-99,-99,2,-99,-99,-99,-99
1,3,3,3,100,-99,-99,80,-99,20,-99,-99,2,-99,-99,-99,-99
1,3,5,3,100,-99,-99,80,-99,20,-99,-99,2,-99,-99,-99,-99
1,3,3,3,100,-99,-99,80,-99,20,-99,-99,2,-99,-99,-99,-99
1,2,4,3,-99,100,-99,75,-99,25,-99,-99,2,-99,-99,-99,-99
1,3,4,3,-99,100,-99,75,-99,25,-99,-99,2,-99,-99,-99,-99
1,2,3,3,20,80,-99,75,-99,25,-99,-99,2,-99,-99,-99,-99
1,3,3,3,20,80,-99,75,-99,25,-99,-99,2,-99,-99,-99,-99
1,2,3,3,25,75,-99,75,-99,25,-99,-99,2,-99,-99,-99,-99
1,1,3,3,50,50,-99,75,-99,25,-99,-99,2,-99,-99,-99,-99
1,1,4,3,50,50,-99,75,-99,25,-99,-99,2,-99,-99,-99,-99
1,1,3,3,50,50,-99,75,-99,25,-99,-99,2,-99,-99,-99,-99
1,2,3,3,50,50,-99,75,25,-99,-99,-99,2,-99,-99,-99,-99
1,2,3,3,50,50,-99,75,-99,25,-99,-99,2,-99,-99,-99,-99
1,3,4,3,50,50,-99,75,-99,25,-99,-99,2,-99,-99,-99,-99
1,3,4,4,50,50,-99,75,-99,25,-99,-99,2,-99,-99,-99,-99
1,3,4,4,60,40,-99,75,-99,20,5,-99,2,-99,-99,-99,-99
1,1,3,2,90,10,-99,75,-99,25,-99,-99,2,-99,-99,-99,-99
1,1,3,2,100,-99,-99,75,-99,25,-99,-99,2,-99,-99,-99,-99
1,1,3,3,100,-99,-99,75,-99,25,-99,-99,2,-99,-99,-99,-99
1,2,3,3,100,-99,-99,75,15,10,-99,-99,2,-99,-99,-99,-99
1,1,4,3,-99,50,50,70,-99,-99,30,-99,2,-99,-99,-99,-99
1,2,3,3,20,70,10,70,10,30,-99,-99,2,-99,-99,-99,-99
1,1,4,3,-99,100,-99,70,-99,30,-99,-99,2,-99,-99,-99,-99
1,1,3,3,-99,100,-99,70,10,20,-99,-99,2,-99,-99,-99,-99
0,1,4,4,-99,100,-99,70,-99,30,-99,-99,2,-99,-99,-99,-99
1,2,3,4,-99,100,-99,70,-99,30,-99,-99,2,-99,-99,-99,-99
1,3,2,3,-99,100,-99,70,-99,30,-99,-99,2,-99,-99,-99,-99
1,2,2,3,10,90,-99,70,-99,30,-99,-99,2,-99,-99,-99,-99
1,2,3,3,20,80,-99,70,-99,30,-99,-99,2,-99,-99,-99,-99
1,2,3,3,25,75,-99,70,-99,30,-99,-99,2,-99,-99,-99,-99
1,1,2,2,50,50,-99,70,-99,30,-99,-99,2,-99,-99,-99,-99
1,1,4,3,50,50,-99,70,-99,30,-99,-99,2,-99,-99,-99,-99
0,1,3,3,50,50,-99,70,10,10,10,-99,2,7,1,6,30
1,1,4,3,50,50,-99,70,-99,30,-99,-99,2,-99,-99,-99,-99
1,2,2,3,50,50,-99,70,-99,30,-99,-99,2,-99,-99,-99,-99
1,2,3,3,50,50,-99,70,-99,30,-99,-99,2,-99,-99,-99,-99
1,3,3,3,50,50,-99,70,-99,30,-99,-99,2,-99,-99,-99,-99
1,3,4,3,50,50,-99,70,-99,30,-99,-99,2,-99,-99,-99,-99
1,2,3,3,60,40,-99,70,-99,30,-99,-99,2,-99,-99,-99,-99
0,2,4,3,70,30,-99,70,-99,30,-99,-99,2,-99,-99,-99,-99
1,1,3,3,80,20,-99,70,-99,30,-99,-99,2,-99,-99,-99,-99
0,2,4,3,80,20,-99,70,-99,30,-99,-99,2,-99,-99,-99,-99
1,2,2,3,80,20,-99,70,-99,30,-99,-99,2,-99,-99,-99,-99
1,1,2,2,90,10,-99,70,-99,30,-99,-99,2,-99,-99,-99,-99
0,2,3,3,90,10,-99,70,-99,30,-99,-99,2,-99,-99,-99,-99
0,2,2,3,90,10,-99,70,-99,30,-99,-99,2,-99,-99,-99,-99
1,3,3,3,90,10,-99,70,-99,30,-99,-99,2,-99,-99,-99,-99
1,1,3,3,100,-99,-99,70,-99,30,-99,-99,2,-99,-99,-99,-99
0,2,3,2,100,-99,-99,70,-99,30,-99,-99,1,1,1,12,31
1,2,4,3,100,-99,-99,70,-99,30,-99,-99,2,-99,-99,-99,-99
1,3,3,3,100,-99,-99,70,-99,30,-99,-99,2,-99,-99,-99,-99
1,1,3,2,-99,100,-99,65,-99,35,-99,-99,2,-99,-99,-99,-99
1,1,5,4,90,10,-99,65,-99,35,-99,-99,2,-99,-99,-99,-99
1,1,5,4,90,10,-99,65,-99,35,-99,-99,2,-99,-99,-99,-99
1,3,2,2,-99,100,-99,60,-99,-99,40,-99,1,-99,-99,-99,-99
1,1,4,4,10,90,-99,60,30,10,-99,-99,2,-99,-99,-99,-99
1,3,3,3,20,80,-99,60,20,20,-99,-99,1,-99,-99,-99,-99
1,3,5,3,20,80,-99,60,-99,40,-99,-99,2,-99,-99,-99,-99
0,2,3,3,30,70,-99,60,-99,40,-99,-99,2,-99,-99,-99,-99
1,1,3,4,50,50,-99,60,-99,40,-99,-99,2,-99,-99,-99,-99
0,2,2,3,50,50,-99,60,-99,40,-99,-99,2,-99,-99,-99,-99
1,2,4,3,50,50,-99,60,-99,40,-99,-99,2,-99,-99,-99,-99
1,3,4,3,50,50,-99,60,-99,40,-99,-99,2,-99,-99,-99,-99
1,3,4,4,50,50,-99,60,-99,40,-99,-99,2,-99,-99,-99,-99
1,1,3,3,70,30,-99,60,-99,40,-99,-99,2,-99,-99,-99,-99
1,1,4,1,80,20,-99,60,-99,40,-99,-99,2,-99,-99,-99,-99
1,2,4,3,80,20,-99,60,40,-99,-99,-99,1,-99,-99,-99,-99
1,2,3,4,80,20,-99,60,-99,40,-99,-99,2,-99,-99,-99,-99
1,3,2,2,80,20,-99,60,-99,40,-99,-99,2,-99,-99,-99,-99
0,3,3,3,90,10,-99,60,-99,40,-99,-99,2,-99,-99,-99,-99
1,1,3,3,100,-99,-99,60,-99,40,-99,-99,2,-99,-99,-99,-99
1,2,1,2,100,-99,-99,55,-99,45,-99,-99,2,-99,-99,-99,-99
1,1,4,3,-99,100,-99,50,-99,50,-99,-99,2,-99,-99,-99,-99
1,1,3,3,-99,100,-99,50,-99,50,-99,-99,2,-99,-99,-99,-99
1,1,3,3,-99,100,-99,50,25,25,-99,-99,2,-99,-99,-99,-99
1,1,1,1,-99,100,-99,50,-99,50,-99,-99,2,-99,-99,-99,-99
1,1,3,3,-99,100,-99,50,-99,50,-99,-99,2,-99,-99,-99,-99
1,1,3,4,-99,100,-99,50,-99,50,-99,-99,2,-99,-99,-99,-99
0,2,1,3,-99,100,-99,50,-99,50,-99,-99,-99,-99,-99,-99,-99
0,2,5,3,-99,100,-99,50,-99,50,-99,-99,1,7,1,6,30
1,2,-99,3,-99,100,-99,50,-99,50,-99,-99,2,-99,-99,-99,-99
1,2,3,3,-99,100,-99,50,-99,-99,-99,50,2,-99,-99,-99,-99
1,2,3,4,-99,100,-99,50,-99,50,-99,-99,2,-99,-99,-99,-99
1,3,4,3,-99,100,-99,50,-99,50,-99,-99,2,-99,-99,-99,-99
1,3,3,3,-99,100,-99,50,-99,50,-99,-99,2,-99,-99,-99,-99
0,3,1,2,-99,100,-99,50,-99,-99,50,-99,2,-99,-99,-99,-99
1,3,4,3,-99,100,-99,50,-99,50,-99,-99,2,-99,-99,-99,-99
0,2,3,3,5,95,-99,50,-99,50,-99,-99,2,7,1,8,31
0,1,3,3,10,90,-99,50,-99,50,-99,-99,2,-99,-99,-99,-99
1,1,3,3,10,90,-99,50,20,30,-99,-99,2,-99,-99,-99,-99
1,1,3,3,10,90,-99,50,-99,50,-99,-99,2,-99,-99,-99,-99
1,3,2,4,10,90,-99,50,-99,50,-99,-99,2,-99,-99,-99,-99
1,1,3,4,20,80,-99,50,-99,50,-99,-99,2,-99,-99,-99,-99
1,2,3,3,20,80,-99,50,-99,50,-99,-99,2,-99,-99,-99,-99
1,2,3,3,20,80,-99,50,-99,-99,50,-99,2,-99,-99,-99,-99
1,2,4,3,20,80,-99,50,-99,50,-99,-99,2,-99,-99,-99,-99
1,1,2,3,30,70,-99,50,-99,50,-99,-99,2,-99,-99,-99,-99
1,1,2,3,30,70,-99,50,-99,50,-99,-99,2,-99,-99,-99,-99
1,1,2,2,30,70,-99,50,-99,50,-99,-99,2,-99,-99,-99,-99
1,1,4,3,30,70,-99,50,-99,50,-99,-99,2,-99,-99,-99,-99
1,1,3,3,50,50,-99,50,-99,50,-99,-99,2,-99,-99,-99,-99
1,1,3,3,50,50,-99,50,-99,50,-99,-99,2,-99,-99,-99,-99
1,1,5,3,50,50,-99,50,-99,25,25,-99,2,-99,-99,-99,-99
0,1,3,3,50,50,-99,50,-99,50,-99,-99,2,7,1,6,30
1,1,5,3,50,50,-99,50,-99,50,-99,-99,2,-99,-99,-99,-99
1,1,3,3,50,50,-99,50,-99,50,-99,-99,2,-99,-99,-99,-99
1,1,3,3,50,50,-99,50,-99,50,-99,-99,2,-99,-99,-99,-99
1,2,3,3,50,50,-99,50,-99,50,-99,-99,2,-99,-99,-99,-99
1,2,3,3,50,50,-99,50,-99,50,-99,-99,2,-99,-99,-99,-99
1,2,4,3,50,50,-99,50,-99,50,-99,-99,1,-99,-99,-99,-99
1,2,2,3,50,50,-99,50,-99,50,-99,-99,2,-99,-99,-99,-99
1,3,2,2,50,50,-99,50,-99,50,-99,-99,2,-99,-99,-99,-99
1,3,4,4,50,50,-99,50,-99,50,-99,-99,2,-99,-99,-99,-99
1,3,3,3,50,50,-99,50,-99,50,-99,-99,2,-99,-99,-99,-99
1,3,4,3,50,50,-99,50,-99,50,-99,-99,2,-99,-99,-99,-99
1,3,3,3,50,50,-99,50,-99,50,-99,-99,2,-99,-99,-99,-99
0,3,3,3,50,50,-99,50,-99,50,-99,-99,2,11,1,-99,-99
1,1,2,3,70,30,-99,50,-99,20,30,-99,2,-99,-99,-99,-99
1,1,3,3,75,25,-99,50,-99,50,-99,-99,2,-99,-99,-99,-99
1,2,4,3,75,25,-99,50,-99,50,-99,-99,2,-99,-99,-99,-99
1,2,4,3,75,25,-99,50,-99,50,-99,-99,2,-99,-99,-99,-99
1,1,2,3,80,20,-99,50,-99,50,-99,-99,2,-99,-99,-99,-99
1,1,3,3,80,20,-99,50,-99,50,-99,-99,2,-99,-99,-99,-99
0,1,1,3,80,20,-99,50,-99,50,-99,-99,2,-99,-99,-99,-99
1,1,1,3,80,20,-99,50,-99,50,-99,-99,2,-99,-99,-99,-99
1,2,4,3,80,20,-99,50,-99,50,-99,-99,2,-99,-99,-99,-99
1,2,3,3,80,20,-99,50,-99,50,-99,-99,2,-99,-99,-99,-99
0,2,3,4,80,20,-99,50,-99,50,-99,-99,2,-99,-99,-99,-99
0,2,4,3,80,20,-99,50,-99,50,-99,-99,2,11,1,3,31
1,3,2,3,80,20,-99,50,-99,50,-99,-99,2,-99,-99,-99,-99
1,3,4,3,80,20,-99,50,-99,50,-99,-99,2,-99,-99,-99,-99
1,1,3,3,90,10,-99,50,-99,50,-99,-99,2,-99,-99,-99,-99
1,2,4,3,90,10,-99,50,-99,50,-99,-99,2,-99,-99,-99,-99
1,2,2,3,90,10,-99,50,-99,50,-99,-99,2,-99,-99,-99,-99
1,2,3,2,90,10,-99,50,-99,50,-99,-99,2,-99,-99,-99,-99
1,2,3,3,90,10,-99,50,-99,50,-99,-99,2,-99,-99,-99,-99
1,2,3,3,90,10,-99,50,-99,50,-99,-99,2,-99,-99,-99,-99
1,2,4,3,90,10,-99,50,-99,50,-99,-99,2,-99,-99,-99,-99
0,2,3,3,90,10,-99,50,-99,50,-99,-99,2,-99,-99,-99,-99
1,2,2,3,90,10,-99,50,-99,50,-99,-99,2,-99,-99,-99,-99
1,3,3,3,90,10,-99,50,-99,50,-99,-99,2,-99,-99,-99,-99
0,1,3,3,95,5,-99,50,-99,50,-99,-99,2,10,1,2,28
1,1,3,3,100,-99,-99,50,-99,50,-99,-99,2,-99,-99,-99,-99
1,1,2,3,100,-99,-99,50,-99,50,-99,-99,2,-99,-99,-99,-99
1,1,3,3,100,-99,-99,50,-99,50,-99,-99,2,-99,-99,-99,-99
1,1,-99,-99,100,-99,-99,50,50,-99,-99,-99,2,-99,-99,-99,-99
1,2,3,3,100,-99,-99,50,-99,50,-99,-99,2,-99,-99,-99,-99
1,2,3,3,100,-99,-99,50,-99,50,-99,-99,2,-99,-99,-99,-99
1,2,3,2,100,-99,-99,50,-99,50,-99,-99,2,-99,-99,-99,-99
1,2,3,3,100,-99,-99,50,-99,50,-99,-99,2,-99,-99,-99,-99
1,2,2,4,100,-99,-99,50,-99,50,-99,-99,2,-99,-99,-99,-99
1,2,3,3,100,-99,-99,50,-99,50,-99,-99,2,-99,-99,-99,-99
1,2,3,2,100,-99,-99,50,-99,50,-99,-99,2,-99,-99,-99,-99
1,2,3,3,100,-99,-99,50,-99,50,-99,-99,2,-99,-99,-99,-99
1,2,3,4,100,-99,-99,50,-99,50,-99,-99,2,-99,-99,-99,-99
1,2,1,2,100,-99,-99,50,-99,50,-99,-99,2,-99,-99,-99,-99
1,2,3,3,100,-99,-99,50,-99,50,-99,-99,2,-99,-99,-99,-99
1,2,1,1,100,-99,-99,50,10,40,-99,-99,2,-99,-99,-99,-99
1,2,4,3,100,-99,-99,50,-99,50,-99,-99,2,-99,-99,-99,-99
1,2,2,2,100,-99,-99,50,-99,50,-99,-99,2,-99,-99,-99,-99
1,2,2,3,100,-99,-99,50,-99,50,-99,-99,2,-99,-99,-99,-99
1,2,3,3,100,-99,-99,50,-99,50,-99,-99,2,-99,-99,-99,-99
1,2,2,3,100,-99,-99,50,-99,50,-99,-99,2,-99,-99,-99,-99
1,3,2,3,100,-99,-99,50,-99,50,-99,-99,2,-99,-99,-99,-99
1,3,3,3,100,-99,-99,50,-99,50,-99,-99,2,-99,-99,-99,-99
1,3,3,3,100,-99,-99,50,-99,50,-99,-99,2,-99,-99,-99,-99
1,3,3,3,100,-99,-99,50,-99,50,-99,-99,2,-99,-99,-99,-99
1,3,4,3,100,-99,-99,50,-99,50,-99,-99,2,-99,-99,-99,-99
1,3,5,3,100,-99,-99,50,-99,50,-99,-99,2,-99,-99,-99,-99
1,3,2,2,100,-99,-99,50,-99,50,-99,-99,3,-99,-99,-99,-99
0,1,1,2,80,-99,-99,50,-99,50,-99,-99,2,10,15,2,15
0,1,3,3,70,-99,-99,50,-99,40,-99,-99,2,11,1,3,25
1,3,2,3,50,-99,-99,50,-99,50,-99,-99,2,-99,-99,-99,-99
1,1,-99,-99,-99,-99,-99,50,-99,50,-99,-99,2,-99,-99,-99,-99
0,1,2,3,-99,-99,-99,50,-99,50,-99,-99,2,-99,-99,-99,-99
1,2,3,2,-99,-99,-99,50,-99,50,-99,-99,1,-99,-99,-99,-99
0,1,3,3,90,10,-99,49,-99,50,1,-99,2,-99,-99,-99,-99
1,2,3,3,-99,100,-99,40,-99,60,-99,-99,2,-99,-99,-99,-99
1,2,3,3,-99,100,-99,40,-99,60,-99,-99,2,-99,-99,-99,-99
1,2,3,3,-99,100,-99,40,-99,60,-99,-99,2,-99,-99,-99,-99
1,1,3,3,30,70,-99,40,-99,60,-99,-99,2,-99,-99,-99,-99
1,1,4,3,30,70,-99,40,-99,60,-99,-99,2,-99,-99,-99,-99
1,1,3,3,40,60,-99,40,20,40,-99,-99,2,-99,-99,-99,-99
1,1,3,3,40,60,-99,40,-99,60,-99,-99,2,-99,-99,-99,-99
1,1,3,3,50,50,-99,40,30,30,-99,-99,2,-99,-99,-99,-99
1,2,4,3,50,50,-99,40,-99,60,-99,-99,2,-99,-99,-99,-99
1,1,3,4,80,20,-99,40,-99,60,-99,-99,2,-99,-99,-99,-99
1,2,2,3,80,20,-99,40,-99,40,-99,20,2,-99,-99,-99,-99
1,2,2,3,80,20,-99,40,-99,60,-99,-99,2,-99,-99,-99,-99
1,3,3,3,80,20,-99,40,-99,60,-99,-99,2,-99,-99,-99,-99
1,3,3,3,80,20,-99,40,-99,60,-99,-99,2,-99,-99,-99,-99
1,2,3,3,90,10,-99,40,-99,60,-99,-99,2,-99,-99,-99,-99
1,3,1,2,100,-99,-99,40,-99,60,-99,-99,2,-99,-99,-99,-99
1,2,3,3,50,50,-99,33,33,33,-99,-99,2,-99,-99,-99,-99
1,1,3,4,100,-99,-99,33,-99,67,-99,-99,-99,-99,-99,-99,-99
1,1,1,2,-99,100,-99,30,-99,70,-99,-99,2,-99,-99,-99,-99
1,1,3,3,10,90,-99,30,10,60,-99,-99,2,-99,-99,-99,-99
1,1,2,2,20,80,-99,30,20,40,10,-99,2,-99,-99,-99,-99
1,2,4,3,20,80,-99,30,-99,70,-99,-99,2,-99,-99,-99,-99
1,2,4,3,50,50,-99,30,-99,70,-99,-99,2,-99,-99,-99,-99
0,3,3,3,50,50,-99,30,-99,70,-99,-99,2,-99,-99,-99,-99
0,3,5,3,70,30,-99,30,-99,70,-99,-99,2,-99,-99,-99,-99
1,1,2,3,80,20,-99,30,-99,70,-99,-99,2,-99,-99,-99,-99
1,1,2,3,100,-99,-99,30,-99,70,-99,-99,2,-99,-99,-99,-99
0,2,3,3,100,-99,-99,30,-99,70,-99,-99,1,-99,-99,-99,-99
1,2,1,1,100,-99,-99,30,-99,70,-99,-99,1,-99,-99,-99,-99
1,3,4,3,100,-99,-99,30,30,40,-99,-99,2,-99,-99,-99,-99
1,3,3,3,100,-99,-99,30,-99,70,-99,-99,2,-99,-99,-99,-99
1,2,4,4,50,50,-99,25,-99,75,-99,-99,2,-99,-99,-99,-99
1,3,3,3,50,50,-99,25,-99,75,-99,-99,2,-99,-99,-99,-99
1,1,4,4,90,10,-99,25,-99,25,25,-99,2,-99,-99,-99,-99
1,1,3,3,90,10,-99,25,-99,75,-99,-99,2,-99,-99,-99,-99
1,2,3,3,100,-99,-99,25,-99,75,-99,-99,2,-99,-99,-99,-99
1,2,2,3,100,-99,-99,25,-99,75,-99,-99,2,-99,-99,-99,-99
1,3,3,3,100,-99,-99,25,-99,75,-99,-99,2,-99,-99,-99,-99
1,3,3,3,100,-99,-99,25,-99,75,-99,-99,2,-99,-99,-99,-99
1,3,5,3,-99,100,-99,20,-99,80,-99,-99,2,-99,-99,-99,-99
1,1,2,2,10,90,-99,20,-99,80,-99,-99,2,-99,-99,-99,-99
0,2,2,2,-99,90,-99,20,-99,30,-99,-99,2,11,1,3,31
1,1,3,4,20,80,-99,20,-99,80,-99,-99,2,-99,-99,-99,-99
1,1,5,3,20,80,-99,20,20,60,-99,-99,2,-99,-99,-99,-99
0,1,2,3,20,80,-99,20,-99,80,-99,-99,2,-99,-99,-99,-99
1,1,3,3,25,75,-99,20,-99,80,-99,-99,2,-99,-99,-99,-99
1,2,4,3,30,70,-99,20,-99,80,-99,-99,2,-99,-99,-99,-99
1,3,3,3,-99,70,-99,20,20,20,-99,-99,2,-99,-99,-99,-99
1,1,2,3,40,60,-99,20,-99,80,-99,-99,2,-99,-99,-99,-99
1,1,2,2,50,50,-99,20,-99,80,-99,-99,2,-99,-99,-99,-99
1,1,4,4,50,50,-99,20,-99,80,-99,-99,2,-99,-99,-99,-99
1,1,3,3,50,50,-99,20,-99,80,-99,-99,2,-99,-99,-99,-99
1,2,3,3,50,50,-99,20,-99,80,-99,-99,2,-99,-99,-99,-99
1,2,4,3,50,50,-99,20,-99,80,-99,-99,2,-99,-99,-99,-99
1,2,4,3,50,50,-99,20,-99,80,-99,-99,2,-99,-99,-99,-99
1,3,3,3,50,50,-99,20,-99,80,-99,-99,2,-99,-99,-99,-99
1,1,3,3,70,30,-99,20,-99,80,-99,-99,2,-99,-99,-99,-99
1,3,3,3,70,30,-99,20,-99,80,-99,-99,2,-99,-99,-99,-99
1,1,2,2,80,20,-99,20,-99,80,-99,-99,2,-99,-99,-99,-99
1,1,4,4,80,20,-99,20,-99,80,-99,-99,2,-99,-99,-99,-99
1,3,3,3,80,20,-99,20,-99,80,-99,-99,2,-99,-99,-99,-99
1,1,3,3,90,10,-99,20,-99,80,-99,-99,2,-99,-99,-99,-99
1,1,4,3,90,10,-99,20,-99,80,-99,-99,2,-99,-99,-99,-99
1,1,1,3,90,10,-99,20,-99,80,-99,-99,2,-99,-99,-99,-99
1,1,3,3,99,1,-99,20,-99,80,-99,-99,2,-99,-99,-99,-99
1,1,3,3,100,-99,-99,20,-99,80,-99,-99,2,-99,-99,-99,-99
1,1,2,3,100,-99,-99,20,-99,80,-99,-99,2,-99,-99,-99,-99
1,1,1,3,100,-99,-99,20,-99,80,-99,-99,2,-99,-99,-99,-99
0,2,3,2,100,-99,-99,20,-99,80,-99,-99,1,1,1,12,31
1,1,2,3,30,70,-99,15,-99,85,-99,-99,2,-99,-99,-99,-99
1,1,3,3,-99,100,-99,10,-99,90,-99,-99,2,-99,-99,-99,-99
1,2,3,1,-99,100,-99,10,-99,90,-99,-99,2,-99,-99,-99,-99
1,1,4,3,15,85,-99,10,-99,90,-99,-99,2,-99,-99,-99,-99
1,2,3,3,20,80,-99,10,-99,90,-99,-99,2,-99,-99,-99,-99
1,2,4,3,25,75,-99,10,-99,90,-99,-99,2,-99,-99,-99,-99
1,1,2,4,50,50,-99,10,-99,90,-99,-99,2,-99,-99,-99,-99
1,2,3,3,50,50,-99,10,10,10,70,-99,2,-99,-99,-99,-99
1,3,3,3,50,50,-99,10,-99,90,-99,-99,2,-99,-99,-99,-99
1,1,2,3,60,40,-99,10,-99,90,-99,-99,2,-99,-99,-99,-99
1,3,3,3,60,40,-99,10,-99,90,-99,-99,2,-99,-99,-99,-99
1,2,2,2,75,25,-99,10,-99,90,-99,-99,2,-99,-99,-99,-99
1,1,2,3,90,10,-99,10,-99,90,-99,-99,2,-99,-99,-99,-99
1,1,3,3,90,10,-99,10,-99,90,-99,-99,2,-99,-99,-99,-99
1,2,3,3,90,10,-99,10,-99,90,-99,-99,2,-99,-99,-99,-99
1,3,2,2,90,10,-99,10,-99,90,-99,-99,2,-99,-99,-99,-99
1,1,3,3,95,5,-99,10,-99,90,-99,-99,2,-99,-99,-99,-99
1,1,1,3,100,-99,-99,10,-99,90,-99,-99,1,-99,-99,-99,-99
1,2,2,1,100,-99,-99,10,-99,90,-99,-99,2,-99,-99,-99,-99
1,1,3,3,-99,100,-99,5,5,90,-99,-99,2,-99,-99,-99,-99
1,2,3,4,10,90,-99,5,-99,95,-99,-99,2,-99,-99,-99,-99
1,1,3,3,50,50,-99,5,-99,95,-99,-99,2,-99,-99,-99,-99
1,1,3,2,-99,100,-99,2,-99,98,-99,-99,2,-99,-99,-99,-99
1,1,3,1,-99,100,-99,-99,-99,100,-99,-99,2,-99,-99,-99,-99
1,1,3,3,-99,100,-99,-99,-99,100,-99,-99,2,-99,-99,-99,-99
1,1,3,3,-99,100,-99,-99,-99,100,-99,-99,2,-99,-99,-99,-99
0,1,5,1,-99,100,-99,-99,-99,100,-99,-99,2,-99,-99,-99,-99
1,1,3,3,-99,100,-99,-99,-99,100,-99,-99,2,-99,-99,-99,-99
1,1,1,3,-99,100,-99,-99,-99,50,50,-99,2,-99,-99,-99,-99
1,1,4,3,-99,100,-99,-99,-99,100,-99,-99,2,-99,-99,-99,-99
1,2,2,3,-99,100,-99,-99,-99,50,50,-99,2,-99,-99,-99,-99
1,2,3,3,-99,100,-99,-99,-99,100,-99,-99,2,-99,-99,-99,-99
1,1,3,4,10,90,-99,-99,-99,100,-99,-99,2,-99,-99,-99,-99
1,1,3,4,10,90,-99,-99,-99,-99,-99,-99,2,-99,-99,-99,-99
1,1,3,3,10,90,-99,-99,-99,100,-99,-99,2,-99,-99,-99,-99
1,1,3,3,20,80,-99,-99,-99,100,-99,-99,1,-99,-99,-99,-99
1,1,3,4,20,80,-99,-99,-99,100,-99,-99,2,-99,-99,-99,-99
1,3,2,3,20,80,-99,-99,100,-99,-99,-99,2,-99,-99,-99,-99
1,1,3,3,50,50,-99,-99,-99,100,-99,-99,2,-99,-99,-99,-99
1,2,3,2,50,50,-99,-99,-99,100,-99,-99,2,-99,-99,-99,-99
0,2,4,3,60,40,-99,-99,-99,-99,-99,-99,2,-99,-99,-99,-99
1,1,3,3,70,30,-99,-99,-99,100,-99,-99,2,-99,-99,-99,-99
1,3,3,3,75,25,-99,-99,-99,-99,-99,-99,2,-99,-99,-99,-99
1,2,3,-99,80,20,-99,-99,-99,-99,-99,100,2,-99,-99,-99,-99
1,1,3,3,70,20,-99,-99,-99,100,-99,-99,2,-99,-99,-99,-99
1,1,1,3,90,10,-99,-99,-99,100,-99,-99,2,-99,-99,-99,-99
1,1,2,2,80,10,-99,-99,-99,100,-99,-99,2,-99,-99,-99,-99
0,2,5,1,0,0,-99,-99,-99,10,-99,-99,1,1,1,12,31
1,1,3,3,100,-99,-99,-99,-99,100,-99,-99,2,-99,-99,-99,-99
1,1,2,2,100,-99,-99,-99,-99,100,-99,-99,2,-99,-99,-99,-99
1,1,2,3,100,-99,-99,-99,-99,50,50,-99,2,-99,-99,-99,-99
1,2,2,3,100,-99,-99,-99,-99,100,-99,-99,2,-99,-99,-99,-99
1,2,2,3,100,-99,-99,-99,-99,100,-99,-99,2,-99,-99,-99,-99
0,2,5,3,100,-99,-99,-99,-99,100,-99,-99,2,-99,-99,-99,-99
1,3,3,3,100,-99,-99,-99,-99,100,-99,-99,2,-99,-99,-99,-99
1,3,3,3,100,-99,-99,-99,-99,100,-99,-99,2,-99,-99,-99,-99
1,3,2,2,100,-99,-99,-99,-99,100,-99,-99,2,-99,-99,-99,-99
0,3,4,3,100,-99,-99,-99,100,-99,-99,-99,1,11,1,4,30
1,3,3,3,100,-99,-99,-99,-99,100,-99,-99,2,-99,-99,-99,-99
1,3,3,2,100,-99,-99,-99,-99,100,-99,-99,2,-99,-99,-99,-99
0,2,-99,-99,-99,-99,-99,-99,-99,-99,-99,-99,-99,-99,-99,-99,-99
0,2,-99,-99,-99,-99,-99,-99,-99,-99,-99,-99,-99,-99,-99,-99,-99
0,2,-99,-99,-99,-99,-99,-99,-99,-99,-99,-99,-99,-99,-99,-99,-99
0,2,-99,-99,-99,-99,-99,-99,-99,-99,-99,-99,-99,-99,-99,-99,-99
0,2,-99,-99,-99,-99,-99,-99,-99,-99,-99,-99,-99,-99,-99,-99,-99
0,2,-99,-99,-99,-99,-99,-99,-99,-99,-99,-99,1,11,1,3,1
0,2,-99,-99,-99,-99,-99,-99,-99,-99,-99,-99,-99,-99,-99,-99,-99
0,2,-99,-99,-99,-99,-99,-99,-99,-99,-99,-99,-99,-99,-99,-99,-99
0,2,-99,-99,-99,-99,-99,-99,-99,-99,-99,-99,-99,-99,-99,-99,-99
0,3,-99,-99,-99,-99,-99,-99,-99,-99,-99,-99,-99,-99,-99,-99,-99
0,3,-99,-99,-99,-99,-99,-99,-99,-99,-99,-99,-99,-99,-99,-99,-99
0,3,-99,-99,-99,-99,-99,-99,-99,-99,-99,-99,-99,-99,-99,-99,-99
0,3,-99,-99,-99,-99,-99,-99,-99,-99,-99,-99,-99,-99,-99,-99,-99
